xof 0302txt 0064
template Header {
 <3D82AB43-62DA-11cf-AB39-0020AF71E433>
 WORD major;
 WORD minor;
 DWORD flags;
}

template Vector {
 <3D82AB5E-62DA-11cf-AB39-0020AF71E433>
 FLOAT x;
 FLOAT y;
 FLOAT z;
}

template Coords2d {
 <F6F23F44-7686-11cf-8F52-0040333594A3>
 FLOAT u;
 FLOAT v;
}

template Matrix4x4 {
 <F6F23F45-7686-11cf-8F52-0040333594A3>
 array FLOAT matrix[16];
}

template ColorRGBA {
 <35FF44E0-6C7C-11cf-8F52-0040333594A3>
 FLOAT red;
 FLOAT green;
 FLOAT blue;
 FLOAT alpha;
}

template ColorRGB {
 <D3E16E81-7835-11cf-8F52-0040333594A3>
 FLOAT red;
 FLOAT green;
 FLOAT blue;
}

template IndexedColor {
 <1630B820-7842-11cf-8F52-0040333594A3>
 DWORD index;
 ColorRGBA indexColor;
}

template Boolean {
 <4885AE61-78E8-11cf-8F52-0040333594A3>
 WORD truefalse;
}

template Boolean2d {
 <4885AE63-78E8-11cf-8F52-0040333594A3>
 Boolean u;
 Boolean v;
}

template MaterialWrap {
 <4885AE60-78E8-11cf-8F52-0040333594A3>
 Boolean u;
 Boolean v;
}

template TextureFilename {
 <A42790E1-7810-11cf-8F52-0040333594A3>
 STRING filename;
}

template Material {
 <3D82AB4D-62DA-11cf-AB39-0020AF71E433>
 ColorRGBA faceColor;
 FLOAT power;
 ColorRGB specularColor;
 ColorRGB emissiveColor;
 [...]
}

template MeshFace {
 <3D82AB5F-62DA-11cf-AB39-0020AF71E433>
 DWORD nFaceVertexIndices;
 array DWORD faceVertexIndices[nFaceVertexIndices];
}

template MeshFaceWraps {
 <4885AE62-78E8-11cf-8F52-0040333594A3>
 DWORD nFaceWrapValues;
 Boolean2d faceWrapValues;
}

template MeshTextureCoords {
 <F6F23F40-7686-11cf-8F52-0040333594A3>
 DWORD nTextureCoords;
 array Coords2d textureCoords[nTextureCoords];
}

template MeshMaterialList {
 <F6F23F42-7686-11cf-8F52-0040333594A3>
 DWORD nMaterials;
 DWORD nFaceIndexes;
 array DWORD faceIndexes[nFaceIndexes];
 [Material]
}

template MeshNormals {
 <F6F23F43-7686-11cf-8F52-0040333594A3>
 DWORD nNormals;
 array Vector normals[nNormals];
 DWORD nFaceNormals;
 array MeshFace faceNormals[nFaceNormals];
}

template MeshVertexColors {
 <1630B821-7842-11cf-8F52-0040333594A3>
 DWORD nVertexColors;
 array IndexedColor vertexColors[nVertexColors];
}

template Mesh {
 <3D82AB44-62DA-11cf-AB39-0020AF71E433>
 DWORD nVertices;
 array Vector vertices[nVertices];
 DWORD nFaces;
 array MeshFace faces[nFaces];
 [...]
}

Header{
1;
0;
1;
}

Mesh {
 667;
 -0.05523;0.10643;0.28189;,
 -0.03076;0.11232;0.28283;,
 -0.03129;0.11530;0.70000;,
 -0.05577;0.10940;0.69906;,
 -0.00538;0.11413;0.28384;,
 -0.00592;0.11710;0.70101;,
 0.02004;0.11179;0.28491;,
 0.01950;0.11478;0.70209;,
 0.04461;0.10540;0.28600;,
 0.04407;0.10838;0.70317;,
 0.06753;0.09517;0.28706;,
 0.06700;0.09814;0.70424;,
 0.08800;0.08143;0.28808;,
 0.08745;0.08442;0.70526;,
 0.10532;0.06467;0.28901;,
 0.10477;0.06766;0.70619;,
 0.11890;0.04546;0.28979;,
 0.11836;0.04844;0.70697;,
 0.12829;0.02444;0.29045;,
 0.12775;0.02742;0.70762;,
 0.13317;0.00234;0.29093;,
 0.13263;0.00531;0.70810;,
 -0.00242;-0.07205;-0.82376;,
 -0.02886;-0.06774;-0.82490;,
 -0.02900;-0.07148;-0.05571;,
 -0.00257;-0.07579;-0.05456;,
 -0.02385;-0.05561;-0.82483;,
 -0.00253;-0.05908;-0.82392;,
 -0.00268;-0.06282;-0.05473;,
 -0.02400;-0.05935;-0.05565;,
 -0.05218;-0.05588;-0.82599;,
 -0.05233;-0.05961;-0.05681;,
 -0.04265;-0.04604;-0.82573;,
 -0.04279;-0.04978;-0.05655;,
 -0.06958;-0.03790;-0.82693;,
 -0.06972;-0.04164;-0.05775;,
 -0.05667;-0.03156;-0.82649;,
 -0.05682;-0.03529;-0.05731;,
 -0.07893;-0.01596;-0.82759;,
 -0.07907;-0.01970;-0.05841;,
 -0.06421;-0.01387;-0.82702;,
 -0.06435;-0.01760;-0.05784;,
 -0.07912;0.00728;-0.82790;,
 -0.07928;0.00354;-0.05872;,
 -0.06437;0.00487;-0.82726;,
 -0.06451;0.00114;-0.05808;,
 -0.07014;0.02903;-0.82781;,
 -0.07028;0.02529;-0.05863;,
 -0.05713;0.02240;-0.82719;,
 -0.05727;0.01867;-0.05801;,
 -0.05306;0.04666;-0.82733;,
 -0.05320;0.04291;-0.05814;,
 -0.04335;0.03661;-0.82680;,
 -0.04350;0.03288;-0.05762;,
 -0.02992;0.05803;-0.82653;,
 -0.03007;0.05429;-0.05734;,
 -0.02471;0.04579;-0.82616;,
 -0.02485;0.04206;-0.05697;,
 -0.00355;0.06180;-0.82550;,
 -0.00370;0.05806;-0.05631;,
 -0.00344;0.04882;-0.82532;,
 -0.00359;0.04509;-0.05614;,
 0.02290;0.05748;-0.82435;,
 0.02275;0.05375;-0.05517;,
 0.01787;0.04536;-0.82440;,
 0.01773;0.04162;-0.05522;,
 0.04622;0.04562;-0.82326;,
 0.04606;0.04189;-0.05406;,
 0.03669;0.03579;-0.82352;,
 0.03654;0.03205;-0.05433;,
 0.06360;0.02764;-0.82231;,
 0.06346;0.02391;-0.05313;,
 0.05070;0.02130;-0.82276;,
 0.05055;0.01756;-0.05358;,
 0.07297;0.00570;-0.82165;,
 0.07280;0.00197;-0.05246;,
 0.05825;0.00361;-0.82223;,
 0.05809;-0.00012;-0.05304;,
 0.07316;-0.01753;-0.82134;,
 0.07302;-0.02127;-0.05216;,
 0.05841;-0.01513;-0.82198;,
 0.05825;-0.01886;-0.05280;,
 0.06417;-0.03928;-0.82144;,
 0.06403;-0.04302;-0.05225;,
 0.05117;-0.03266;-0.82206;,
 0.05101;-0.03640;-0.05287;,
 0.04709;-0.05691;-0.82191;,
 0.04693;-0.06065;-0.05273;,
 0.03739;-0.04687;-0.82244;,
 0.03723;-0.05061;-0.05325;,
 0.02396;-0.06829;-0.82272;,
 0.02381;-0.07202;-0.05354;,
 0.01873;-0.05605;-0.82309;,
 0.01859;-0.05978;-0.05391;,
 -0.00242;-0.07205;-0.82376;,
 -0.00257;-0.07579;-0.05456;,
 -0.00253;-0.05908;-0.82392;,
 -0.00268;-0.06282;-0.05473;,
 -0.02385;-0.05561;-0.82483;,
 -0.02886;-0.06774;-0.82490;,
 -0.00257;-0.07579;-0.05456;,
 -0.02900;-0.07148;-0.05571;,
 -0.02400;-0.05935;-0.05565;,
 -0.00268;-0.06282;-0.05473;,
 -0.04265;-0.04604;-0.82573;,
 -0.05218;-0.05588;-0.82599;,
 -0.05233;-0.05961;-0.05681;,
 -0.04279;-0.04978;-0.05655;,
 -0.05667;-0.03156;-0.82649;,
 -0.06958;-0.03790;-0.82693;,
 -0.06972;-0.04164;-0.05775;,
 -0.05682;-0.03529;-0.05731;,
 -0.06421;-0.01387;-0.82702;,
 -0.07893;-0.01596;-0.82759;,
 -0.07907;-0.01970;-0.05841;,
 -0.06435;-0.01760;-0.05784;,
 -0.06437;0.00487;-0.82726;,
 -0.07912;0.00728;-0.82790;,
 -0.07928;0.00354;-0.05872;,
 -0.06451;0.00114;-0.05808;,
 -0.05713;0.02240;-0.82719;,
 -0.07014;0.02903;-0.82781;,
 -0.07028;0.02529;-0.05863;,
 -0.05727;0.01867;-0.05801;,
 -0.04335;0.03661;-0.82680;,
 -0.05306;0.04666;-0.82733;,
 -0.05320;0.04291;-0.05814;,
 -0.04350;0.03288;-0.05762;,
 -0.02471;0.04579;-0.82616;,
 -0.02992;0.05803;-0.82653;,
 -0.03007;0.05429;-0.05734;,
 -0.02485;0.04206;-0.05697;,
 -0.00344;0.04882;-0.82532;,
 -0.00355;0.06180;-0.82550;,
 -0.00370;0.05806;-0.05631;,
 -0.00359;0.04509;-0.05614;,
 0.01787;0.04536;-0.82440;,
 0.02290;0.05748;-0.82435;,
 0.02275;0.05375;-0.05517;,
 0.01773;0.04162;-0.05522;,
 0.03669;0.03579;-0.82352;,
 0.04622;0.04562;-0.82326;,
 0.04606;0.04189;-0.05406;,
 0.03654;0.03205;-0.05433;,
 0.05070;0.02130;-0.82276;,
 0.06360;0.02764;-0.82231;,
 0.06346;0.02391;-0.05313;,
 0.05055;0.01756;-0.05358;,
 0.05825;0.00361;-0.82223;,
 0.07297;0.00570;-0.82165;,
 0.07280;0.00197;-0.05246;,
 0.05809;-0.00012;-0.05304;,
 0.05841;-0.01513;-0.82198;,
 0.07316;-0.01753;-0.82134;,
 0.07302;-0.02127;-0.05216;,
 0.05825;-0.01886;-0.05280;,
 0.05117;-0.03266;-0.82206;,
 0.06417;-0.03928;-0.82144;,
 0.06403;-0.04302;-0.05225;,
 0.05101;-0.03640;-0.05287;,
 0.03739;-0.04687;-0.82244;,
 0.04709;-0.05691;-0.82191;,
 0.04693;-0.06065;-0.05273;,
 0.03723;-0.05061;-0.05325;,
 0.01873;-0.05605;-0.82309;,
 0.02396;-0.06829;-0.82272;,
 0.02381;-0.07202;-0.05354;,
 0.01859;-0.05978;-0.05391;,
 -0.00227;-0.08992;-0.82353;,
 -0.03576;-0.08446;-0.82497;,
 -0.03592;-0.08819;-0.05578;,
 -0.00241;-0.09365;-0.05434;,
 -0.02886;-0.06774;-0.82490;,
 -0.00242;-0.07205;-0.82376;,
 -0.00257;-0.07579;-0.05456;,
 -0.02900;-0.07148;-0.05571;,
 -0.06531;-0.06943;-0.82637;,
 -0.06545;-0.07317;-0.05719;,
 -0.05218;-0.05588;-0.82599;,
 -0.05233;-0.05961;-0.05681;,
 -0.08734;-0.04664;-0.82755;,
 -0.08748;-0.05039;-0.05837;,
 -0.06958;-0.03790;-0.82693;,
 -0.06972;-0.04164;-0.05775;,
 -0.09919;-0.01886;-0.82838;,
 -0.09934;-0.02260;-0.05921;,
 -0.07893;-0.01596;-0.82759;,
 -0.07907;-0.01970;-0.05841;,
 -0.09945;0.01059;-0.82878;,
 -0.09959;0.00685;-0.05959;,
 -0.07912;0.00728;-0.82790;,
 -0.07928;0.00354;-0.05872;,
 -0.08807;0.03814;-0.82866;,
 -0.08821;0.03440;-0.05947;,
 -0.07014;0.02903;-0.82781;,
 -0.07028;0.02529;-0.05863;,
 -0.06641;0.06047;-0.82805;,
 -0.06656;0.05674;-0.05886;,
 -0.05306;0.04666;-0.82733;,
 -0.05320;0.04291;-0.05814;,
 -0.03711;0.07489;-0.82703;,
 -0.03727;0.07115;-0.05784;,
 -0.02992;0.05803;-0.82653;,
 -0.03007;0.05429;-0.05734;,
 -0.00370;0.07966;-0.82573;,
 -0.00385;0.07592;-0.05653;,
 -0.00355;0.06180;-0.82550;,
 -0.00370;0.05806;-0.05631;,
 0.02980;0.07420;-0.82428;,
 0.02966;0.07047;-0.05509;,
 0.02290;0.05748;-0.82435;,
 0.02275;0.05375;-0.05517;,
 0.05935;0.05917;-0.82288;,
 0.05920;0.05544;-0.05370;,
 0.04622;0.04562;-0.82326;,
 0.04606;0.04189;-0.05406;,
 0.08138;0.03640;-0.82170;,
 0.08123;0.03265;-0.05251;,
 0.06360;0.02764;-0.82231;,
 0.06346;0.02391;-0.05313;,
 0.09323;0.00860;-0.82086;,
 0.09289;0.01051;-0.05292;,
 0.07297;0.00570;-0.82165;,
 0.07280;0.00197;-0.05246;,
 0.09349;-0.02085;-0.82047;,
 0.09314;-0.01894;-0.05254;,
 0.07316;-0.01753;-0.82134;,
 0.07302;-0.02127;-0.05216;,
 0.08210;-0.04840;-0.82058;,
 0.08195;-0.05213;-0.05140;,
 0.06417;-0.03928;-0.82144;,
 0.06403;-0.04302;-0.05225;,
 0.06045;-0.07073;-0.82119;,
 0.06030;-0.07446;-0.05202;,
 0.04709;-0.05691;-0.82191;,
 0.04693;-0.06065;-0.05273;,
 0.03115;-0.08514;-0.82221;,
 0.03101;-0.08889;-0.05303;,
 0.02396;-0.06829;-0.82272;,
 0.02381;-0.07202;-0.05354;,
 -0.00227;-0.08992;-0.82353;,
 -0.00241;-0.09365;-0.05434;,
 -0.00242;-0.07205;-0.82376;,
 -0.00257;-0.07579;-0.05456;,
 -0.02886;-0.06774;-0.82490;,
 -0.03576;-0.08446;-0.82497;,
 -0.00241;-0.09365;-0.05434;,
 -0.03592;-0.08819;-0.05578;,
 -0.02900;-0.07148;-0.05571;,
 -0.00257;-0.07579;-0.05456;,
 -0.05218;-0.05588;-0.82599;,
 -0.06531;-0.06943;-0.82637;,
 -0.06545;-0.07317;-0.05719;,
 -0.05233;-0.05961;-0.05681;,
 -0.06958;-0.03790;-0.82693;,
 -0.08734;-0.04664;-0.82755;,
 -0.08748;-0.05039;-0.05837;,
 -0.06972;-0.04164;-0.05775;,
 -0.07893;-0.01596;-0.82759;,
 -0.09919;-0.01886;-0.82838;,
 -0.09934;-0.02260;-0.05921;,
 -0.07907;-0.01970;-0.05841;,
 -0.07912;0.00728;-0.82790;,
 -0.09945;0.01059;-0.82878;,
 -0.09959;0.00685;-0.05959;,
 -0.07928;0.00354;-0.05872;,
 -0.07014;0.02903;-0.82781;,
 -0.08807;0.03814;-0.82866;,
 -0.08821;0.03440;-0.05947;,
 -0.07028;0.02529;-0.05863;,
 -0.05306;0.04666;-0.82733;,
 -0.06641;0.06047;-0.82805;,
 -0.06656;0.05674;-0.05886;,
 -0.05320;0.04291;-0.05814;,
 -0.02992;0.05803;-0.82653;,
 -0.03711;0.07489;-0.82703;,
 -0.03727;0.07115;-0.05784;,
 -0.03007;0.05429;-0.05734;,
 -0.00355;0.06180;-0.82550;,
 -0.00370;0.07966;-0.82573;,
 -0.00385;0.07592;-0.05653;,
 -0.00370;0.05806;-0.05631;,
 0.02290;0.05748;-0.82435;,
 0.02980;0.07420;-0.82428;,
 0.02966;0.07047;-0.05509;,
 0.02275;0.05375;-0.05517;,
 0.04622;0.04562;-0.82326;,
 0.05935;0.05917;-0.82288;,
 0.05920;0.05544;-0.05370;,
 0.04606;0.04189;-0.05406;,
 0.06360;0.02764;-0.82231;,
 0.08138;0.03640;-0.82170;,
 0.08123;0.03265;-0.05251;,
 0.06346;0.02391;-0.05313;,
 0.07297;0.00570;-0.82165;,
 0.09323;0.00860;-0.82086;,
 0.09289;0.01051;-0.05292;,
 0.07280;0.00197;-0.05246;,
 0.07316;-0.01753;-0.82134;,
 0.09349;-0.02085;-0.82047;,
 0.09314;-0.01894;-0.05254;,
 0.07302;-0.02127;-0.05216;,
 0.06417;-0.03928;-0.82144;,
 0.08210;-0.04840;-0.82058;,
 0.08195;-0.05213;-0.05140;,
 0.06403;-0.04302;-0.05225;,
 0.04709;-0.05691;-0.82191;,
 0.06045;-0.07073;-0.82119;,
 0.06030;-0.07446;-0.05202;,
 0.04693;-0.06065;-0.05273;,
 0.02396;-0.06829;-0.82272;,
 0.03115;-0.08514;-0.82221;,
 0.03101;-0.08889;-0.05303;,
 0.02381;-0.07202;-0.05354;,
 -0.00230;-0.08576;-0.82358;,
 -0.03416;-0.08056;-0.82494;,
 -0.03431;-0.08430;-0.05577;,
 -0.00245;-0.08949;-0.05439;,
 -0.02916;-0.06808;-0.84863;,
 -0.00238;-0.07239;-0.84749;,
 -0.00259;-0.07175;-0.05462;,
 -0.02744;-0.06770;-0.05570;,
 -0.06225;-0.06628;-0.82629;,
 -0.06240;-0.07001;-0.05708;,
 -0.05278;-0.05618;-0.84976;,
 -0.04936;-0.05655;-0.05673;,
 -0.08321;-0.04461;-0.82741;,
 -0.08335;-0.04834;-0.05822;,
 -0.07039;-0.03814;-0.85070;,
 -0.06570;-0.03966;-0.05761;,
 -0.09447;-0.01818;-0.82820;,
 -0.09463;-0.02192;-0.05902;,
 -0.07987;-0.01615;-0.85137;,
 -0.07450;-0.01905;-0.05823;,
 -0.09471;0.00981;-0.82857;,
 -0.09486;0.00608;-0.05938;,
 -0.08005;0.00715;-0.85167;,
 -0.07467;0.00279;-0.05851;,
 -0.08389;0.03601;-0.82846;,
 -0.08403;0.03228;-0.05927;,
 -0.07096;0.02895;-0.85158;,
 -0.06623;0.02323;-0.05843;,
 -0.06330;0.05725;-0.82788;,
 -0.06345;0.05352;-0.05869;,
 -0.05365;0.04662;-0.85109;,
 -0.05018;0.03979;-0.05797;,
 -0.03544;0.07096;-0.82691;,
 -0.03558;0.06723;-0.05773;,
 -0.03023;0.05804;-0.85027;,
 -0.02844;0.05049;-0.05722;,
 -0.00367;0.07550;-0.82567;,
 -0.00381;0.07177;-0.05649;,
 -0.00352;0.06180;-0.84922;,
 -0.00366;0.05403;-0.05626;,
 0.02819;0.07031;-0.82430;,
 0.02805;0.06658;-0.05511;,
 0.02326;0.05748;-0.84808;,
 0.02119;0.04997;-0.05519;,
 0.05628;0.05602;-0.82297;,
 0.05614;0.05229;-0.05379;,
 0.04687;0.04558;-0.84695;,
 0.04310;0.03883;-0.05415;,
 0.07723;0.03435;-0.82182;,
 0.07709;0.03062;-0.05265;,
 0.06449;0.02755;-0.84601;,
 0.05944;0.02193;-0.05326;,
 0.08850;0.00793;-0.82104;,
 0.08816;0.00984;-0.05310;,
 0.07396;0.00556;-0.84534;,
 0.06823;0.00132;-0.05264;,
 0.08875;-0.02007;-0.82067;,
 0.08840;-0.01816;-0.05273;,
 0.07415;-0.01775;-0.84504;,
 0.06841;-0.02052;-0.05235;,
 0.07792;-0.04627;-0.82078;,
 0.07778;-0.05001;-0.05161;,
 0.06505;-0.03955;-0.84514;,
 0.05997;-0.04095;-0.05244;,
 0.05733;-0.06751;-0.82136;,
 0.05718;-0.07124;-0.05218;,
 0.04775;-0.05721;-0.84563;,
 0.04392;-0.05752;-0.05290;,
 0.02948;-0.08122;-0.82233;,
 0.02933;-0.08496;-0.05316;,
 0.02432;-0.06863;-0.84643;,
 0.02219;-0.06822;-0.05365;,
 -0.00230;-0.08576;-0.82358;,
 -0.00245;-0.08949;-0.05439;,
 -0.00238;-0.07239;-0.84749;,
 -0.00259;-0.07175;-0.05462;,
 -0.02916;-0.06808;-0.84863;,
 -0.03416;-0.08056;-0.82494;,
 -0.00245;-0.08949;-0.05439;,
 -0.03431;-0.08430;-0.05577;,
 -0.02744;-0.06770;-0.05570;,
 -0.00259;-0.07175;-0.05462;,
 -0.05278;-0.05618;-0.84976;,
 -0.06225;-0.06628;-0.82629;,
 -0.06240;-0.07001;-0.05708;,
 -0.04936;-0.05655;-0.05673;,
 -0.07039;-0.03814;-0.85070;,
 -0.08321;-0.04461;-0.82741;,
 -0.08335;-0.04834;-0.05822;,
 -0.06570;-0.03966;-0.05761;,
 -0.07987;-0.01615;-0.85137;,
 -0.09447;-0.01818;-0.82820;,
 -0.09463;-0.02192;-0.05902;,
 -0.07450;-0.01905;-0.05823;,
 -0.08005;0.00715;-0.85167;,
 -0.09471;0.00981;-0.82857;,
 -0.09486;0.00608;-0.05938;,
 -0.07467;0.00279;-0.05851;,
 -0.07096;0.02895;-0.85158;,
 -0.08389;0.03601;-0.82846;,
 -0.08403;0.03228;-0.05927;,
 -0.06623;0.02323;-0.05843;,
 -0.05365;0.04662;-0.85109;,
 -0.06330;0.05725;-0.82788;,
 -0.06345;0.05352;-0.05869;,
 -0.05018;0.03979;-0.05797;,
 -0.03023;0.05804;-0.85027;,
 -0.03544;0.07096;-0.82691;,
 -0.03558;0.06723;-0.05773;,
 -0.02844;0.05049;-0.05722;,
 -0.00352;0.06180;-0.84922;,
 -0.00367;0.07550;-0.82567;,
 -0.00381;0.07177;-0.05649;,
 -0.00366;0.05403;-0.05626;,
 0.02326;0.05748;-0.84808;,
 0.02819;0.07031;-0.82430;,
 0.02805;0.06658;-0.05511;,
 0.02119;0.04997;-0.05519;,
 0.04687;0.04558;-0.84695;,
 0.05628;0.05602;-0.82297;,
 0.05614;0.05229;-0.05379;,
 0.04310;0.03883;-0.05415;,
 0.06449;0.02755;-0.84601;,
 0.07723;0.03435;-0.82182;,
 0.07709;0.03062;-0.05265;,
 0.05944;0.02193;-0.05326;,
 0.07396;0.00556;-0.84534;,
 0.08850;0.00793;-0.82104;,
 0.08816;0.00984;-0.05310;,
 0.06823;0.00132;-0.05264;,
 0.07415;-0.01775;-0.84504;,
 0.08875;-0.02007;-0.82067;,
 0.08840;-0.01816;-0.05273;,
 0.06841;-0.02052;-0.05235;,
 0.06505;-0.03955;-0.84514;,
 0.07792;-0.04627;-0.82078;,
 0.07778;-0.05001;-0.05161;,
 0.05997;-0.04095;-0.05244;,
 0.04775;-0.05721;-0.84563;,
 0.05733;-0.06751;-0.82136;,
 0.05718;-0.07124;-0.05218;,
 0.04392;-0.05752;-0.05290;,
 0.02432;-0.06863;-0.84643;,
 0.02948;-0.08122;-0.82233;,
 0.02933;-0.08496;-0.05316;,
 0.02219;-0.06822;-0.05365;,
 -0.00300;-0.00506;-0.81454;,
 -0.01684;-0.06803;-0.81432;,
 -0.00245;-0.06927;-0.81371;,
 -0.00300;-0.00506;-0.81454;,
 -0.03075;-0.06464;-0.81493;,
 -0.00300;-0.00506;-0.81454;,
 -0.04373;-0.05922;-0.81553;,
 -0.00300;-0.00506;-0.81454;,
 -0.05532;-0.05197;-0.81610;,
 -0.00300;-0.00506;-0.81454;,
 -0.06513;-0.04311;-0.81661;,
 -0.00300;-0.00506;-0.81454;,
 -0.07282;-0.03296;-0.81705;,
 -0.00300;-0.00506;-0.81454;,
 -0.07812;-0.02186;-0.81743;,
 -0.00300;-0.00506;-0.81454;,
 -0.08087;-0.01018;-0.81767;,
 -0.00300;-0.00506;-0.81454;,
 -0.08098;0.00167;-0.81783;,
 -0.00300;-0.00506;-0.81454;,
 -0.07842;0.01329;-0.81787;,
 -0.00300;-0.00506;-0.81454;,
 -0.07329;0.02429;-0.81779;,
 -0.00300;-0.00506;-0.81454;,
 -0.06579;0.03429;-0.81762;,
 -0.00300;-0.00506;-0.81454;,
 -0.05613;0.04294;-0.81734;,
 -0.00300;-0.00506;-0.81454;,
 -0.04465;0.04997;-0.81695;,
 -0.00300;-0.00506;-0.81454;,
 -0.03178;0.05511;-0.81649;,
 -0.00300;-0.00506;-0.81454;,
 -0.01791;0.05821;-0.81596;,
 -0.00300;-0.00506;-0.81454;,
 -0.00354;0.05916;-0.81538;,
 -0.00300;-0.00506;-0.81454;,
 0.01084;0.05792;-0.81478;,
 -0.00300;-0.00506;-0.81454;,
 0.02476;0.05453;-0.81416;,
 -0.00300;-0.00506;-0.81454;,
 0.03774;0.04911;-0.81357;,
 -0.00300;-0.00506;-0.81454;,
 0.04933;0.04185;-0.81300;,
 -0.00300;-0.00506;-0.81454;,
 0.05913;0.03300;-0.81249;,
 -0.00300;-0.00506;-0.81454;,
 0.06682;0.02285;-0.81204;,
 -0.00300;-0.00506;-0.81454;,
 0.07213;0.01174;-0.81167;,
 -0.00300;-0.00506;-0.81454;,
 0.07488;0.00006;-0.81142;,
 -0.00300;-0.00506;-0.81454;,
 0.07498;-0.01178;-0.81127;,
 -0.00300;-0.00506;-0.81454;,
 0.07243;-0.02341;-0.81122;,
 -0.00300;-0.00506;-0.81454;,
 0.06730;-0.03440;-0.81129;,
 -0.00300;-0.00506;-0.81454;,
 0.05979;-0.04440;-0.81148;,
 -0.00300;-0.00506;-0.81454;,
 0.05014;-0.05306;-0.81176;,
 -0.00300;-0.00506;-0.81454;,
 0.03866;-0.06008;-0.81215;,
 -0.00300;-0.00506;-0.81454;,
 0.02579;-0.06522;-0.81262;,
 -0.00300;-0.00506;-0.81454;,
 0.01192;-0.06833;-0.81314;,
 -0.00300;-0.00506;-0.81454;,
 -0.00245;-0.06927;-0.81371;,
 -0.00076;-0.26711;-0.82068;,
 -0.01215;-0.26611;-0.82115;,
 -0.01336;-0.26657;0.15598;,
 -0.00197;-0.26757;0.15646;,
 -0.02315;-0.26341;-0.82164;,
 -0.02455;-0.26029;0.28389;,
 -0.03342;-0.25908;-0.82212;,
 -0.03481;-0.25596;0.28341;,
 -0.04258;-0.25328;-0.82256;,
 -0.04397;-0.25017;0.28296;,
 -0.05034;-0.24621;-0.82296;,
 -0.05174;-0.24309;0.28255;,
 -0.05642;-0.23810;-0.82332;,
 -0.05782;-0.23498;0.28220;,
 -0.06063;-0.22922;-0.82360;,
 -0.06201;-0.22611;0.28192;,
 -0.06280;-0.21990;-0.82382;,
 -0.06419;-0.21678;0.28171;,
 -0.06288;-0.21043;-0.82394;,
 -0.06427;-0.20731;0.28159;,
 -0.06086;-0.20115;-0.82397;,
 -0.06226;-0.19803;0.28156;,
 -0.05681;-0.19236;-0.82391;,
 -0.05820;-0.18924;0.28162;,
 -0.05087;-0.18437;-0.82378;,
 -0.05226;-0.18126;0.28175;,
 -0.04323;-0.17746;-0.82355;,
 -0.04463;-0.17434;0.28198;,
 -0.03415;-0.17184;-0.82325;,
 -0.03554;-0.16873;0.28228;,
 -0.02397;-0.16773;-0.82288;,
 -0.02535;-0.16462;0.28265;,
 -0.01299;-0.16525;-0.82247;,
 -0.01439;-0.16213;0.28307;,
 -0.00163;-0.16450;-0.82200;,
 -0.00285;-0.16342;0.15511;,
 0.00975;-0.16548;-0.82153;,
 0.00853;-0.16443;0.15558;,
 0.02076;-0.16819;-0.82105;,
 0.01954;-0.16716;0.15607;,
 0.03102;-0.17251;-0.82056;,
 0.02980;-0.17155;0.15655;,
 0.04018;-0.17831;-0.82012;,
 0.03897;-0.17744;0.15699;,
 0.04795;-0.18539;-0.81972;,
 0.04673;-0.18462;0.15740;,
 0.05403;-0.19350;-0.81936;,
 0.05281;-0.19286;0.15775;,
 0.05822;-0.20237;-0.81907;,
 0.05702;-0.20186;0.15803;,
 0.06040;-0.21171;-0.81887;,
 0.05920;-0.21132;0.15824;,
 0.06048;-0.22117;-0.81875;,
 0.05928;-0.22093;0.15837;,
 0.05846;-0.23046;-0.81871;,
 0.05726;-0.23037;0.15840;,
 0.05442;-0.23924;-0.81877;,
 0.05320;-0.23928;0.15836;,
 0.04847;-0.24723;-0.81891;,
 0.04727;-0.24739;0.15822;,
 0.04083;-0.25414;-0.81913;,
 0.03963;-0.25441;0.15799;,
 0.03176;-0.25976;-0.81943;,
 0.03056;-0.26011;0.15769;,
 0.02158;-0.26387;-0.81981;,
 0.02036;-0.26429;0.15733;,
 0.01060;-0.26635;-0.82021;,
 0.00940;-0.26680;0.15691;,
 -0.00076;-0.26711;-0.82068;,
 -0.00197;-0.26757;0.15646;,
 -0.00120;-0.21580;-0.82134;,
 -0.00120;-0.21580;-0.82134;,
 -0.00120;-0.21580;-0.82134;,
 -0.00120;-0.21580;-0.82134;,
 -0.00120;-0.21580;-0.82134;,
 -0.00120;-0.21580;-0.82134;,
 -0.00120;-0.21580;-0.82134;,
 -0.00120;-0.21580;-0.82134;,
 -0.00120;-0.21580;-0.82134;,
 -0.00120;-0.21580;-0.82134;,
 -0.00120;-0.21580;-0.82134;,
 -0.00120;-0.21580;-0.82134;,
 -0.00120;-0.21580;-0.82134;,
 -0.00120;-0.21580;-0.82134;,
 -0.00120;-0.21580;-0.82134;,
 -0.00120;-0.21580;-0.82134;,
 -0.00120;-0.21580;-0.82134;,
 -0.00120;-0.21580;-0.82134;,
 -0.00120;-0.21580;-0.82134;,
 -0.00120;-0.21580;-0.82134;,
 -0.00120;-0.21580;-0.82134;,
 -0.00120;-0.21580;-0.82134;,
 -0.00120;-0.21580;-0.82134;,
 -0.00120;-0.21580;-0.82134;,
 -0.00120;-0.21580;-0.82134;,
 -0.00120;-0.21580;-0.82134;,
 -0.00120;-0.21580;-0.82134;,
 -0.00120;-0.21580;-0.82134;,
 -0.00120;-0.21580;-0.82134;,
 -0.00120;-0.21580;-0.82134;,
 -0.00120;-0.21580;-0.82134;,
 -0.00120;-0.21580;-0.82134;,
 -0.00120;-0.21580;-0.82134;,
 -0.00120;-0.21580;-0.82134;,
 -0.00241;-0.21550;0.15577;,
 -0.00241;-0.21550;0.15577;,
 -0.00241;-0.21550;0.15577;,
 -0.00241;-0.21550;0.15577;,
 -0.00241;-0.21550;0.15577;,
 -0.00241;-0.21550;0.15577;,
 -0.00241;-0.21550;0.15577;,
 -0.00241;-0.21550;0.15577;,
 -0.00241;-0.21550;0.15577;,
 -0.00241;-0.21550;0.15577;,
 -0.00241;-0.21550;0.15577;,
 -0.00241;-0.21550;0.15577;,
 -0.00241;-0.21550;0.15577;,
 -0.00241;-0.21550;0.15577;,
 -0.00241;-0.21550;0.15577;,
 -0.00241;-0.21550;0.15577;,
 -0.00241;-0.21550;0.15577;,
 -0.00241;-0.21550;0.15577;,
 -0.00241;-0.21550;0.15577;,
 -0.00241;-0.21550;0.15577;,
 -0.00241;-0.21550;0.15577;,
 -0.00241;-0.21550;0.15577;,
 -0.00241;-0.21550;0.15577;,
 -0.00241;-0.21550;0.15577;,
 -0.00241;-0.21550;0.15577;,
 -0.00241;-0.21550;0.15577;,
 -0.00241;-0.21550;0.15577;,
 -0.00241;-0.21550;0.15577;,
 -0.00241;-0.21550;0.15577;,
 -0.00241;-0.21550;0.15577;,
 -0.00241;-0.21550;0.15577;,
 -0.00241;-0.21550;0.15577;,
 -0.00241;-0.21550;0.15577;,
 -0.00241;-0.21550;0.15577;;
 
 362;
 4;3,2,1,0;,
 4;2,5,4,1;,
 4;5,7,6,4;,
 4;7,9,8,6;,
 4;9,11,10,8;,
 4;11,13,12,10;,
 4;13,15,14,12;,
 4;15,17,16,14;,
 4;17,19,18,16;,
 4;19,21,20,18;,
 4;25,24,23,22;,
 4;29,28,27,26;,
 4;24,31,30,23;,
 4;33,29,26,32;,
 4;31,35,34,30;,
 4;37,33,32,36;,
 4;35,39,38,34;,
 4;41,37,36,40;,
 4;39,43,42,38;,
 4;45,41,40,44;,
 4;43,47,46,42;,
 4;49,45,44,48;,
 4;47,51,50,46;,
 4;53,49,48,52;,
 4;51,55,54,50;,
 4;57,53,52,56;,
 4;55,59,58,54;,
 4;61,57,56,60;,
 4;59,63,62,58;,
 4;65,61,60,64;,
 4;63,67,66,62;,
 4;69,65,64,68;,
 4;67,71,70,66;,
 4;73,69,68,72;,
 4;71,75,74,70;,
 4;77,73,72,76;,
 4;75,79,78,74;,
 4;81,77,76,80;,
 4;79,83,82,78;,
 4;85,81,80,84;,
 4;83,87,86,82;,
 4;89,85,84,88;,
 4;87,91,90,86;,
 4;93,89,88,92;,
 4;91,95,94,90;,
 4;97,93,92,96;,
 4;99,98,27,22;,
 4;103,102,101,100;,
 4;105,104,98,99;,
 4;102,107,106,101;,
 4;109,108,104,105;,
 4;107,111,110,106;,
 4;113,112,108,109;,
 4;111,115,114,110;,
 4;117,116,112,113;,
 4;115,119,118,114;,
 4;121,120,116,117;,
 4;119,123,122,118;,
 4;125,124,120,121;,
 4;123,127,126,122;,
 4;129,128,124,125;,
 4;127,131,130,126;,
 4;133,132,128,129;,
 4;131,135,134,130;,
 4;137,136,132,133;,
 4;135,139,138,134;,
 4;141,140,136,137;,
 4;139,143,142,138;,
 4;145,144,140,141;,
 4;143,147,146,142;,
 4;149,148,144,145;,
 4;147,151,150,146;,
 4;153,152,148,149;,
 4;151,155,154,150;,
 4;157,156,152,153;,
 4;155,159,158,154;,
 4;161,160,156,157;,
 4;159,163,162,158;,
 4;165,164,160,161;,
 4;163,167,166,162;,
 4;22,27,164,165;,
 4;167,103,100,166;,
 4;171,170,169,168;,
 4;175,174,173,172;,
 4;170,177,176,169;,
 4;179,175,172,178;,
 4;177,181,180,176;,
 4;183,179,178,182;,
 4;181,185,184,180;,
 4;187,183,182,186;,
 4;185,189,188,184;,
 4;191,187,186,190;,
 4;189,193,192,188;,
 4;195,191,190,194;,
 4;193,197,196,192;,
 4;199,195,194,198;,
 4;197,201,200,196;,
 4;203,199,198,202;,
 4;201,205,204,200;,
 4;207,203,202,206;,
 4;205,209,208,204;,
 4;211,207,206,210;,
 4;209,213,212,208;,
 4;215,211,210,214;,
 4;213,217,216,212;,
 4;219,215,214,218;,
 4;217,221,220,216;,
 4;223,219,218,222;,
 4;221,225,224,220;,
 4;227,223,222,226;,
 4;225,229,228,224;,
 4;231,227,226,230;,
 4;229,233,232,228;,
 4;235,231,230,234;,
 4;233,237,236,232;,
 4;239,235,234,238;,
 4;237,241,240,236;,
 4;243,239,238,242;,
 4;245,244,173,168;,
 4;249,248,247,246;,
 4;251,250,244,245;,
 4;248,253,252,247;,
 4;255,254,250,251;,
 4;253,257,256,252;,
 4;259,258,254,255;,
 4;257,261,260,256;,
 4;263,262,258,259;,
 4;261,265,264,260;,
 4;267,266,262,263;,
 4;265,269,268,264;,
 4;271,270,266,267;,
 4;269,273,272,268;,
 4;275,274,270,271;,
 4;273,277,276,272;,
 4;279,278,274,275;,
 4;277,281,280,276;,
 4;283,282,278,279;,
 4;281,285,284,280;,
 4;287,286,282,283;,
 4;285,289,288,284;,
 4;291,290,286,287;,
 4;289,293,292,288;,
 4;295,294,290,291;,
 4;293,297,296,292;,
 4;299,298,294,295;,
 4;297,301,300,296;,
 4;303,302,298,299;,
 4;301,305,304,300;,
 4;307,306,302,303;,
 4;305,309,308,304;,
 4;311,310,306,307;,
 4;309,313,312,308;,
 4;168,173,310,311;,
 4;313,249,246,312;,
 4;317,316,315,314;,
 4;321,320,319,318;,
 4;316,323,322,315;,
 4;325,321,318,324;,
 4;323,327,326,322;,
 4;329,325,324,328;,
 4;327,331,330,326;,
 4;333,329,328,332;,
 4;331,335,334,330;,
 4;337,333,332,336;,
 4;335,339,338,334;,
 4;341,337,336,340;,
 4;339,343,342,338;,
 4;345,341,340,344;,
 4;343,347,346,342;,
 4;349,345,344,348;,
 4;347,351,350,346;,
 4;353,349,348,352;,
 4;351,355,354,350;,
 4;357,353,352,356;,
 4;355,359,358,354;,
 4;361,357,356,360;,
 4;359,363,362,358;,
 4;365,361,360,364;,
 4;363,367,366,362;,
 4;369,365,364,368;,
 4;367,371,370,366;,
 4;373,369,368,372;,
 4;371,375,374,370;,
 4;377,373,372,376;,
 4;375,379,378,374;,
 4;381,377,376,380;,
 4;379,383,382,378;,
 4;385,381,380,384;,
 4;383,387,386,382;,
 4;389,385,384,388;,
 4;391,390,319,314;,
 4;395,394,393,392;,
 4;397,396,390,391;,
 4;394,399,398,393;,
 4;401,400,396,397;,
 4;399,403,402,398;,
 4;405,404,400,401;,
 4;403,407,406,402;,
 4;409,408,404,405;,
 4;407,411,410,406;,
 4;413,412,408,409;,
 4;411,415,414,410;,
 4;417,416,412,413;,
 4;415,419,418,414;,
 4;421,420,416,417;,
 4;419,423,422,418;,
 4;425,424,420,421;,
 4;423,427,426,422;,
 4;429,428,424,425;,
 4;427,431,430,426;,
 4;433,432,428,429;,
 4;431,435,434,430;,
 4;437,436,432,433;,
 4;435,439,438,434;,
 4;441,440,436,437;,
 4;439,443,442,438;,
 4;445,444,440,441;,
 4;443,447,446,442;,
 4;449,448,444,445;,
 4;447,451,450,446;,
 4;453,452,448,449;,
 4;451,455,454,450;,
 4;457,456,452,453;,
 4;455,459,458,454;,
 4;314,319,456,457;,
 4;459,395,392,458;,
 3;462,461,460;,
 3;461,464,463;,
 3;464,466,465;,
 3;466,468,467;,
 3;468,470,469;,
 3;470,472,471;,
 3;472,474,473;,
 3;474,476,475;,
 3;476,478,477;,
 3;478,480,479;,
 3;480,482,481;,
 3;482,484,483;,
 3;484,486,485;,
 3;486,488,487;,
 3;488,490,489;,
 3;490,492,491;,
 3;492,494,493;,
 3;494,496,495;,
 3;496,498,497;,
 3;498,500,499;,
 3;500,502,501;,
 3;502,504,503;,
 3;504,506,505;,
 3;506,508,507;,
 3;508,510,509;,
 3;510,512,511;,
 3;512,514,513;,
 3;514,516,515;,
 3;516,518,517;,
 3;518,520,519;,
 3;520,522,521;,
 3;522,524,523;,
 3;524,526,525;,
 3;526,528,527;,
 4;532,531,530,529;,
 4;531,534,533,530;,
 4;534,536,535,533;,
 4;536,538,537,535;,
 4;538,540,539,537;,
 4;540,542,541,539;,
 4;542,544,543,541;,
 4;544,546,545,543;,
 4;546,548,547,545;,
 4;548,550,549,547;,
 4;550,552,551,549;,
 4;552,554,553,551;,
 4;554,556,555,553;,
 4;556,558,557,555;,
 4;558,560,559,557;,
 4;560,562,561,559;,
 4;562,564,563,561;,
 4;564,566,565,563;,
 4;566,568,567,565;,
 4;568,570,569,567;,
 4;570,572,571,569;,
 4;572,574,573,571;,
 4;574,576,575,573;,
 4;576,578,577,575;,
 4;578,580,579,577;,
 4;580,582,581,579;,
 4;582,584,583,581;,
 4;584,586,585,583;,
 4;586,588,587,585;,
 4;588,590,589,587;,
 4;590,592,591,589;,
 4;592,594,593,591;,
 4;594,596,595,593;,
 4;596,598,597,595;,
 3;529,530,599;,
 3;530,533,600;,
 3;533,535,601;,
 3;535,537,602;,
 3;537,539,603;,
 3;539,541,604;,
 3;541,543,605;,
 3;543,545,606;,
 3;545,547,607;,
 3;547,549,608;,
 3;549,551,609;,
 3;551,553,610;,
 3;553,555,611;,
 3;555,557,612;,
 3;557,559,613;,
 3;559,561,614;,
 3;561,563,615;,
 3;563,565,616;,
 3;565,567,617;,
 3;567,569,618;,
 3;569,571,619;,
 3;571,573,620;,
 3;573,575,621;,
 3;575,577,622;,
 3;577,579,623;,
 3;579,581,624;,
 3;581,583,625;,
 3;583,585,626;,
 3;585,587,627;,
 3;587,589,628;,
 3;589,591,629;,
 3;591,593,630;,
 3;593,595,631;,
 3;595,597,632;,
 3;531,532,633;,
 3;534,531,634;,
 3;536,534,635;,
 3;538,536,636;,
 3;540,538,637;,
 3;542,540,638;,
 3;544,542,639;,
 3;546,544,640;,
 3;548,546,641;,
 3;550,548,642;,
 3;552,550,643;,
 3;554,552,644;,
 3;556,554,645;,
 3;558,556,646;,
 3;560,558,647;,
 3;562,560,648;,
 3;564,562,649;,
 3;566,564,650;,
 3;568,566,651;,
 3;570,568,652;,
 3;572,570,653;,
 3;574,572,654;,
 3;576,574,655;,
 3;578,576,656;,
 3;580,578,657;,
 3;582,580,658;,
 3;584,582,659;,
 3;586,584,660;,
 3;588,586,661;,
 3;590,588,662;,
 3;592,590,663;,
 3;594,592,664;,
 3;596,594,665;,
 3;598,596,666;;
 
 MeshMaterialList {
  7;
  362;
  6,
  6,
  6,
  6,
  6,
  6,
  6,
  6,
  6,
  6,
  1,
  1,
  1,
  1,
  1,
  1,
  1,
  1,
  1,
  1,
  1,
  1,
  1,
  1,
  1,
  1,
  1,
  1,
  1,
  1,
  1,
  1,
  1,
  1,
  1,
  1,
  1,
  1,
  1,
  1,
  1,
  1,
  1,
  1,
  1,
  1,
  1,
  0,
  1,
  0,
  1,
  0,
  1,
  0,
  1,
  0,
  1,
  0,
  1,
  0,
  1,
  0,
  1,
  0,
  1,
  0,
  1,
  0,
  1,
  0,
  1,
  0,
  1,
  0,
  1,
  0,
  1,
  0,
  1,
  0,
  1,
  0,
  0,
  0,
  0,
  0,
  0,
  0,
  0,
  0,
  0,
  0,
  0,
  0,
  0,
  0,
  0,
  0,
  0,
  0,
  0,
  0,
  0,
  0,
  0,
  0,
  0,
  0,
  0,
  0,
  0,
  0,
  0,
  0,
  0,
  0,
  0,
  0,
  0,
  0,
  0,
  0,
  0,
  0,
  0,
  0,
  0,
  0,
  0,
  0,
  0,
  0,
  0,
  0,
  0,
  0,
  0,
  0,
  0,
  0,
  0,
  0,
  0,
  0,
  0,
  0,
  0,
  0,
  0,
  0,
  0,
  0,
  0,
  0,
  0,
  0,
  0,
  0,
  0,
  0,
  0,
  0,
  0,
  0,
  0,
  0,
  0,
  0,
  0,
  0,
  0,
  0,
  0,
  0,
  0,
  0,
  0,
  0,
  0,
  0,
  0,
  0,
  0,
  0,
  0,
  0,
  0,
  0,
  0,
  0,
  0,
  0,
  0,
  0,
  0,
  0,
  0,
  0,
  0,
  0,
  0,
  0,
  0,
  0,
  0,
  0,
  0,
  0,
  0,
  0,
  0,
  0,
  0,
  0,
  0,
  0,
  0,
  0,
  0,
  0,
  0,
  0,
  0,
  0,
  0,
  0,
  2,
  2,
  2,
  2,
  2,
  2,
  2,
  2,
  2,
  2,
  2,
  2,
  2,
  2,
  2,
  2,
  2,
  2,
  2,
  2,
  2,
  2,
  2,
  2,
  2,
  2,
  2,
  2,
  2,
  2,
  2,
  2,
  2,
  2,
  0,
  0,
  0,
  0,
  0,
  0,
  0,
  0,
  0,
  0,
  0,
  0,
  0,
  0,
  0,
  0,
  0,
  0,
  0,
  0,
  0,
  0,
  0,
  0,
  0,
  0,
  0,
  0,
  0,
  0,
  0,
  0,
  0,
  0,
  0,
  0,
  0,
  0,
  0,
  0,
  0,
  0,
  0,
  0,
  0,
  0,
  0,
  0,
  0,
  0,
  0,
  0,
  0,
  0,
  0,
  0,
  0,
  0,
  0,
  0,
  0,
  0,
  0,
  0,
  0,
  0,
  0,
  0,
  0,
  0,
  0,
  0,
  0,
  0,
  0,
  0,
  0,
  0,
  0,
  0,
  0,
  0,
  0,
  0,
  0,
  0,
  0,
  0,
  0,
  0,
  0,
  0,
  0,
  0,
  0,
  0,
  0,
  0,
  0,
  0,
  0,
  0;;
  Material {
   0.029670;0.029670;0.029670;1.000000;;
   70.000000;
   0.050000;0.050000;0.050000;;
   0.047730;0.047730;0.047730;;
  }
  Material {
   0.718400;0.718400;0.718400;1.000000;;
   5.000000;
   0.230000;0.230000;0.230000;;
   0.368180;0.368180;0.368180;;
  }
  Material {
   0.000000;0.000000;0.000000;1.000000;;
   0.000000;
   0.000000;0.000000;0.000000;;
   0.000000;0.000000;0.000000;;
  }
  Material {
   0.426400;0.222400;0.019200;1.000000;;
   5.000000;
   0.100000;0.100000;0.100000;;
   0.149240;0.077840;0.006720;;
  }
  Material {
   0.179200;0.179200;0.034400;1.000000;;
   5.000000;
   0.240000;0.240000;0.240000;;
   0.015680;0.015680;0.003010;;
  }
  Material {
   0.800000;0.643200;0.452000;1.000000;;
   5.000000;
   0.190000;0.190000;0.190000;;
   0.150000;0.120600;0.084750;;
  }
  Material {
   0.339200;0.339200;0.339200;1.000000;;
   5.000000;
   0.000000;0.000000;0.000000;;
   0.000000;0.000000;0.000000;;
  }
 }
 MeshNormals {
  388;
  -0.233893;0.972236;-0.007233;,
  -0.152802;0.988230;-0.007243;,
  0.010486;0.999920;-0.007123;,
  0.172435;0.984997;-0.006819;,
  0.331153;0.943556;-0.006314;,
  0.484418;0.874819;-0.005619;,
  0.628937;0.777442;-0.004740;,
  0.759343;0.650680;-0.003664;,
  0.868963;0.494872;-0.002409;,
  0.949652;0.313306;-0.001008;,
  0.976489;0.215568;-0.000273;,
  -0.009731;-0.999941;-0.004860;,
  -0.310668;-0.950507;-0.004677;,
  -0.593996;-0.804458;-0.004018;,
  -0.833144;-0.553049;-0.002841;,
  -0.978905;-0.204311;-0.001178;,
  -0.981688;0.190495;0.000735;,
  -0.836029;0.548680;0.002512;,
  -0.588440;0.808532;0.003828;,
  -0.295178;0.955431;0.004592;,
  0.009659;0.999942;0.004861;,
  0.310712;0.950493;0.004675;,
  0.594111;0.804373;0.004018;,
  0.833169;0.553012;0.002847;,
  0.978863;0.204512;0.001189;,
  0.981709;-0.190388;-0.000737;,
  0.835987;-0.548743;-0.002511;,
  0.588449;-0.808526;-0.003812;,
  0.295147;-0.955441;-0.004580;,
  0.009595;0.999942;0.004861;,
  0.310723;0.950489;0.004681;,
  0.594048;0.804419;0.004021;,
  0.833122;0.553083;0.002841;,
  0.978931;0.204189;0.001171;,
  0.981708;-0.190391;-0.000745;,
  0.836062;-0.548629;-0.002506;,
  0.588596;-0.808418;-0.003809;,
  0.295215;-0.955420;-0.004577;,
  -0.009612;-0.999942;-0.004854;,
  -0.310428;-0.950585;-0.004677;,
  -0.594161;-0.804336;-0.004025;,
  -0.833156;-0.553030;-0.002853;,
  -0.978871;-0.204473;-0.001193;,
  -0.981718;0.190341;0.000720;,
  -0.836039;0.548664;0.002493;,
  -0.588394;0.808566;0.003809;,
  -0.295172;0.955433;0.004582;,
  -0.009701;-0.999941;-0.004858;,
  -0.310622;-0.950522;-0.004673;,
  -0.594161;-0.804336;-0.004021;,
  -0.833149;-0.553041;-0.002847;,
  -0.978856;-0.204547;-0.001180;,
  -0.981715;0.190357;0.000744;,
  -0.836024;0.548687;0.002511;,
  -0.588466;0.808513;0.003812;,
  -0.295226;0.955417;0.004583;,
  0.009606;0.999942;0.004860;,
  0.310574;0.950538;0.004671;,
  0.594144;0.804349;0.004019;,
  0.821741;0.569857;0.002120;,
  0.974510;0.224343;0.000558;,
  0.984729;-0.174092;0.000219;,
  0.844988;-0.534782;-0.001651;,
  0.588523;-0.808472;-0.003813;,
  0.295281;-0.955400;-0.004590;,
  0.009731;0.999941;0.004860;,
  0.310668;0.950507;0.004677;,
  0.593996;0.804458;0.004018;,
  0.833144;0.553049;0.002841;,
  0.978905;0.204311;0.001178;,
  0.981688;-0.190495;-0.000735;,
  0.836029;-0.548680;-0.002512;,
  0.588440;-0.808532;-0.003828;,
  0.295178;-0.955431;-0.004592;,
  -0.009659;-0.999942;-0.004861;,
  -0.310712;-0.950493;-0.004675;,
  -0.594111;-0.804373;-0.004018;,
  -0.833169;-0.553012;-0.002847;,
  -0.978863;-0.204512;-0.001189;,
  -0.981709;0.190388;0.000737;,
  -0.835987;0.548743;0.002511;,
  -0.588449;0.808526;0.003812;,
  -0.295147;0.955441;0.004580;,
  0.000631;-0.967085;-0.254452;,
  -0.289321;-0.922112;-0.256908;,
  -0.563747;-0.782767;-0.263562;,
  -0.796028;-0.540354;-0.272684;,
  -0.938263;-0.202253;-0.280637;,
  -0.941685;0.181867;-0.283116;,
  -0.800461;0.530659;-0.278682;,
  -0.559946;0.783180;-0.270352;,
  -0.275250;0.924836;-0.262518;,
  0.019927;0.965992;-0.257803;,
  0.309982;0.915347;-0.257003;,
  0.581228;0.771162;-0.259775;,
  0.801344;0.536422;-0.264762;,
  0.941066;0.202985;-0.270540;,
  0.946698;-0.176191;-0.269665;,
  0.811542;-0.519832;-0.266784;,
  0.572317;-0.777461;-0.260783;,
  0.293053;-0.921165;-0.256075;,
  -0.009751;-0.999941;-0.004857;,
  -0.310623;-0.950522;-0.004676;,
  -0.594103;-0.804379;-0.004017;,
  -0.833171;-0.553008;-0.002843;,
  -0.978898;-0.204344;-0.001186;,
  -0.981681;0.190529;0.000732;,
  -0.836056;0.548639;0.002503;,
  -0.588532;0.808465;0.003810;,
  -0.295277;0.955401;0.004578;,
  0.009576;0.999942;0.004851;,
  0.310617;0.950524;0.004666;,
  0.594208;0.804301;0.004008;,
  0.821071;0.570822;0.002101;,
  0.974218;0.225607;0.000550;,
  0.984885;-0.173210;0.000219;,
  0.845398;-0.534134;-0.001656;,
  0.588531;-0.808466;-0.003813;,
  0.295355;-0.955377;-0.004582;,
  0.009965;0.999950;-0.000834;,
  0.309476;0.950907;-0.001141;,
  0.592570;0.805516;-0.002181;,
  0.832006;0.554754;-0.003847;,
  0.978756;0.204947;-0.005852;,
  0.981441;-0.191612;-0.007685;,
  0.834909;-0.550316;-0.008933;,
  0.586845;-0.809643;-0.009554;,
  0.294112;-0.955721;-0.009776;,
  -0.009640;-0.999905;-0.009832;,
  -0.309203;-0.950945;-0.009825;,
  -0.592113;-0.805796;-0.009687;,
  -0.831819;-0.554970;-0.009217;,
  -0.978679;-0.205235;-0.008146;,
  -0.981477;0.191474;-0.006412;,
  -0.834815;0.550514;-0.004364;,
  -0.586690;0.809807;-0.002531;,
  -0.293683;0.955902;-0.001303;,
  0.040941;-0.012634;-0.999082;,
  0.040853;-0.012564;-0.999086;,
  0.041025;-0.012509;-0.999080;,
  0.040862;-0.012491;-0.999087;,
  0.041062;-0.012621;-0.999077;,
  0.041007;-0.012513;-0.999081;,
  0.040832;-0.012322;-0.999090;,
  0.041238;-0.013333;-0.999060;,
  0.041254;-0.012617;-0.999069;,
  0.040944;-0.012006;-0.999089;,
  0.041043;-0.012797;-0.999075;,
  0.041135;-0.012216;-0.999079;,
  0.040887;-0.012699;-0.999083;,
  0.040662;-0.013310;-0.999084;,
  0.041125;-0.012753;-0.999073;,
  0.041164;-0.012592;-0.999073;,
  0.040923;-0.012801;-0.999080;,
  0.041089;-0.012739;-0.999074;,
  0.040877;-0.012724;-0.999083;,
  0.040969;-0.012809;-0.999078;,
  0.040799;-0.012638;-0.999088;,
  0.040633;-0.012669;-0.999094;,
  0.040835;-0.012756;-0.999085;,
  0.040850;-0.012874;-0.999082;,
  0.041122;-0.013387;-0.999064;,
  0.041000;-0.012683;-0.999079;,
  0.040816;-0.012044;-0.999094;,
  0.040794;-0.012767;-0.999086;,
  0.040816;-0.012973;-0.999083;,
  0.041036;-0.012338;-0.999081;,
  0.040892;-0.012442;-0.999086;,
  0.040960;-0.012515;-0.999083;,
  0.041331;-0.012104;-0.999072;,
  0.040806;-0.012355;-0.999091;,
  0.040363;-0.012588;-0.999106;,
  0.040966;-0.011953;-0.999089;,
  0.041045;-0.011817;-0.999087;,
  -0.040843;0.012626;0.999086;,
  -0.041178;0.012475;0.999074;,
  0.040840;-0.012576;-0.999087;,
  -0.040833;0.012807;0.999084;,
  0.040494;-0.012913;-0.999096;,
  -0.040509;0.012910;0.999096;,
  0.040629;-0.012742;-0.999093;,
  -0.040669;0.012737;0.999092;,
  0.040984;-0.012821;-0.999078;,
  -0.041013;0.012820;0.999076;,
  0.041194;-0.012804;-0.999069;,
  -0.041128;0.012602;0.999074;,
  0.041045;-0.012854;-0.999075;,
  -0.041005;0.012420;0.999082;,
  0.040967;-0.013053;-0.999075;,
  -0.040857;0.012672;0.999085;,
  0.041110;-0.013174;-0.999068;,
  -0.040919;0.012786;0.999081;,
  0.040703;-0.012943;-0.999087;,
  -0.041003;0.012709;0.999078;,
  0.040624;-0.012809;-0.999092;,
  -0.040933;0.012393;0.999085;,
  0.041011;-0.012727;-0.999078;,
  -0.041037;0.012560;0.999079;,
  0.041143;-0.012721;-0.999072;,
  -0.041214;0.012713;0.999069;,
  0.041260;-0.012738;-0.999067;,
  -0.041162;0.012697;0.999072;,
  0.041155;-0.012781;-0.999071;,
  -0.040989;0.012799;0.999078;,
  0.041086;-0.012912;-0.999072;,
  -0.041060;0.012501;0.999079;,
  0.041057;-0.012557;-0.999078;,
  -0.040832;0.012596;0.999087;,
  0.041084;-0.012596;-0.999076;,
  0.040880;-0.012420;-0.999087;,
  -0.040915;0.012386;0.999086;,
  -0.041132;0.012427;0.999076;,
  0.040961;-0.012213;-0.999086;,
  -0.041136;0.012290;0.999078;,
  0.040993;-0.012366;-0.999083;,
  -0.041165;0.012373;0.999076;,
  0.040926;-0.012811;-0.999080;,
  -0.041052;0.012664;0.999077;,
  0.041019;-0.012906;-0.999075;,
  -0.040771;0.012643;0.999089;,
  0.041022;-0.012601;-0.999079;,
  -0.040742;0.012322;0.999094;,
  0.040877;-0.012453;-0.999087;,
  -0.040832;0.012245;0.999091;,
  0.040739;-0.012399;-0.999093;,
  -0.040793;0.012237;0.999093;,
  0.040993;-0.012521;-0.999081;,
  -0.040925;0.012085;0.999089;,
  0.041038;-0.012435;-0.999080;,
  -0.040976;0.012302;0.999084;,
  0.040961;-0.012362;-0.999084;,
  -0.040808;0.012544;0.999088;,
  0.040902;-0.012635;-0.999083;,
  -0.024378;0.008204;0.999669;,
  0.040698;-0.012847;-0.999089;,
  0.004652;0.008451;0.999954;,
  0.040897;-0.012814;-0.999081;,
  0.002328;0.017004;0.999853;,
  0.041051;-0.012742;-0.999076;,
  -0.026810;0.016576;0.999503;,
  0.041040;-0.012680;-0.999077;,
  -0.040873;0.012305;0.999089;,
  0.041138;-0.012569;-0.999074;,
  -0.040745;0.012368;0.999093;,
  0.010943;-0.873201;-0.487238;,
  -0.249396;-0.834228;-0.491798;,
  -0.040959;0.012528;0.999082;,
  -0.040791;0.012716;0.999087;,
  -0.494928;-0.707682;-0.504215;,
  -0.040460;0.012867;0.999098;,
  -0.700216;-0.487824;-0.521273;,
  -0.040764;0.012858;0.999086;,
  -0.823535;-0.184158;-0.536541;,
  -0.040960;0.012592;0.999081;,
  -0.825020;0.158403;-0.542448;,
  -0.040916;0.012657;0.999082;,
  -0.700880;0.470235;-0.536326;,
  -0.040964;0.012564;0.999082;,
  -0.488795;0.698308;-0.522919;,
  -0.040966;0.012649;0.999081;,
  -0.235371;0.827456;-0.509820;,
  -0.040756;0.012899;0.999086;,
  0.028856;0.864578;-0.501669;,
  -0.040900;0.012617;0.999084;,
  0.287840;0.816762;-0.500048;,
  -0.041003;0.012406;0.999082;,
  0.527346;0.683812;-0.504288;,
  -0.040920;0.012689;0.999082;,
  0.723387;0.463063;-0.512136;,
  -0.024093;0.007759;0.999680;,
  0.838665;0.165585;-0.518867;,
  0.005085;0.007958;0.999955;,
  0.838545;-0.166124;-0.518889;,
  0.002477;0.017263;0.999848;,
  0.720601;-0.468899;-0.510752;,
  -0.026657;0.016739;0.999505;,
  0.517910;-0.694609;-0.499287;,
  -0.040863;0.012299;0.999089;,
  0.271974;-0.828017;-0.490323;,
  -0.040751;0.012292;0.999094;,
  0.040930;-0.012646;-0.999082;,
  -0.010162;-0.999948;-0.000481;,
  -0.225142;-0.974326;-0.000003;,
  -0.373654;-0.927567;0.001341;,
  -0.463292;-0.886204;0.001916;,
  -0.606431;-0.795134;0.001476;,
  -0.740120;-0.672474;0.000960;,
  -0.856346;-0.516402;0.000376;,
  -0.944218;-0.329321;-0.000257;,
  -0.992950;-0.118532;-0.000912;,
  -0.994733;0.102492;-0.001542;,
  -0.948277;0.317437;-0.002092;,
  -0.859791;0.510639;-0.002523;,
  -0.740309;0.672261;-0.002827;,
  -0.600952;0.799280;-0.003010;,
  -0.451523;0.892254;-0.003080;,
  -0.298432;0.954426;-0.003061;,
  -0.107226;0.994231;-0.002506;,
  0.047501;0.998870;-0.001466;,
  0.163996;0.986461;-0.000858;,
  0.316305;0.948657;-0.000594;,
  0.465831;0.884873;-0.000286;,
  0.609353;0.792899;0.000051;,
  0.742654;0.669675;0.000399;,
  0.857974;0.513693;0.000724;,
  0.944842;0.327524;0.000987;,
  0.993026;0.117887;0.001166;,
  0.994800;-0.101845;0.001238;,
  0.948942;-0.315449;0.001193;,
  0.861503;-0.507751;0.001042;,
  0.742720;-0.669602;0.000804;,
  0.604022;-0.796968;0.000525;,
  0.454760;-0.890614;0.000242;,
  0.300275;-0.953853;-0.000029;,
  0.144923;-0.989443;-0.000271;,
  -0.040891;0.012634;0.999084;,
  0.040747;-0.012641;-0.999090;,
  0.041147;-0.012497;-0.999075;,
  0.041346;-0.012766;-0.999063;,
  0.040846;-0.012400;-0.999089;,
  0.040407;-0.012087;-0.999110;,
  0.040844;-0.012774;-0.999084;,
  0.040994;-0.012802;-0.999077;,
  0.040951;-0.013099;-0.999075;,
  0.041100;-0.013161;-0.999068;,
  0.041051;-0.012236;-0.999082;,
  0.041065;-0.012128;-0.999083;,
  0.040721;-0.012932;-0.999087;,
  0.040814;-0.013064;-0.999081;,
  0.041081;-0.012555;-0.999077;,
  0.041118;-0.012589;-0.999075;,
  0.040778;-0.012692;-0.999088;,
  0.041190;-0.012729;-0.999070;,
  0.041178;-0.012511;-0.999074;,
  0.040326;-0.012547;-0.999108;,
  0.041275;-0.012954;-0.999064;,
  0.041233;-0.012690;-0.999069;,
  0.040390;-0.012069;-0.999111;,
  0.040828;-0.012767;-0.999085;,
  0.041198;-0.013328;-0.999062;,
  0.041001;-0.012542;-0.999080;,
  0.040864;-0.012096;-0.999092;,
  0.040842;-0.012752;-0.999084;,
  0.040942;-0.012623;-0.999082;,
  0.040915;-0.012453;-0.999085;,
  0.040674;-0.012964;-0.999088;,
  0.040763;-0.012904;-0.999086;,
  0.041510;-0.012285;-0.999063;,
  0.040727;-0.012497;-0.999092;,
  0.040765;-0.012816;-0.999087;,
  -0.040695;0.012895;0.999088;,
  -0.040970;0.012893;0.999077;,
  0.845321;-0.303738;0.439516;,
  0.973399;-0.208316;0.095384;,
  0.484017;0.789350;0.377695;,
  0.347945;0.864639;0.362399;,
  0.416413;0.830891;0.369081;,
  0.547835;0.744332;0.381900;,
  0.669194;0.628103;0.397071;,
  0.773119;0.481372;0.413000;,
  0.849958;0.307966;0.427467;,
  0.891443;0.114378;0.438460;,
  0.891634;-0.088068;0.444108;,
  0.849544;-0.285147;0.443809;,
  0.770455;-0.463045;0.438166;,
  0.663586;-0.612783;0.429127;,
  0.537258;-0.732249;0.418528;,
  0.400547;-0.820342;0.408169;,
  0.260225;-0.879007;0.399537;,
  0.189145;-0.899110;0.394748;,
  0.995921;0.009551;0.089720;,
  -0.040172;0.012322;0.999117;,
  -0.040759;0.012448;0.999092;,
  -0.041351;0.012576;0.999066;,
  -0.040847;0.012205;0.999091;,
  -0.040713;0.012239;0.999096;,
  -0.040976;0.012469;0.999082;,
  -0.040809;0.012155;0.999093;,
  -0.040837;0.012384;0.999089;,
  -0.040934;0.012961;0.999078;,
  -0.041002;0.012566;0.999080;,
  -0.040803;0.012975;0.999083;,
  -0.040808;0.013386;0.999077;,
  -0.041221;0.012540;0.999071;,
  -0.041197;0.012492;0.999073;,
  -0.040805;0.012843;0.999085;,
  -0.040895;0.012860;0.999081;,
  -0.040809;0.012808;0.999085;;
  362;
  4;0,1,1,0;,
  4;1,2,2,1;,
  4;2,3,3,2;,
  4;3,4,4,3;,
  4;4,5,5,4;,
  4;5,6,6,5;,
  4;6,7,7,6;,
  4;7,8,8,7;,
  4;8,9,9,8;,
  4;9,10,10,9;,
  4;11,12,12,11;,
  4;30,29,29,30;,
  4;12,13,13,12;,
  4;31,30,30,31;,
  4;13,14,14,13;,
  4;32,31,31,32;,
  4;14,15,15,14;,
  4;33,32,32,33;,
  4;15,16,16,15;,
  4;34,33,33,34;,
  4;16,17,17,16;,
  4;35,34,34,35;,
  4;17,18,18,17;,
  4;36,35,35,36;,
  4;18,19,19,18;,
  4;37,36,36,37;,
  4;19,20,20,19;,
  4;38,37,37,38;,
  4;20,21,21,20;,
  4;39,38,38,39;,
  4;21,22,22,21;,
  4;40,39,39,40;,
  4;22,23,23,22;,
  4;41,40,40,41;,
  4;23,24,24,23;,
  4;42,41,41,42;,
  4;24,25,25,24;,
  4;43,42,42,43;,
  4;25,26,26,25;,
  4;44,43,43,44;,
  4;26,27,27,26;,
  4;45,44,44,45;,
  4;27,28,28,27;,
  4;46,45,45,46;,
  4;28,11,11,28;,
  4;29,46,46,29;,
  4;173,173,172,172;,
  4;174,175,175,174;,
  4;176,176,173,173;,
  4;175,177,177,175;,
  4;178,178,176,176;,
  4;177,179,179,177;,
  4;180,180,178,178;,
  4;179,181,181,179;,
  4;182,182,180,180;,
  4;181,183,183,181;,
  4;184,184,182,182;,
  4;183,185,185,183;,
  4;186,186,184,184;,
  4;185,187,187,185;,
  4;188,188,186,186;,
  4;187,189,189,187;,
  4;190,190,188,188;,
  4;189,191,191,189;,
  4;192,192,190,190;,
  4;191,193,193,191;,
  4;194,194,192,192;,
  4;193,195,195,193;,
  4;196,196,194,194;,
  4;195,197,197,195;,
  4;198,198,196,196;,
  4;197,199,199,197;,
  4;200,200,198,198;,
  4;199,201,201,199;,
  4;202,202,200,200;,
  4;201,203,203,201;,
  4;204,204,202,202;,
  4;203,205,205,203;,
  4;206,206,204,204;,
  4;205,207,207,205;,
  4;172,172,206,206;,
  4;207,174,174,207;,
  4;47,48,48,47;,
  4;66,65,65,66;,
  4;48,49,49,48;,
  4;67,66,66,67;,
  4;49,50,50,49;,
  4;68,67,67,68;,
  4;50,51,51,50;,
  4;69,68,68,69;,
  4;51,52,52,51;,
  4;70,69,69,70;,
  4;52,53,53,52;,
  4;71,70,70,71;,
  4;53,54,54,53;,
  4;72,71,71,72;,
  4;54,55,55,54;,
  4;73,72,72,73;,
  4;55,56,56,55;,
  4;74,73,73,74;,
  4;56,57,57,56;,
  4;75,74,74,75;,
  4;57,58,58,57;,
  4;76,75,75,76;,
  4;58,59,59,58;,
  4;77,76,76,77;,
  4;59,60,60,59;,
  4;78,77,77,78;,
  4;60,61,61,60;,
  4;79,78,78,79;,
  4;61,62,62,61;,
  4;80,79,79,80;,
  4;62,63,63,62;,
  4;81,80,80,81;,
  4;63,64,64,63;,
  4;82,81,81,82;,
  4;64,47,47,64;,
  4;65,82,82,65;,
  4;209,209,208,208;,
  4;210,211,211,210;,
  4;212,212,209,209;,
  4;211,213,213,211;,
  4;214,214,212,212;,
  4;213,215,215,213;,
  4;216,216,214,214;,
  4;215,217,217,215;,
  4;218,218,216,216;,
  4;217,219,219,217;,
  4;220,220,218,218;,
  4;219,221,221,219;,
  4;222,222,220,220;,
  4;221,223,223,221;,
  4;224,224,222,222;,
  4;223,225,225,223;,
  4;226,226,224,224;,
  4;225,227,227,225;,
  4;228,228,226,226;,
  4;227,229,229,227;,
  4;230,230,228,228;,
  4;229,231,231,229;,
  4;232,232,230,230;,
  4;231,233,233,231;,
  4;234,234,232,232;,
  4;233,235,235,233;,
  4;236,236,234,234;,
  4;235,237,237,235;,
  4;238,238,236,236;,
  4;237,239,239,237;,
  4;240,240,238,238;,
  4;239,241,241,239;,
  4;242,242,240,240;,
  4;241,243,243,241;,
  4;208,208,242,242;,
  4;243,210,210,243;,
  4;101,102,84,83;,
  4;120,119,119,120;,
  4;102,103,85,84;,
  4;121,120,120,121;,
  4;103,104,86,85;,
  4;122,121,121,122;,
  4;104,105,87,86;,
  4;123,122,122,123;,
  4;105,106,88,87;,
  4;124,123,123,124;,
  4;106,107,89,88;,
  4;125,124,124,125;,
  4;107,108,90,89;,
  4;126,125,125,126;,
  4;108,109,91,90;,
  4;127,126,126,127;,
  4;109,110,92,91;,
  4;128,127,127,128;,
  4;110,111,93,92;,
  4;129,128,128,129;,
  4;111,112,94,93;,
  4;130,129,129,130;,
  4;112,113,95,94;,
  4;131,130,130,131;,
  4;113,114,96,95;,
  4;132,131,131,132;,
  4;114,115,97,96;,
  4;133,132,132,133;,
  4;115,116,98,97;,
  4;134,133,133,134;,
  4;116,117,99,98;,
  4;135,134,134,135;,
  4;117,118,100,99;,
  4;136,135,135,136;,
  4;118,101,83,100;,
  4;119,136,136,119;,
  4;84,245,244,83;,
  4;246,247,247,246;,
  4;85,248,245,84;,
  4;247,249,249,247;,
  4;86,250,248,85;,
  4;249,251,251,249;,
  4;87,252,250,86;,
  4;251,253,253,251;,
  4;88,254,252,87;,
  4;253,255,255,253;,
  4;89,256,254,88;,
  4;255,257,257,255;,
  4;90,258,256,89;,
  4;257,259,259,257;,
  4;91,260,258,90;,
  4;259,261,261,259;,
  4;92,262,260,91;,
  4;261,263,263,261;,
  4;93,264,262,92;,
  4;263,265,265,263;,
  4;94,266,264,93;,
  4;265,267,267,265;,
  4;95,268,266,94;,
  4;267,269,269,267;,
  4;96,270,268,95;,
  4;269,271,271,269;,
  4;97,272,270,96;,
  4;271,273,273,271;,
  4;98,274,272,97;,
  4;273,275,275,273;,
  4;99,276,274,98;,
  4;275,277,277,275;,
  4;100,278,276,99;,
  4;277,279,279,277;,
  4;83,244,278,100;,
  4;279,246,246,279;,
  3;138,139,137;,
  3;139,140,137;,
  3;140,141,137;,
  3;141,142,137;,
  3;142,143,137;,
  3;143,144,137;,
  3;144,145,137;,
  3;145,146,137;,
  3;146,147,137;,
  3;147,148,137;,
  3;148,149,137;,
  3;149,150,137;,
  3;150,151,137;,
  3;151,152,137;,
  3;152,153,137;,
  3;153,154,137;,
  3;154,155,137;,
  3;155,156,137;,
  3;156,157,137;,
  3;157,158,137;,
  3;158,159,137;,
  3;159,160,137;,
  3;160,161,137;,
  3;161,162,137;,
  3;162,163,137;,
  3;163,164,137;,
  3;164,165,137;,
  3;165,166,137;,
  3;166,167,137;,
  3;167,168,137;,
  3;168,169,137;,
  3;169,170,137;,
  3;170,171,137;,
  3;171,138,137;,
  4;281,282,282,281;,
  4;282,283,283,282;,
  4;283,284,284,283;,
  4;284,285,285,284;,
  4;285,286,286,285;,
  4;286,287,287,286;,
  4;287,288,288,287;,
  4;288,289,289,288;,
  4;289,290,290,289;,
  4;290,291,291,290;,
  4;291,292,292,291;,
  4;292,293,293,292;,
  4;293,294,294,293;,
  4;294,295,295,294;,
  4;295,296,296,295;,
  4;296,297,297,296;,
  4;297,298,298,297;,
  4;298,299,299,298;,
  4;299,300,300,299;,
  4;300,301,301,300;,
  4;301,302,302,301;,
  4;302,303,303,302;,
  4;303,304,304,303;,
  4;304,305,305,304;,
  4;305,306,306,305;,
  4;306,307,307,306;,
  4;307,308,308,307;,
  4;308,309,309,308;,
  4;309,310,310,309;,
  4;310,311,311,310;,
  4;311,312,312,311;,
  4;312,313,313,312;,
  4;313,314,314,313;,
  4;314,281,281,314;,
  3;317,316,280;,
  3;316,318,280;,
  3;318,319,280;,
  3;319,320,280;,
  3;320,321,280;,
  3;321,322,280;,
  3;322,323,280;,
  3;323,324,280;,
  3;324,325,280;,
  3;325,326,280;,
  3;326,327,280;,
  3;327,328,280;,
  3;328,329,280;,
  3;329,330,280;,
  3;330,331,280;,
  3;331,332,280;,
  3;332,333,280;,
  3;333,334,280;,
  3;334,335,280;,
  3;335,336,280;,
  3;336,337,280;,
  3;337,338,280;,
  3;338,339,280;,
  3;339,340,280;,
  3;340,341,280;,
  3;341,342,280;,
  3;342,343,280;,
  3;343,344,280;,
  3;344,345,280;,
  3;345,346,280;,
  3;346,347,280;,
  3;347,348,280;,
  3;348,349,280;,
  3;349,317,280;,
  3;351,350,315;,
  3;353,353,352;,
  3;356,355,354;,
  3;357,356,354;,
  3;358,357,354;,
  3;359,358,352;,
  3;360,359,352;,
  3;361,360,352;,
  3;362,361,352;,
  3;363,362,352;,
  3;364,363,352;,
  3;365,364,352;,
  3;366,365,352;,
  3;367,366,352;,
  3;368,367,352;,
  3;369,368,352;,
  3;370,370,352;,
  3;372,371,315;,
  3;373,372,315;,
  3;374,373,315;,
  3;375,374,315;,
  3;376,375,315;,
  3;377,376,315;,
  3;378,377,315;,
  3;379,378,315;,
  3;380,379,315;,
  3;381,380,315;,
  3;382,381,315;,
  3;383,382,315;,
  3;384,383,315;,
  3;385,384,315;,
  3;386,385,315;,
  3;387,386,315;,
  3;350,387,315;;
 }
 MeshTextureCoords {
  667;
  0.441180;0.000000;,
  0.470590;0.000000;,
  0.470590;1.000000;,
  0.441180;1.000000;,
  0.500000;0.000000;,
  0.500000;1.000000;,
  0.529410;0.000000;,
  0.529410;1.000000;,
  0.558820;0.000000;,
  0.558820;1.000000;,
  0.588240;0.000000;,
  0.588240;1.000000;,
  0.617650;0.000000;,
  0.617650;1.000000;,
  0.647060;0.000000;,
  0.647060;1.000000;,
  0.676470;0.000000;,
  0.676470;1.000000;,
  0.705880;0.000000;,
  0.705880;1.000000;,
  0.735290;0.000000;,
  0.735290;1.000000;,
  0.000000;0.000000;,
  0.055560;0.000000;,
  0.055560;1.000000;,
  0.000000;1.000000;,
  0.055560;0.000000;,
  0.000000;0.000000;,
  0.000000;1.000000;,
  0.055560;1.000000;,
  0.111110;0.000000;,
  0.111110;1.000000;,
  0.111110;0.000000;,
  0.111110;1.000000;,
  0.166670;0.000000;,
  0.166670;1.000000;,
  0.166670;0.000000;,
  0.166670;1.000000;,
  0.222220;0.000000;,
  0.222220;1.000000;,
  0.222220;0.000000;,
  0.222220;1.000000;,
  0.277780;0.000000;,
  0.277780;1.000000;,
  0.277780;0.000000;,
  0.277780;1.000000;,
  0.333330;0.000000;,
  0.333330;1.000000;,
  0.333330;0.000000;,
  0.333330;1.000000;,
  0.388890;0.000000;,
  0.388890;1.000000;,
  0.388890;0.000000;,
  0.388890;1.000000;,
  0.444440;0.000000;,
  0.444440;1.000000;,
  0.444440;0.000000;,
  0.444440;1.000000;,
  0.500000;0.000000;,
  0.500000;1.000000;,
  0.500000;0.000000;,
  0.500000;1.000000;,
  0.555560;0.000000;,
  0.555560;1.000000;,
  0.555560;0.000000;,
  0.555560;1.000000;,
  0.611110;0.000000;,
  0.611110;1.000000;,
  0.611110;0.000000;,
  0.611110;1.000000;,
  0.666670;0.000000;,
  0.666670;1.000000;,
  0.666670;0.000000;,
  0.666670;1.000000;,
  0.722220;0.000000;,
  0.722220;1.000000;,
  0.722220;0.000000;,
  0.722220;1.000000;,
  0.777780;0.000000;,
  0.777780;1.000000;,
  0.777780;0.000000;,
  0.777780;1.000000;,
  0.833330;0.000000;,
  0.833330;1.000000;,
  0.833330;0.000000;,
  0.833330;1.000000;,
  0.888890;0.000000;,
  0.888890;1.000000;,
  0.888890;0.000000;,
  0.888890;1.000000;,
  0.944440;0.000000;,
  0.944440;1.000000;,
  0.944440;0.000000;,
  0.944440;1.000000;,
  1.000000;0.000000;,
  1.000000;1.000000;,
  1.000000;0.000000;,
  1.000000;1.000000;,
  0.000000;0.000000;,
  0.000000;0.000000;,
  0.000000;0.000000;,
  0.000000;0.000000;,
  0.000000;0.000000;,
  0.000000;0.000000;,
  0.000000;0.000000;,
  0.000000;0.000000;,
  0.000000;0.000000;,
  0.000000;0.000000;,
  0.000000;0.000000;,
  0.000000;0.000000;,
  0.000000;0.000000;,
  0.000000;0.000000;,
  0.000000;0.000000;,
  0.000000;0.000000;,
  0.000000;0.000000;,
  0.000000;0.000000;,
  0.000000;0.000000;,
  0.000000;0.000000;,
  0.000000;0.000000;,
  0.000000;0.000000;,
  0.000000;0.000000;,
  0.000000;0.000000;,
  0.000000;0.000000;,
  0.000000;0.000000;,
  0.000000;0.000000;,
  0.000000;0.000000;,
  0.000000;0.000000;,
  0.000000;0.000000;,
  0.000000;0.000000;,
  0.000000;0.000000;,
  0.000000;0.000000;,
  0.000000;0.000000;,
  0.000000;0.000000;,
  0.000000;0.000000;,
  0.000000;0.000000;,
  0.000000;0.000000;,
  0.000000;0.000000;,
  0.000000;0.000000;,
  0.000000;0.000000;,
  0.000000;0.000000;,
  0.000000;0.000000;,
  0.000000;0.000000;,
  0.000000;0.000000;,
  0.000000;0.000000;,
  0.000000;0.000000;,
  0.000000;0.000000;,
  0.000000;0.000000;,
  0.000000;0.000000;,
  0.000000;0.000000;,
  0.000000;0.000000;,
  0.000000;0.000000;,
  0.000000;0.000000;,
  0.000000;0.000000;,
  0.000000;0.000000;,
  0.000000;0.000000;,
  0.000000;0.000000;,
  0.000000;0.000000;,
  0.000000;0.000000;,
  0.000000;0.000000;,
  0.000000;0.000000;,
  0.000000;0.000000;,
  0.000000;0.000000;,
  0.000000;0.000000;,
  0.000000;0.000000;,
  0.000000;0.000000;,
  0.000000;0.000000;,
  0.000000;0.000000;,
  0.000000;0.000000;,
  0.000000;0.000000;,
  0.055560;0.000000;,
  0.055560;1.000000;,
  0.000000;1.000000;,
  0.055560;0.000000;,
  0.000000;0.000000;,
  0.000000;1.000000;,
  0.055560;1.000000;,
  0.111110;0.000000;,
  0.111110;1.000000;,
  0.111110;0.000000;,
  0.111110;1.000000;,
  0.166670;0.000000;,
  0.166670;1.000000;,
  0.166670;0.000000;,
  0.166670;1.000000;,
  0.222220;0.000000;,
  0.222220;1.000000;,
  0.222220;0.000000;,
  0.222220;1.000000;,
  0.277780;0.000000;,
  0.277780;1.000000;,
  0.277780;0.000000;,
  0.277780;1.000000;,
  0.333330;0.000000;,
  0.333330;1.000000;,
  0.333330;0.000000;,
  0.333330;1.000000;,
  0.388890;0.000000;,
  0.388890;1.000000;,
  0.388890;0.000000;,
  0.388890;1.000000;,
  0.444440;0.000000;,
  0.444440;1.000000;,
  0.444440;0.000000;,
  0.444440;1.000000;,
  0.500000;0.000000;,
  0.500000;1.000000;,
  0.500000;0.000000;,
  0.500000;1.000000;,
  0.555560;0.000000;,
  0.555560;1.000000;,
  0.555560;0.000000;,
  0.555560;1.000000;,
  0.611110;0.000000;,
  0.611110;1.000000;,
  0.611110;0.000000;,
  0.611110;1.000000;,
  0.666670;0.000000;,
  0.666670;1.000000;,
  0.666670;0.000000;,
  0.666670;1.000000;,
  0.722220;0.000000;,
  0.722220;1.000000;,
  0.722220;0.000000;,
  0.722220;1.000000;,
  0.777780;0.000000;,
  0.777780;1.000000;,
  0.777780;0.000000;,
  0.777780;1.000000;,
  0.833330;0.000000;,
  0.833330;1.000000;,
  0.833330;0.000000;,
  0.833330;1.000000;,
  0.888890;0.000000;,
  0.888890;1.000000;,
  0.888890;0.000000;,
  0.888890;1.000000;,
  0.944440;0.000000;,
  0.944440;1.000000;,
  0.944440;0.000000;,
  0.944440;1.000000;,
  1.000000;0.000000;,
  1.000000;1.000000;,
  1.000000;0.000000;,
  1.000000;1.000000;,
  0.000000;0.000000;,
  0.000000;0.000000;,
  0.000000;0.000000;,
  0.000000;0.000000;,
  0.000000;0.000000;,
  0.000000;0.000000;,
  0.000000;0.000000;,
  0.000000;0.000000;,
  0.000000;0.000000;,
  0.000000;0.000000;,
  0.000000;0.000000;,
  0.000000;0.000000;,
  0.000000;0.000000;,
  0.000000;0.000000;,
  0.000000;0.000000;,
  0.000000;0.000000;,
  0.000000;0.000000;,
  0.000000;0.000000;,
  0.000000;0.000000;,
  0.000000;0.000000;,
  0.000000;0.000000;,
  0.000000;0.000000;,
  0.000000;0.000000;,
  0.000000;0.000000;,
  0.000000;0.000000;,
  0.000000;0.000000;,
  0.000000;0.000000;,
  0.000000;0.000000;,
  0.000000;0.000000;,
  0.000000;0.000000;,
  0.000000;0.000000;,
  0.000000;0.000000;,
  0.000000;0.000000;,
  0.000000;0.000000;,
  0.000000;0.000000;,
  0.000000;0.000000;,
  0.000000;0.000000;,
  0.000000;0.000000;,
  0.000000;0.000000;,
  0.000000;0.000000;,
  0.000000;0.000000;,
  0.000000;0.000000;,
  0.000000;0.000000;,
  0.000000;0.000000;,
  0.000000;0.000000;,
  0.000000;0.000000;,
  0.000000;0.000000;,
  0.000000;0.000000;,
  0.000000;0.000000;,
  0.000000;0.000000;,
  0.000000;0.000000;,
  0.000000;0.000000;,
  0.000000;0.000000;,
  0.000000;0.000000;,
  0.000000;0.000000;,
  0.000000;0.000000;,
  0.000000;0.000000;,
  0.000000;0.000000;,
  0.000000;0.000000;,
  0.000000;0.000000;,
  0.000000;0.000000;,
  0.000000;0.000000;,
  0.000000;0.000000;,
  0.000000;0.000000;,
  0.000000;0.000000;,
  0.000000;0.000000;,
  0.000000;0.000000;,
  0.000000;0.000000;,
  0.000000;0.000000;,
  0.000000;0.000000;,
  0.000000;0.000000;,
  0.055560;0.000000;,
  0.055560;1.000000;,
  0.000000;1.000000;,
  0.055560;0.000000;,
  0.000000;0.000000;,
  0.000000;1.000000;,
  0.055560;1.000000;,
  0.111110;0.000000;,
  0.111110;1.000000;,
  0.111110;0.000000;,
  0.111110;1.000000;,
  0.166670;0.000000;,
  0.166670;1.000000;,
  0.166670;0.000000;,
  0.166670;1.000000;,
  0.222220;0.000000;,
  0.222220;1.000000;,
  0.222220;0.000000;,
  0.222220;1.000000;,
  0.277780;0.000000;,
  0.277780;1.000000;,
  0.277780;0.000000;,
  0.277780;1.000000;,
  0.333330;0.000000;,
  0.333330;1.000000;,
  0.333330;0.000000;,
  0.333330;1.000000;,
  0.388890;0.000000;,
  0.388890;1.000000;,
  0.388890;0.000000;,
  0.388890;1.000000;,
  0.444440;0.000000;,
  0.444440;1.000000;,
  0.444440;0.000000;,
  0.444440;1.000000;,
  0.500000;0.000000;,
  0.500000;1.000000;,
  0.500000;0.000000;,
  0.500000;1.000000;,
  0.555560;0.000000;,
  0.555560;1.000000;,
  0.555560;0.000000;,
  0.555560;1.000000;,
  0.611110;0.000000;,
  0.611110;1.000000;,
  0.611110;0.000000;,
  0.611110;1.000000;,
  0.666670;0.000000;,
  0.666670;1.000000;,
  0.666670;0.000000;,
  0.666670;1.000000;,
  0.722220;0.000000;,
  0.722220;1.000000;,
  0.722220;0.000000;,
  0.722220;1.000000;,
  0.777780;0.000000;,
  0.777780;1.000000;,
  0.777780;0.000000;,
  0.777780;1.000000;,
  0.833330;0.000000;,
  0.833330;1.000000;,
  0.833330;0.000000;,
  0.833330;1.000000;,
  0.888890;0.000000;,
  0.888890;1.000000;,
  0.888890;0.000000;,
  0.888890;1.000000;,
  0.944440;0.000000;,
  0.944440;1.000000;,
  0.944440;0.000000;,
  0.944440;1.000000;,
  1.000000;0.000000;,
  1.000000;1.000000;,
  1.000000;0.000000;,
  1.000000;1.000000;,
  0.000000;0.000000;,
  0.000000;0.000000;,
  0.000000;0.000000;,
  0.000000;0.000000;,
  0.000000;0.000000;,
  0.000000;0.000000;,
  0.000000;0.000000;,
  0.000000;0.000000;,
  0.000000;0.000000;,
  0.000000;0.000000;,
  0.000000;0.000000;,
  0.000000;0.000000;,
  0.000000;0.000000;,
  0.000000;0.000000;,
  0.000000;0.000000;,
  0.000000;0.000000;,
  0.000000;0.000000;,
  0.000000;0.000000;,
  0.000000;0.000000;,
  0.000000;0.000000;,
  0.000000;0.000000;,
  0.000000;0.000000;,
  0.000000;0.000000;,
  0.000000;0.000000;,
  0.000000;0.000000;,
  0.000000;0.000000;,
  0.000000;0.000000;,
  0.000000;0.000000;,
  0.000000;0.000000;,
  0.000000;0.000000;,
  0.000000;0.000000;,
  0.000000;0.000000;,
  0.000000;0.000000;,
  0.000000;0.000000;,
  0.000000;0.000000;,
  0.000000;0.000000;,
  0.000000;0.000000;,
  0.000000;0.000000;,
  0.000000;0.000000;,
  0.000000;0.000000;,
  0.000000;0.000000;,
  0.000000;0.000000;,
  0.000000;0.000000;,
  0.000000;0.000000;,
  0.000000;0.000000;,
  0.000000;0.000000;,
  0.000000;0.000000;,
  0.000000;0.000000;,
  0.000000;0.000000;,
  0.000000;0.000000;,
  0.000000;0.000000;,
  0.000000;0.000000;,
  0.000000;0.000000;,
  0.000000;0.000000;,
  0.000000;0.000000;,
  0.000000;0.000000;,
  0.000000;0.000000;,
  0.000000;0.000000;,
  0.000000;0.000000;,
  0.000000;0.000000;,
  0.000000;0.000000;,
  0.000000;0.000000;,
  0.000000;0.000000;,
  0.000000;0.000000;,
  0.000000;0.000000;,
  0.000000;0.000000;,
  0.000000;0.000000;,
  0.000000;0.000000;,
  0.000000;0.000000;,
  0.000000;0.000000;,
  0.014710;0.000000;,
  0.029410;0.000000;,
  0.000000;0.000000;,
  0.044120;0.000000;,
  0.058820;0.000000;,
  0.073530;0.000000;,
  0.088240;0.000000;,
  0.102940;0.000000;,
  0.117650;0.000000;,
  0.132350;0.000000;,
  0.147060;0.000000;,
  0.161760;0.000000;,
  0.176470;0.000000;,
  0.191180;0.000000;,
  0.205880;0.000000;,
  0.220590;0.000000;,
  0.235290;0.000000;,
  0.250000;0.000000;,
  0.264710;0.000000;,
  0.279410;0.000000;,
  0.294120;0.000000;,
  0.308820;0.000000;,
  0.323530;0.000000;,
  0.338240;0.000000;,
  0.352940;0.000000;,
  0.367650;0.000000;,
  0.382350;0.000000;,
  0.397060;0.000000;,
  0.411760;0.000000;,
  0.426470;0.000000;,
  0.441180;0.000000;,
  0.455880;0.000000;,
  0.470590;0.000000;,
  0.485290;0.000000;,
  0.500000;0.000000;,
  0.514710;0.000000;,
  0.529410;0.000000;,
  0.544120;0.000000;,
  0.558820;0.000000;,
  0.573530;0.000000;,
  0.588240;0.000000;,
  0.602940;0.000000;,
  0.617650;0.000000;,
  0.632350;0.000000;,
  0.647060;0.000000;,
  0.661760;0.000000;,
  0.676470;0.000000;,
  0.691180;0.000000;,
  0.705880;0.000000;,
  0.720590;0.000000;,
  0.735290;0.000000;,
  0.750000;0.000000;,
  0.764710;0.000000;,
  0.779410;0.000000;,
  0.794120;0.000000;,
  0.808820;0.000000;,
  0.823530;0.000000;,
  0.838240;0.000000;,
  0.852940;0.000000;,
  0.867650;0.000000;,
  0.882350;0.000000;,
  0.897060;0.000000;,
  0.911770;0.000000;,
  0.926470;0.000000;,
  0.941180;0.000000;,
  0.955880;0.000000;,
  0.970590;0.000000;,
  0.985290;0.000000;,
  1.000000;0.000000;,
  0.000000;0.000000;,
  0.029410;0.000000;,
  0.029410;1.000000;,
  0.000000;1.000000;,
  0.058820;0.000000;,
  0.058820;1.000000;,
  0.088240;0.000000;,
  0.088240;1.000000;,
  0.117650;0.000000;,
  0.117650;1.000000;,
  0.147060;0.000000;,
  0.147060;1.000000;,
  0.176470;0.000000;,
  0.176470;1.000000;,
  0.205880;0.000000;,
  0.205880;1.000000;,
  0.235290;0.000000;,
  0.235290;1.000000;,
  0.264710;0.000000;,
  0.264710;1.000000;,
  0.294120;0.000000;,
  0.294120;1.000000;,
  0.323530;0.000000;,
  0.323530;1.000000;,
  0.352940;0.000000;,
  0.352940;1.000000;,
  0.382350;0.000000;,
  0.382350;1.000000;,
  0.411760;0.000000;,
  0.411760;1.000000;,
  0.441180;0.000000;,
  0.441180;1.000000;,
  0.470590;0.000000;,
  0.470590;1.000000;,
  0.500000;0.000000;,
  0.500000;1.000000;,
  0.529410;0.000000;,
  0.529410;1.000000;,
  0.558820;0.000000;,
  0.558820;1.000000;,
  0.588240;0.000000;,
  0.588240;1.000000;,
  0.617650;0.000000;,
  0.617650;1.000000;,
  0.647060;0.000000;,
  0.647060;1.000000;,
  0.676470;0.000000;,
  0.676470;1.000000;,
  0.705880;0.000000;,
  0.705880;1.000000;,
  0.735290;0.000000;,
  0.735290;1.000000;,
  0.764710;0.000000;,
  0.764710;1.000000;,
  0.794120;0.000000;,
  0.794120;1.000000;,
  0.823530;0.000000;,
  0.823530;1.000000;,
  0.852940;0.000000;,
  0.852940;1.000000;,
  0.882350;0.000000;,
  0.882350;1.000000;,
  0.911770;0.000000;,
  0.911770;1.000000;,
  0.941180;0.000000;,
  0.941180;1.000000;,
  0.970590;0.000000;,
  0.970590;1.000000;,
  1.000000;0.000000;,
  1.000000;1.000000;,
  0.014710;0.000000;,
  0.044120;0.000000;,
  0.073530;0.000000;,
  0.102940;0.000000;,
  0.132350;0.000000;,
  0.161760;0.000000;,
  0.191180;0.000000;,
  0.220590;0.000000;,
  0.250000;0.000000;,
  0.279410;0.000000;,
  0.308820;0.000000;,
  0.338240;0.000000;,
  0.367650;0.000000;,
  0.397060;0.000000;,
  0.426470;0.000000;,
  0.455880;0.000000;,
  0.485290;0.000000;,
  0.514710;0.000000;,
  0.544120;0.000000;,
  0.573530;0.000000;,
  0.602940;0.000000;,
  0.632350;0.000000;,
  0.661760;0.000000;,
  0.691180;0.000000;,
  0.720590;0.000000;,
  0.750000;0.000000;,
  0.779410;0.000000;,
  0.808820;0.000000;,
  0.838240;0.000000;,
  0.867650;0.000000;,
  0.897060;0.000000;,
  0.926470;0.000000;,
  0.955880;0.000000;,
  0.985290;0.000000;,
  0.014710;1.000000;,
  0.044120;1.000000;,
  0.073530;1.000000;,
  0.102940;1.000000;,
  0.132350;1.000000;,
  0.161760;1.000000;,
  0.191180;1.000000;,
  0.220590;1.000000;,
  0.250000;1.000000;,
  0.279410;1.000000;,
  0.308820;1.000000;,
  0.338240;1.000000;,
  0.367650;1.000000;,
  0.397060;1.000000;,
  0.426470;1.000000;,
  0.455880;1.000000;,
  0.485290;1.000000;,
  0.514710;1.000000;,
  0.544120;1.000000;,
  0.573530;1.000000;,
  0.602940;1.000000;,
  0.632350;1.000000;,
  0.661760;1.000000;,
  0.691180;1.000000;,
  0.720590;1.000000;,
  0.750000;1.000000;,
  0.779410;1.000000;,
  0.808820;1.000000;,
  0.838240;1.000000;,
  0.867650;1.000000;,
  0.897060;1.000000;,
  0.926470;1.000000;,
  0.955880;1.000000;,
  0.985290;1.000000;;
 }
}
