xof 0302txt 0064
template Header {
 <3D82AB43-62DA-11cf-AB39-0020AF71E433>
 WORD major;
 WORD minor;
 DWORD flags;
}

template Vector {
 <3D82AB5E-62DA-11cf-AB39-0020AF71E433>
 FLOAT x;
 FLOAT y;
 FLOAT z;
}

template Coords2d {
 <F6F23F44-7686-11cf-8F52-0040333594A3>
 FLOAT u;
 FLOAT v;
}

template Matrix4x4 {
 <F6F23F45-7686-11cf-8F52-0040333594A3>
 array FLOAT matrix[16];
}

template ColorRGBA {
 <35FF44E0-6C7C-11cf-8F52-0040333594A3>
 FLOAT red;
 FLOAT green;
 FLOAT blue;
 FLOAT alpha;
}

template ColorRGB {
 <D3E16E81-7835-11cf-8F52-0040333594A3>
 FLOAT red;
 FLOAT green;
 FLOAT blue;
}

template IndexedColor {
 <1630B820-7842-11cf-8F52-0040333594A3>
 DWORD index;
 ColorRGBA indexColor;
}

template Boolean {
 <4885AE61-78E8-11cf-8F52-0040333594A3>
 WORD truefalse;
}

template Boolean2d {
 <4885AE63-78E8-11cf-8F52-0040333594A3>
 Boolean u;
 Boolean v;
}

template MaterialWrap {
 <4885AE60-78E8-11cf-8F52-0040333594A3>
 Boolean u;
 Boolean v;
}

template TextureFilename {
 <A42790E1-7810-11cf-8F52-0040333594A3>
 STRING filename;
}

template Material {
 <3D82AB4D-62DA-11cf-AB39-0020AF71E433>
 ColorRGBA faceColor;
 FLOAT power;
 ColorRGB specularColor;
 ColorRGB emissiveColor;
 [...]
}

template MeshFace {
 <3D82AB5F-62DA-11cf-AB39-0020AF71E433>
 DWORD nFaceVertexIndices;
 array DWORD faceVertexIndices[nFaceVertexIndices];
}

template MeshFaceWraps {
 <4885AE62-78E8-11cf-8F52-0040333594A3>
 DWORD nFaceWrapValues;
 Boolean2d faceWrapValues;
}

template MeshTextureCoords {
 <F6F23F40-7686-11cf-8F52-0040333594A3>
 DWORD nTextureCoords;
 array Coords2d textureCoords[nTextureCoords];
}

template MeshMaterialList {
 <F6F23F42-7686-11cf-8F52-0040333594A3>
 DWORD nMaterials;
 DWORD nFaceIndexes;
 array DWORD faceIndexes[nFaceIndexes];
 [Material]
}

template MeshNormals {
 <F6F23F43-7686-11cf-8F52-0040333594A3>
 DWORD nNormals;
 array Vector normals[nNormals];
 DWORD nFaceNormals;
 array MeshFace faceNormals[nFaceNormals];
}

template MeshVertexColors {
 <1630B821-7842-11cf-8F52-0040333594A3>
 DWORD nVertexColors;
 array IndexedColor vertexColors[nVertexColors];
}

template Mesh {
 <3D82AB44-62DA-11cf-AB39-0020AF71E433>
 DWORD nVertices;
 array Vector vertices[nVertices];
 DWORD nFaces;
 array MeshFace faces[nFaces];
 [...]
}

Header{
1;
0;
1;
}

Mesh {
 232;
 12.64168;17.66713;-4.92515;,
 -12.64168;17.66713;-4.92515;,
 -12.64168;0.00143;-4.92515;,
 12.64168;0.00143;-4.92515;,
 -12.64168;17.66713;-4.92515;,
 -12.64168;17.66713;4.92515;,
 -12.64168;0.00143;4.92515;,
 -12.64168;0.00143;-4.92515;,
 -12.64168;17.66713;4.92515;,
 12.64168;17.66713;4.92515;,
 12.64168;0.00143;4.92515;,
 -12.64168;0.00143;4.92515;,
 12.64168;17.66713;4.92515;,
 12.64168;17.66713;-4.92515;,
 12.64168;0.00143;-4.92515;,
 12.64168;0.00143;4.92515;,
 -12.64168;17.66713;-4.92515;,
 12.64168;17.66713;-4.92515;,
 12.64168;0.00143;-4.92515;,
 -12.64168;0.00143;-4.92515;,
 13.22207;18.60435;-7.54064;,
 -13.22207;18.60435;-7.54064;,
 -13.22207;17.57581;-7.54064;,
 13.22207;17.57581;-7.54064;,
 -13.22207;18.60435;-7.54064;,
 -13.22207;18.60435;4.97406;,
 -13.22207;17.57581;4.97406;,
 -13.22207;17.57581;-7.54064;,
 -13.22207;18.60435;4.97406;,
 13.22207;18.60435;4.97406;,
 13.22207;17.57581;4.97406;,
 -13.22207;17.57581;4.97406;,
 13.22207;18.60435;4.97406;,
 13.22207;18.60435;-7.54064;,
 13.22207;17.57581;-7.54064;,
 13.22207;17.57581;4.97406;,
 -13.22207;18.60435;-7.54064;,
 13.22207;18.60435;-7.54064;,
 13.22207;17.57581;-7.54064;,
 -13.22207;17.57581;-7.54064;,
 9.03980;17.54675;-4.98332;,
 9.03980;17.54675;-6.41996;,
 12.64168;17.54675;-6.41996;,
 12.64168;17.54675;-4.98332;,
 9.03980;11.91230;-6.41996;,
 9.03980;11.91230;-4.98332;,
 12.64168;11.91230;-4.98332;,
 12.64168;11.91230;-6.41996;,
 -8.74759;17.54675;-4.98332;,
 -12.64168;17.54675;-4.98332;,
 -12.64168;17.54675;-6.41996;,
 -8.74759;17.54675;-6.41996;,
 -8.74759;11.91230;-6.41996;,
 -12.64168;11.91230;-6.41996;,
 -12.64168;11.91230;-4.98332;,
 -8.74759;11.91230;-4.98332;,
 -12.64168;16.26479;-4.98332;,
 -12.64168;16.26479;-6.41996;,
 -12.64168;17.54675;-6.41996;,
 12.64168;16.26479;-6.41996;,
 12.64168;16.26479;-4.98332;,
 12.64168;17.54675;-6.41996;,
 9.03980;16.26479;-6.41996;,
 12.64168;16.26479;-6.41996;,
 12.64168;17.54675;-6.41996;,
 9.03980;17.54675;-6.41996;,
 12.64168;16.26479;-4.98332;,
 9.03980;16.26479;-4.98332;,
 9.03980;17.54675;-4.98332;,
 12.64168;17.54675;-4.98332;,
 -12.64168;16.26479;-6.41996;,
 -8.74759;16.26479;-6.41996;,
 -8.74759;17.54675;-6.41996;,
 -12.64168;17.54675;-6.41996;,
 -12.64168;16.26479;-4.98332;,
 -12.64168;17.54675;-4.98332;,
 -8.74759;17.54675;-4.98332;,
 -8.74759;16.26479;-4.98332;,
 -12.64168;13.29504;-4.98332;,
 -12.64168;11.91230;-6.41996;,
 -12.64168;13.29504;-6.41996;,
 12.64168;13.29504;-6.41996;,
 12.64168;11.91230;-6.41996;,
 12.64168;13.29504;-4.98332;,
 9.03980;13.29504;-6.41996;,
 9.03980;11.91230;-6.41996;,
 12.64168;11.91230;-6.41996;,
 12.64168;13.29504;-6.41996;,
 12.64168;13.29504;-4.98332;,
 12.64168;11.91230;-4.98332;,
 9.03980;11.91230;-4.98332;,
 9.03980;13.29504;-4.98332;,
 -12.64168;13.29504;-6.41996;,
 -12.64168;11.91230;-6.41996;,
 -8.74759;11.91230;-6.41996;,
 -8.74759;13.29504;-6.41996;,
 -8.74759;13.29504;-4.98332;,
 -8.74759;11.91230;-4.98332;,
 -12.64168;11.91230;-4.98332;,
 -12.64168;13.29504;-4.98332;,
 8.69186;13.61107;-5.82832;,
 -8.39965;13.61107;-5.82832;,
 8.69186;15.94875;-5.82832;,
 -8.39965;15.94875;-5.82832;,
 9.03980;11.57674;-4.98332;,
 9.03980;11.57674;-6.41996;,
 12.64168;11.57674;-6.41996;,
 12.64168;11.57674;-4.98332;,
 9.03980;5.94230;-6.41996;,
 9.03980;5.94230;-4.98332;,
 12.64168;5.94230;-4.98332;,
 12.64168;5.94230;-6.41996;,
 -8.74759;11.57674;-4.98332;,
 -12.64168;11.57674;-4.98332;,
 -12.64168;11.57674;-6.41996;,
 -8.74759;11.57674;-6.41996;,
 -8.74759;5.94230;-6.41996;,
 -12.64168;5.94230;-6.41996;,
 -12.64168;5.94230;-4.98332;,
 -8.74759;5.94230;-4.98332;,
 -12.64168;10.29479;-4.98332;,
 -12.64168;10.29479;-6.41996;,
 -12.64168;11.57674;-6.41996;,
 12.64168;10.29479;-6.41996;,
 12.64168;10.29479;-4.98332;,
 12.64168;11.57674;-6.41996;,
 9.03980;10.29479;-6.41996;,
 12.64168;10.29479;-6.41996;,
 12.64168;11.57674;-6.41996;,
 9.03980;11.57674;-6.41996;,
 12.64168;10.29479;-4.98332;,
 9.03980;10.29479;-4.98332;,
 9.03980;11.57674;-4.98332;,
 12.64168;11.57674;-4.98332;,
 -12.64168;10.29479;-6.41996;,
 -8.74759;10.29479;-6.41996;,
 -8.74759;11.57674;-6.41996;,
 -12.64168;11.57674;-6.41996;,
 -12.64168;10.29479;-4.98332;,
 -12.64168;11.57674;-4.98332;,
 -8.74759;11.57674;-4.98332;,
 -8.74759;10.29479;-4.98332;,
 -12.64168;7.32504;-4.98332;,
 -12.64168;5.94230;-6.41996;,
 -12.64168;7.32504;-6.41996;,
 12.64168;7.32504;-6.41996;,
 12.64168;5.94230;-6.41996;,
 12.64168;7.32504;-4.98332;,
 9.03980;7.32504;-6.41996;,
 9.03980;5.94230;-6.41996;,
 12.64168;5.94230;-6.41996;,
 12.64168;7.32504;-6.41996;,
 12.64168;7.32504;-4.98332;,
 12.64168;5.94230;-4.98332;,
 9.03980;5.94230;-4.98332;,
 9.03980;7.32504;-4.98332;,
 -12.64168;7.32504;-6.41996;,
 -12.64168;5.94230;-6.41996;,
 -8.74759;5.94230;-6.41996;,
 -8.74759;7.32504;-6.41996;,
 -8.74759;7.32504;-4.98332;,
 -8.74759;5.94230;-4.98332;,
 -12.64168;5.94230;-4.98332;,
 -12.64168;7.32504;-4.98332;,
 8.69186;7.64107;-5.82832;,
 -8.39965;7.64107;-5.82832;,
 8.69186;9.97875;-5.82832;,
 -8.39965;9.97875;-5.82832;,
 9.03980;5.63690;-4.98332;,
 9.03980;5.63690;-6.41996;,
 12.64168;5.63690;-6.41996;,
 12.64168;5.63690;-4.98332;,
 9.03980;0.00246;-6.41996;,
 9.03980;0.00246;-4.98332;,
 12.64168;0.00246;-4.98332;,
 12.64168;0.00246;-6.41996;,
 -8.74759;5.63690;-4.98332;,
 -12.64168;5.63690;-4.98332;,
 -12.64168;5.63690;-6.41996;,
 -8.74759;5.63690;-6.41996;,
 -8.74759;0.00246;-6.41996;,
 -12.64168;0.00246;-6.41996;,
 -12.64168;0.00246;-4.98332;,
 -8.74759;0.00246;-4.98332;,
 -12.64168;4.35494;-4.98332;,
 -12.64168;4.35494;-6.41996;,
 -12.64168;5.63690;-6.41996;,
 12.64168;4.35494;-6.41996;,
 12.64168;4.35494;-4.98332;,
 12.64168;5.63690;-6.41996;,
 9.03980;4.35494;-6.41996;,
 12.64168;4.35494;-6.41996;,
 12.64168;5.63690;-6.41996;,
 9.03980;5.63690;-6.41996;,
 12.64168;4.35494;-4.98332;,
 9.03980;4.35494;-4.98332;,
 9.03980;5.63690;-4.98332;,
 12.64168;5.63690;-4.98332;,
 -12.64168;4.35494;-6.41996;,
 -8.74759;4.35494;-6.41996;,
 -8.74759;5.63690;-6.41996;,
 -12.64168;5.63690;-6.41996;,
 -12.64168;4.35494;-4.98332;,
 -12.64168;5.63690;-4.98332;,
 -8.74759;5.63690;-4.98332;,
 -8.74759;4.35494;-4.98332;,
 -12.64168;1.38520;-4.98332;,
 -12.64168;0.00246;-6.41996;,
 -12.64168;1.38520;-6.41996;,
 12.64168;1.38520;-6.41996;,
 12.64168;0.00246;-6.41996;,
 12.64168;1.38520;-4.98332;,
 9.03980;1.38520;-6.41996;,
 9.03980;0.00246;-6.41996;,
 12.64168;0.00246;-6.41996;,
 12.64168;1.38520;-6.41996;,
 12.64168;1.38520;-4.98332;,
 12.64168;0.00246;-4.98332;,
 9.03980;0.00246;-4.98332;,
 9.03980;1.38520;-4.98332;,
 -12.64168;1.38520;-6.41996;,
 -12.64168;0.00246;-6.41996;,
 -8.74759;0.00246;-6.41996;,
 -8.74759;1.38520;-6.41996;,
 -8.74759;1.38520;-4.98332;,
 -8.74759;0.00246;-4.98332;,
 -12.64168;0.00246;-4.98332;,
 -12.64168;1.38520;-4.98332;,
 8.69186;1.70123;-5.82832;,
 -8.39965;1.70123;-5.82832;,
 8.69186;4.03891;-5.82832;,
 -8.39965;4.03891;-5.82832;;
 
 114;
 4;3,2,1,0;,
 4;7,6,5,4;,
 4;11,10,9,8;,
 4;15,14,13,12;,
 4;17,16,5,12;,
 4;15,6,19,18;,
 4;23,22,21,20;,
 4;27,26,25,24;,
 4;31,30,29,28;,
 4;35,34,33,32;,
 4;37,36,25,32;,
 4;35,26,39,38;,
 4;43,42,41,40;,
 4;47,46,45,44;,
 4;51,50,49,48;,
 4;40,41,51,48;,
 4;55,54,53,52;,
 4;44,45,55,52;,
 4;49,58,57,56;,
 4;61,43,60,59;,
 4;65,64,63,62;,
 4;69,68,67,66;,
 4;73,72,71,70;,
 4;72,65,62,71;,
 4;77,76,75,74;,
 4;67,68,76,77;,
 4;80,79,54,78;,
 4;56,57,80,78;,
 4;83,46,82,81;,
 4;59,60,83,81;,
 4;87,86,85,84;,
 4;62,63,87,84;,
 4;91,90,89,88;,
 4;66,67,91,88;,
 4;95,94,93,92;,
 4;70,71,95,92;,
 4;84,85,94,95;,
 4;99,98,97,96;,
 4;77,74,99,96;,
 4;96,97,90,91;,
 4;67,77,96,91;,
 4;84,95,101,100;,
 4;62,84,100,102;,
 4;71,62,102,103;,
 4;95,71,103,101;,
 4;103,102,100,101;,
 4;107,106,105,104;,
 4;111,110,109,108;,
 4;115,114,113,112;,
 4;104,105,115,112;,
 4;119,118,117,116;,
 4;108,109,119,116;,
 4;113,122,121,120;,
 4;125,107,124,123;,
 4;129,128,127,126;,
 4;133,132,131,130;,
 4;137,136,135,134;,
 4;136,129,126,135;,
 4;141,140,139,138;,
 4;131,132,140,141;,
 4;144,143,118,142;,
 4;120,121,144,142;,
 4;147,110,146,145;,
 4;123,124,147,145;,
 4;151,150,149,148;,
 4;126,127,151,148;,
 4;155,154,153,152;,
 4;130,131,155,152;,
 4;159,158,157,156;,
 4;134,135,159,156;,
 4;148,149,158,159;,
 4;163,162,161,160;,
 4;141,138,163,160;,
 4;160,161,154,155;,
 4;131,141,160,155;,
 4;148,159,165,164;,
 4;126,148,164,166;,
 4;135,126,166,167;,
 4;159,135,167,165;,
 4;167,166,164,165;,
 4;171,170,169,168;,
 4;175,174,173,172;,
 4;179,178,177,176;,
 4;168,169,179,176;,
 4;183,182,181,180;,
 4;172,173,183,180;,
 4;177,186,185,184;,
 4;189,171,188,187;,
 4;193,192,191,190;,
 4;197,196,195,194;,
 4;201,200,199,198;,
 4;200,193,190,199;,
 4;205,204,203,202;,
 4;195,196,204,205;,
 4;208,207,182,206;,
 4;184,185,208,206;,
 4;211,174,210,209;,
 4;187,188,211,209;,
 4;215,214,213,212;,
 4;190,191,215,212;,
 4;219,218,217,216;,
 4;194,195,219,216;,
 4;223,222,221,220;,
 4;198,199,223,220;,
 4;212,213,222,223;,
 4;227,226,225,224;,
 4;205,202,227,224;,
 4;224,225,218,219;,
 4;195,205,224,219;,
 4;212,223,229,228;,
 4;190,212,228,230;,
 4;199,190,230,231;,
 4;223,199,231,229;,
 4;231,230,228,229;;
 
 MeshMaterialList {
  1;
  114;
  0,
  0,
  0,
  0,
  0,
  0,
  0,
  0,
  0,
  0,
  0,
  0,
  0,
  0,
  0,
  0,
  0,
  0,
  0,
  0,
  0,
  0,
  0,
  0,
  0,
  0,
  0,
  0,
  0,
  0,
  0,
  0,
  0,
  0,
  0,
  0,
  0,
  0,
  0,
  0,
  0,
  0,
  0,
  0,
  0,
  0,
  0,
  0,
  0,
  0,
  0,
  0,
  0,
  0,
  0,
  0,
  0,
  0,
  0,
  0,
  0,
  0,
  0,
  0,
  0,
  0,
  0,
  0,
  0,
  0,
  0,
  0,
  0,
  0,
  0,
  0,
  0,
  0,
  0,
  0,
  0,
  0,
  0,
  0,
  0,
  0,
  0,
  0,
  0,
  0,
  0,
  0,
  0,
  0,
  0,
  0,
  0,
  0,
  0,
  0,
  0,
  0,
  0,
  0,
  0,
  0,
  0,
  0,
  0,
  0,
  0,
  0,
  0,
  0;;
  Material {
   0.800000;0.800000;0.800000;1.000000;;
   5.000000;
   0.000000;0.000000;0.000000;;
   0.000000;0.000000;0.000000;;
   TextureFilename {
    "data\\texture\\lace-wood.jpg";
   }
  }
 }
 MeshNormals {
  42;
  0.000000;0.000000;-1.000000;,
  -1.000000;0.000000;0.000000;,
  0.000000;0.000000;1.000000;,
  1.000000;0.000000;0.000000;,
  0.000000;1.000000;0.000000;,
  0.000000;-1.000000;0.000000;,
  0.000000;0.000000;-1.000000;,
  -1.000000;0.000000;0.000000;,
  0.000000;0.000000;1.000000;,
  1.000000;0.000000;0.000000;,
  0.000000;1.000000;0.000000;,
  0.000000;-1.000000;0.000000;,
  0.000000;1.000000;0.000000;,
  0.000000;-1.000000;0.000000;,
  1.000000;0.000000;0.000000;,
  -1.000000;0.000000;0.000000;,
  0.000000;0.000000;-1.000000;,
  0.000000;0.000000;1.000000;,
  -0.861991;0.000000;-0.506923;,
  0.000000;-0.882046;-0.471163;,
  0.000000;0.882050;-0.471156;,
  0.861989;0.000000;-0.506928;,
  0.000000;1.000000;0.000000;,
  0.000000;-1.000000;0.000000;,
  1.000000;0.000000;0.000000;,
  -1.000000;0.000000;0.000000;,
  0.000000;0.000000;-1.000000;,
  0.000000;0.000000;1.000000;,
  -0.861991;0.000000;-0.506923;,
  0.000000;-0.882047;-0.471161;,
  0.000000;0.882050;-0.471156;,
  0.861989;0.000000;-0.506928;,
  0.000000;1.000000;0.000000;,
  0.000000;-1.000000;0.000000;,
  1.000000;0.000000;0.000000;,
  -1.000000;0.000000;0.000000;,
  0.000000;0.000000;-1.000000;,
  0.000000;0.000000;1.000000;,
  -0.861991;0.000000;-0.506923;,
  0.000000;-0.882047;-0.471161;,
  0.000000;0.882050;-0.471156;,
  0.861989;0.000000;-0.506928;;
  114;
  4;0,0,0,0;,
  4;1,1,1,1;,
  4;2,2,2,2;,
  4;3,3,3,3;,
  4;4,4,4,4;,
  4;5,5,5,5;,
  4;6,6,6,6;,
  4;7,7,7,7;,
  4;8,8,8,8;,
  4;9,9,9,9;,
  4;10,10,10,10;,
  4;11,11,11,11;,
  4;12,12,12,12;,
  4;13,13,13,13;,
  4;12,12,12,12;,
  4;12,12,12,12;,
  4;13,13,13,13;,
  4;13,13,13,13;,
  4;15,15,15,15;,
  4;14,14,14,14;,
  4;16,16,16,16;,
  4;17,17,17,17;,
  4;16,16,16,16;,
  4;16,16,16,16;,
  4;17,17,17,17;,
  4;17,17,17,17;,
  4;15,15,15,15;,
  4;15,15,15,15;,
  4;14,14,14,14;,
  4;14,14,14,14;,
  4;16,16,16,16;,
  4;16,16,16,16;,
  4;17,17,17,17;,
  4;17,17,17,17;,
  4;16,16,16,16;,
  4;16,16,16,16;,
  4;16,16,16,16;,
  4;17,17,17,17;,
  4;17,17,17,17;,
  4;17,17,17,17;,
  4;17,17,17,17;,
  4;20,20,20,20;,
  4;18,18,18,18;,
  4;19,19,19,19;,
  4;21,21,21,21;,
  4;16,16,16,16;,
  4;22,22,22,22;,
  4;23,23,23,23;,
  4;22,22,22,22;,
  4;22,22,22,22;,
  4;23,23,23,23;,
  4;23,23,23,23;,
  4;25,25,25,25;,
  4;24,24,24,24;,
  4;26,26,26,26;,
  4;27,27,27,27;,
  4;26,26,26,26;,
  4;26,26,26,26;,
  4;27,27,27,27;,
  4;27,27,27,27;,
  4;25,25,25,25;,
  4;25,25,25,25;,
  4;24,24,24,24;,
  4;24,24,24,24;,
  4;26,26,26,26;,
  4;26,26,26,26;,
  4;27,27,27,27;,
  4;27,27,27,27;,
  4;26,26,26,26;,
  4;26,26,26,26;,
  4;26,26,26,26;,
  4;27,27,27,27;,
  4;27,27,27,27;,
  4;27,27,27,27;,
  4;27,27,27,27;,
  4;30,30,30,30;,
  4;28,28,28,28;,
  4;29,29,29,29;,
  4;31,31,31,31;,
  4;26,26,26,26;,
  4;32,32,32,32;,
  4;33,33,33,33;,
  4;32,32,32,32;,
  4;32,32,32,32;,
  4;33,33,33,33;,
  4;33,33,33,33;,
  4;35,35,35,35;,
  4;34,34,34,34;,
  4;36,36,36,36;,
  4;37,37,37,37;,
  4;36,36,36,36;,
  4;36,36,36,36;,
  4;37,37,37,37;,
  4;37,37,37,37;,
  4;35,35,35,35;,
  4;35,35,35,35;,
  4;34,34,34,34;,
  4;34,34,34,34;,
  4;36,36,36,36;,
  4;36,36,36,36;,
  4;37,37,37,37;,
  4;37,37,37,37;,
  4;36,36,36,36;,
  4;36,36,36,36;,
  4;36,36,36,36;,
  4;37,37,37,37;,
  4;37,37,37,37;,
  4;37,37,37,37;,
  4;37,37,37,37;,
  4;40,40,40,40;,
  4;38,38,38,38;,
  4;39,39,39,39;,
  4;41,41,41,41;,
  4;36,36,36,36;;
 }
 MeshTextureCoords {
  232;
  0.000000;0.000000;,
  1.000000;0.000000;,
  1.000000;1.000000;,
  0.000000;1.000000;,
  0.000000;0.000000;,
  1.000000;0.000000;,
  1.000000;1.000000;,
  0.000000;1.000000;,
  0.000000;0.000000;,
  1.000000;0.000000;,
  1.000000;1.000000;,
  0.000000;1.000000;,
  0.000000;0.000000;,
  1.000000;0.000000;,
  1.000000;1.000000;,
  0.000000;1.000000;,
  1.000000;1.000000;,
  0.000000;1.000000;,
  0.000000;0.000000;,
  1.000000;0.000000;,
  0.000000;0.000000;,
  1.000000;0.000000;,
  1.000000;1.000000;,
  0.000000;1.000000;,
  0.000000;0.000000;,
  1.000000;0.000000;,
  1.000000;1.000000;,
  0.000000;1.000000;,
  0.000000;0.000000;,
  1.000000;0.000000;,
  1.000000;1.000000;,
  0.000000;1.000000;,
  0.000000;0.000000;,
  1.000000;0.000000;,
  1.000000;1.000000;,
  0.000000;1.000000;,
  1.000000;1.000000;,
  0.000000;1.000000;,
  0.000000;0.000000;,
  1.000000;0.000000;,
  0.116970;0.000000;,
  0.116970;1.000000;,
  0.000000;1.000000;,
  0.000000;0.000000;,
  0.116970;0.000000;,
  0.116970;1.000000;,
  0.000000;1.000000;,
  0.000000;0.000000;,
  0.818460;0.000000;,
  1.000000;0.000000;,
  1.000000;1.000000;,
  0.818460;1.000000;,
  0.818460;0.000000;,
  1.000000;0.000000;,
  1.000000;1.000000;,
  0.818460;1.000000;,
  1.000000;0.181770;,
  0.000000;0.181770;,
  0.000000;0.000000;,
  1.000000;0.181770;,
  0.000000;0.181770;,
  1.000000;0.000000;,
  0.116970;0.181770;,
  0.000000;0.181770;,
  0.000000;0.000000;,
  0.116970;0.000000;,
  1.000000;0.181770;,
  0.883030;0.181770;,
  0.883030;0.000000;,
  1.000000;0.000000;,
  1.000000;0.181770;,
  0.818460;0.181770;,
  0.818460;0.000000;,
  1.000000;0.000000;,
  0.000000;0.181770;,
  0.000000;0.000000;,
  0.181540;0.000000;,
  0.181540;0.181770;,
  1.000000;0.576170;,
  0.000000;1.000000;,
  0.000000;0.576170;,
  1.000000;0.576170;,
  1.000000;1.000000;,
  0.000000;0.576170;,
  0.116970;0.576170;,
  0.116970;1.000000;,
  0.000000;1.000000;,
  0.000000;0.576170;,
  1.000000;0.576170;,
  1.000000;1.000000;,
  0.883030;1.000000;,
  0.883030;0.576170;,
  1.000000;0.576170;,
  1.000000;1.000000;,
  0.818460;1.000000;,
  0.818460;0.576170;,
  0.181540;0.576170;,
  0.181540;1.000000;,
  0.000000;1.000000;,
  0.000000;0.576170;,
  0.116970;0.576170;,
  0.818460;0.576170;,
  0.116970;0.181770;,
  0.818460;0.181770;,
  0.116970;0.000000;,
  0.116970;1.000000;,
  0.000000;1.000000;,
  0.000000;0.000000;,
  0.116970;0.000000;,
  0.116970;1.000000;,
  0.000000;1.000000;,
  0.000000;0.000000;,
  0.818460;0.000000;,
  1.000000;0.000000;,
  1.000000;1.000000;,
  0.818460;1.000000;,
  0.818460;0.000000;,
  1.000000;0.000000;,
  1.000000;1.000000;,
  0.818460;1.000000;,
  1.000000;0.181770;,
  0.000000;0.181770;,
  0.000000;0.000000;,
  1.000000;0.181770;,
  0.000000;0.181770;,
  1.000000;0.000000;,
  0.116970;0.181770;,
  0.000000;0.181770;,
  0.000000;0.000000;,
  0.116970;0.000000;,
  1.000000;0.181770;,
  0.883030;0.181770;,
  0.883030;0.000000;,
  1.000000;0.000000;,
  1.000000;0.181770;,
  0.818460;0.181770;,
  0.818460;0.000000;,
  1.000000;0.000000;,
  0.000000;0.181770;,
  0.000000;0.000000;,
  0.181540;0.000000;,
  0.181540;0.181770;,
  1.000000;0.576170;,
  0.000000;1.000000;,
  0.000000;0.576170;,
  1.000000;0.576170;,
  1.000000;1.000000;,
  0.000000;0.576170;,
  0.116970;0.576170;,
  0.116970;1.000000;,
  0.000000;1.000000;,
  0.000000;0.576170;,
  1.000000;0.576170;,
  1.000000;1.000000;,
  0.883030;1.000000;,
  0.883030;0.576170;,
  1.000000;0.576170;,
  1.000000;1.000000;,
  0.818460;1.000000;,
  0.818460;0.576170;,
  0.181540;0.576170;,
  0.181540;1.000000;,
  0.000000;1.000000;,
  0.000000;0.576170;,
  0.116970;0.576170;,
  0.818460;0.576170;,
  0.116970;0.181770;,
  0.818460;0.181770;,
  0.116970;0.000000;,
  0.116970;1.000000;,
  0.000000;1.000000;,
  0.000000;0.000000;,
  0.116970;0.000000;,
  0.116970;1.000000;,
  0.000000;1.000000;,
  0.000000;0.000000;,
  0.818460;0.000000;,
  1.000000;0.000000;,
  1.000000;1.000000;,
  0.818460;1.000000;,
  0.818460;0.000000;,
  1.000000;0.000000;,
  1.000000;1.000000;,
  0.818460;1.000000;,
  1.000000;0.181770;,
  0.000000;0.181770;,
  0.000000;0.000000;,
  1.000000;0.181770;,
  0.000000;0.181770;,
  1.000000;0.000000;,
  0.116970;0.181770;,
  0.000000;0.181770;,
  0.000000;0.000000;,
  0.116970;0.000000;,
  1.000000;0.181770;,
  0.883030;0.181770;,
  0.883030;0.000000;,
  1.000000;0.000000;,
  1.000000;0.181770;,
  0.818460;0.181770;,
  0.818460;0.000000;,
  1.000000;0.000000;,
  0.000000;0.181770;,
  0.000000;0.000000;,
  0.181540;0.000000;,
  0.181540;0.181770;,
  1.000000;0.576170;,
  0.000000;1.000000;,
  0.000000;0.576170;,
  1.000000;0.576170;,
  1.000000;1.000000;,
  0.000000;0.576170;,
  0.116970;0.576170;,
  0.116970;1.000000;,
  0.000000;1.000000;,
  0.000000;0.576170;,
  1.000000;0.576170;,
  1.000000;1.000000;,
  0.883030;1.000000;,
  0.883030;0.576170;,
  1.000000;0.576170;,
  1.000000;1.000000;,
  0.818460;1.000000;,
  0.818460;0.576170;,
  0.181540;0.576170;,
  0.181540;1.000000;,
  0.000000;1.000000;,
  0.000000;0.576170;,
  0.116970;0.576170;,
  0.818460;0.576170;,
  0.116970;0.181770;,
  0.818460;0.181770;;
 }
}
