#####################################################
# コリジョンの設定
#####################################################
STE_MODEL
	obj		:	book01.x

	SET_COLLISION
		pos		: 0.000000 0.000000 0.000000
		size	: 1.030000 0.250000 1.430000
		rot		: 0.000000 0.000000 0.000000
	END_COLLISION
END_MODEL

