#####################################################
# コリジョンの設定
#####################################################
STE_MODEL
	obj		:	coin.x

	SET_COLLISION
		pos		: 0.000000 0.000000 0.000000
		size	: 3.800000 3.800000 0.400000
		rot		: 0.000000 0.000000 0.000000
	END_COLLISION
END_MODEL

