#####################################################
# コリジョンの設定
#####################################################
STE_MODEL
	obj		:	door4.x

	SET_COLLISION
		pos		: 0.000000 1.000000 0.000000
		size	: 0.900000 2.000000 0.100000
		rot		: 0.000000 0.000000 0.000000
	END_COLLISION
END_MODEL

