#####################################################
# コリジョン設定
#####################################################
COLLISION_BOX
{
	pos		= 81.000008 16.000000 53.000004
	rot		= 0.000000 0.000000 0.000000
	size	= 270.000000 42.000004 10.000000
}
COLLISION_BOX
{
	pos		= -51.000004 17.000000 106.000008
	rot		= 0.000000 0.000000 0.000000
	size	= 10.000000 41.000004 115.920006
}
COLLISION_BOX
{
	pos		= -74.000000 12.000001 153.000000
	rot		= 0.000000 0.000000 0.000000
	size	= 57.000004 51.000004 10.000000
}
COLLISION_BOX
{
	pos		= -96.000008 16.000000 51.000004
	rot		= 0.000000 0.000000 0.000000
	size	= 10.000000 42.000004 205.000015
}
COLLISION_BOX
{
	pos		= -34.000000 13.000001 -56.000004
	rot		= 0.000000 0.000000 0.000000
	size	= 127.000008 45.000004 10.000000
}
COLLISION_BOX
{
	pos		= 25.000002 16.000000 -83.780006
	rot		= 0.000000 0.000000 0.000000
	size	= 10.000000 38.000000 66.000000
}
COLLISION_BOX
{
	pos		= 56.000004 14.000001 -111.000008
	rot		= 0.000000 0.000000 0.000000
	size	= 67.000000 45.000004 10.000000
}
COLLISION_BOX
{
	pos		= 89.000008 15.000001 -41.000004
	rot		= 0.000000 0.000000 0.000000
	size	= 11.000001 43.000004 131.000000
}
COLLISION_BOX
{
	pos		= 156.000000 16.000000 18.480001
	rot		= 0.000000 0.000000 0.000000
	size	= 139.000000 40.000000 12.000001
}
COLLISION_BOX
{
	pos		= 198.000015 16.000000 -11.000001
	rot		= 0.000000 0.000000 0.000000
	size	= 10.000000 38.000000 55.000004
}
COLLISION_BOX
{
	pos		= 239.000015 13.000001 -37.000000
	rot		= 0.000000 0.000000 0.000000
	size	= 97.000008 46.000004 10.000000
}
COLLISION_BOX
{
	pos		= 277.000000 15.000001 -9.000000
	rot		= 0.000000 0.000000 0.000000
	size	= 10.000000 42.000004 63.000004
}
COLLISION_BOX
{
	pos		= 292.000000 17.000000 19.000000
	rot		= 0.000000 0.000000 0.000000
	size	= 85.000008 34.000000 10.000000
}
COLLISION_BOX
{
	pos		= 332.000031 16.000000 3.000000
	rot		= 0.000000 0.000000 0.000000
	size	= 10.000000 38.000000 42.000004
}
COLLISION_BOX
{
	pos		= 344.000031 13.000001 -19.000000
	rot		= 0.000000 0.000000 0.000000
	size	= 26.000002 42.000004 10.000000
}
COLLISION_BOX
{
	pos		= 356.000031 13.000001 30.000002
	rot		= 0.000000 0.000000 0.000000
	size	= 10.000000 41.000004 96.000008
}
COLLISION_BOX
{
	pos		= 340.000031 14.000001 79.000000
	rot		= 0.000000 0.000000 0.000000
	size	= 30.000002 35.000000 10.000000
}
COLLISION_BOX
{
	pos		= 325.000031 13.000001 63.500004
	rot		= 0.000000 0.000000 0.000000
	size	= 10.000000 48.000004 31.000002
}
COLLISION_BOX
{
	pos		= 285.000000 14.000001 53.000004
	rot		= 0.000000 0.000000 0.000000
	size	= 77.000000 49.000004 10.000000
}
COLLISION_BOX
{
	pos		= 210.970016 14.000001 89.130005
	rot		= 0.000000 0.000000 0.000000
	size	= 10.000000 37.000000 77.000000
}
COLLISION_BOX
{
	pos		= 231.000015 16.000000 128.000000
	rot		= 0.000000 0.000000 0.000000
	size	= 48.000004 37.000000 10.000000
}
COLLISION_BOX
{
	pos		= 251.520020 15.000001 90.000008
	rot		= 0.000000 0.000000 0.000000
	size	= 10.000000 38.000000 75.000000
}
