#####################################################
# コリジョンの設定
#####################################################
STE_MODEL
	obj		:	wall03.x

	SET_COLLISION
		pos		: 0.000000 107.200005 0.000000
		size	: 298.800018 214.300003 14.500001
		rot		: 0.000000 0.000000 0.000000
	END_COLLISION
END_MODEL

