xof 0302txt 0064
template Header {
 <3D82AB43-62DA-11cf-AB39-0020AF71E433>
 WORD major;
 WORD minor;
 DWORD flags;
}

template Vector {
 <3D82AB5E-62DA-11cf-AB39-0020AF71E433>
 FLOAT x;
 FLOAT y;
 FLOAT z;
}

template Coords2d {
 <F6F23F44-7686-11cf-8F52-0040333594A3>
 FLOAT u;
 FLOAT v;
}

template Matrix4x4 {
 <F6F23F45-7686-11cf-8F52-0040333594A3>
 array FLOAT matrix[16];
}

template ColorRGBA {
 <35FF44E0-6C7C-11cf-8F52-0040333594A3>
 FLOAT red;
 FLOAT green;
 FLOAT blue;
 FLOAT alpha;
}

template ColorRGB {
 <D3E16E81-7835-11cf-8F52-0040333594A3>
 FLOAT red;
 FLOAT green;
 FLOAT blue;
}

template IndexedColor {
 <1630B820-7842-11cf-8F52-0040333594A3>
 DWORD index;
 ColorRGBA indexColor;
}

template Boolean {
 <4885AE61-78E8-11cf-8F52-0040333594A3>
 WORD truefalse;
}

template Boolean2d {
 <4885AE63-78E8-11cf-8F52-0040333594A3>
 Boolean u;
 Boolean v;
}

template MaterialWrap {
 <4885AE60-78E8-11cf-8F52-0040333594A3>
 Boolean u;
 Boolean v;
}

template TextureFilename {
 <A42790E1-7810-11cf-8F52-0040333594A3>
 STRING filename;
}

template Material {
 <3D82AB4D-62DA-11cf-AB39-0020AF71E433>
 ColorRGBA faceColor;
 FLOAT power;
 ColorRGB specularColor;
 ColorRGB emissiveColor;
 [...]
}

template MeshFace {
 <3D82AB5F-62DA-11cf-AB39-0020AF71E433>
 DWORD nFaceVertexIndices;
 array DWORD faceVertexIndices[nFaceVertexIndices];
}

template MeshFaceWraps {
 <4885AE62-78E8-11cf-8F52-0040333594A3>
 DWORD nFaceWrapValues;
 Boolean2d faceWrapValues;
}

template MeshTextureCoords {
 <F6F23F40-7686-11cf-8F52-0040333594A3>
 DWORD nTextureCoords;
 array Coords2d textureCoords[nTextureCoords];
}

template MeshMaterialList {
 <F6F23F42-7686-11cf-8F52-0040333594A3>
 DWORD nMaterials;
 DWORD nFaceIndexes;
 array DWORD faceIndexes[nFaceIndexes];
 [Material]
}

template MeshNormals {
 <F6F23F43-7686-11cf-8F52-0040333594A3>
 DWORD nNormals;
 array Vector normals[nNormals];
 DWORD nFaceNormals;
 array MeshFace faceNormals[nFaceNormals];
}

template MeshVertexColors {
 <1630B821-7842-11cf-8F52-0040333594A3>
 DWORD nVertexColors;
 array IndexedColor vertexColors[nVertexColors];
}

template Mesh {
 <3D82AB44-62DA-11cf-AB39-0020AF71E433>
 DWORD nVertices;
 array Vector vertices[nVertices];
 DWORD nFaces;
 array MeshFace faces[nFaces];
 [...]
}

Header{
1;
0;
1;
}

Mesh {
 314;
 -0.30059;1.79066;-0.00102;,
 0.30059;1.79066;-0.00102;,
 0.30059;0.19245;-0.00102;,
 -0.30059;0.19245;-0.00102;,
 0.30059;1.79066;-0.00102;,
 0.30059;1.79066;0.00102;,
 0.30059;0.19245;0.00102;,
 0.30059;0.19245;-0.00102;,
 0.30059;1.79066;0.00102;,
 -0.30059;1.79066;0.00102;,
 -0.30059;0.19245;0.00102;,
 0.30059;0.19245;0.00102;,
 -0.30059;1.79066;0.00102;,
 -0.30059;1.79066;-0.00102;,
 -0.30059;0.19245;-0.00102;,
 -0.30059;0.19245;0.00102;,
 0.30059;1.79066;-0.00102;,
 -0.30059;1.79066;-0.00102;,
 -0.30059;0.19245;-0.00102;,
 0.30059;0.19245;-0.00102;,
 0.39327;0.98765;-0.02115;,
 0.40084;0.98515;-0.02115;,
 0.40098;0.98395;-0.02103;,
 0.39327;0.98695;-0.02103;,
 0.40517;0.97841;-0.02103;,
 0.40575;0.97922;-0.02115;,
 0.40575;0.97631;-0.02115;,
 0.40575;0.92967;-0.02115;,
 0.40517;0.92967;-0.02103;,
 0.40083;0.98311;-0.01582;,
 0.39327;0.98588;-0.01582;,
 0.39327;0.98638;-0.01642;,
 0.40094;0.98343;-0.01642;,
 0.40459;0.92967;-0.01582;,
 0.39327;0.92967;-0.01519;,
 0.40459;0.97800;-0.01582;,
 0.40493;0.97801;-0.01642;,
 0.40493;0.92967;-0.01642;,
 0.39327;0.98638;-0.02063;,
 0.40094;0.98343;-0.02063;,
 0.40493;0.97801;-0.02063;,
 0.40493;0.92967;-0.02063;,
 0.38557;0.98395;-0.02103;,
 0.38571;0.98515;-0.02115;,
 0.38080;0.97922;-0.02115;,
 0.38138;0.97841;-0.02103;,
 0.38080;0.97631;-0.02115;,
 0.38138;0.92967;-0.02103;,
 0.38080;0.92967;-0.02115;,
 0.38561;0.98343;-0.01642;,
 0.38571;0.98311;-0.01582;,
 0.38196;0.92967;-0.01582;,
 0.38162;0.97801;-0.01642;,
 0.38196;0.97800;-0.01582;,
 0.38162;0.92967;-0.01642;,
 0.38561;0.98343;-0.02063;,
 0.38162;0.97801;-0.02063;,
 0.38162;0.92967;-0.02063;,
 0.39327;0.87239;-0.02103;,
 0.40098;0.87539;-0.02103;,
 0.40084;0.87419;-0.02115;,
 0.39327;0.87169;-0.02115;,
 0.40575;0.88011;-0.02115;,
 0.40517;0.88093;-0.02103;,
 0.40575;0.88303;-0.02115;,
 0.40094;0.87590;-0.01642;,
 0.39327;0.87296;-0.01642;,
 0.39327;0.87345;-0.01582;,
 0.40083;0.87622;-0.01582;,
 0.40493;0.88133;-0.01642;,
 0.40459;0.88134;-0.01582;,
 0.40094;0.87590;-0.02063;,
 0.39327;0.87296;-0.02063;,
 0.40493;0.88133;-0.02063;,
 0.38571;0.87419;-0.02115;,
 0.38557;0.87539;-0.02103;,
 0.38138;0.88093;-0.02103;,
 0.38080;0.88011;-0.02115;,
 0.38080;0.88303;-0.02115;,
 0.38571;0.87622;-0.01582;,
 0.38561;0.87590;-0.01642;,
 0.38196;0.88134;-0.01582;,
 0.38162;0.88133;-0.01642;,
 0.38561;0.87590;-0.02063;,
 0.38162;0.88133;-0.02063;,
 0.39327;0.98695;0.02103;,
 0.40098;0.98395;0.02103;,
 0.40084;0.98515;0.02115;,
 0.39327;0.98765;0.02115;,
 0.40575;0.97922;0.02115;,
 0.40517;0.97841;0.02103;,
 0.40575;0.97631;0.02115;,
 0.40517;0.92967;0.02103;,
 0.40575;0.92967;0.02115;,
 0.40094;0.98343;0.01642;,
 0.39327;0.98638;0.01642;,
 0.39327;0.98588;0.01582;,
 0.40083;0.98311;0.01582;,
 0.40459;0.92967;0.01582;,
 0.39327;0.92967;0.01519;,
 0.40493;0.97801;0.01642;,
 0.40459;0.97800;0.01582;,
 0.40493;0.92967;0.01642;,
 0.40094;0.98343;0.02063;,
 0.39327;0.98638;0.02063;,
 0.40493;0.97801;0.02063;,
 0.40493;0.92967;0.02063;,
 0.38571;0.98515;0.02115;,
 0.38557;0.98395;0.02103;,
 0.38138;0.97841;0.02103;,
 0.38080;0.97922;0.02115;,
 0.38080;0.97631;0.02115;,
 0.38080;0.92967;0.02115;,
 0.38138;0.92967;0.02103;,
 0.38571;0.98311;0.01582;,
 0.38561;0.98343;0.01642;,
 0.38196;0.92967;0.01582;,
 0.38196;0.97800;0.01582;,
 0.38162;0.97801;0.01642;,
 0.38162;0.92967;0.01642;,
 0.38561;0.98343;0.02063;,
 0.38162;0.97801;0.02063;,
 0.38162;0.92967;0.02063;,
 0.39327;0.87169;0.02115;,
 0.40084;0.87419;0.02115;,
 0.40098;0.87539;0.02103;,
 0.39327;0.87239;0.02103;,
 0.40517;0.88093;0.02103;,
 0.40575;0.88011;0.02115;,
 0.40575;0.88303;0.02115;,
 0.40083;0.87622;0.01582;,
 0.39327;0.87345;0.01582;,
 0.39327;0.87296;0.01642;,
 0.40094;0.87590;0.01642;,
 0.40459;0.88134;0.01582;,
 0.40493;0.88133;0.01642;,
 0.39327;0.87296;0.02063;,
 0.40094;0.87590;0.02063;,
 0.40493;0.88133;0.02063;,
 0.38557;0.87539;0.02103;,
 0.38571;0.87419;0.02115;,
 0.38080;0.88011;0.02115;,
 0.38138;0.88093;0.02103;,
 0.38080;0.88303;0.02115;,
 0.38561;0.87590;0.01642;,
 0.38571;0.87622;0.01582;,
 0.38162;0.88133;0.01642;,
 0.38196;0.88134;0.01582;,
 0.38561;0.87590;0.02063;,
 0.38162;0.88133;0.02063;,
 0.44500;0.18023;-0.02000;,
 0.40577;0.88098;-0.02000;,
 0.40577;0.97786;-0.02000;,
 0.44500;1.80348;-0.02000;,
 0.32296;0.18023;-0.02000;,
 0.32296;1.80348;-0.02000;,
 0.38094;0.97786;-0.02000;,
 0.38094;0.88098;-0.02000;,
 0.44500;0.18023;0.02000;,
 0.44500;1.80348;0.02000;,
 0.40577;0.97786;0.02000;,
 0.40577;0.88098;0.02000;,
 0.32296;0.18023;0.02000;,
 0.38094;0.88098;0.02000;,
 0.38094;0.97786;0.02000;,
 0.32296;1.80348;0.02000;,
 0.40577;0.88098;0.02000;,
 0.40577;0.97786;0.02000;,
 0.40577;0.97786;-0.02000;,
 0.40577;0.88098;-0.02000;,
 0.38094;0.97786;-0.02000;,
 0.38094;0.97786;0.02000;,
 0.38094;0.88098;0.02000;,
 0.38094;0.88098;-0.02000;,
 -0.44500;1.80348;-0.02000;,
 -0.32296;1.80348;-0.02000;,
 -0.32296;0.18023;-0.02000;,
 -0.44500;0.18023;-0.02000;,
 -0.32296;0.00000;-0.02000;,
 -0.44500;0.00000;-0.02000;,
 0.32296;0.00000;-0.02000;,
 0.44500;0.00000;-0.02000;,
 0.31973;1.80018;-0.03000;,
 -0.31973;1.80018;-0.03000;,
 -0.32296;1.80348;-0.02000;,
 0.32296;1.80348;-0.02000;,
 0.31973;0.18353;-0.03000;,
 0.32296;0.18023;-0.02000;,
 -0.31973;0.18353;-0.03000;,
 -0.32296;0.18023;-0.02000;,
 0.31032;1.79057;-0.02500;,
 -0.31032;1.79057;-0.02500;,
 -0.31032;1.79057;-0.03000;,
 0.31032;1.79057;-0.03000;,
 0.31032;0.19314;-0.02500;,
 0.31032;0.19314;-0.03000;,
 -0.31032;0.19314;-0.02500;,
 -0.31032;0.19314;-0.03000;,
 0.29791;1.77789;-0.02500;,
 -0.29791;1.77789;-0.02500;,
 0.29791;0.20582;-0.02500;,
 -0.29791;0.20582;-0.02500;,
 0.29791;1.77789;-0.02000;,
 -0.29791;1.77789;-0.02000;,
 0.29791;0.20582;-0.02000;,
 -0.29791;0.20582;-0.02000;,
 -0.31664;1.79703;-0.03108;,
 0.31664;1.79703;-0.03108;,
 0.31664;0.18668;-0.03108;,
 -0.31664;0.18668;-0.03108;,
 -0.44500;0.18023;0.02000;,
 -0.32296;0.18023;0.02000;,
 -0.32296;1.80348;0.02000;,
 -0.44500;1.80348;0.02000;,
 -0.44500;0.00000;0.02000;,
 -0.32296;0.00000;0.02000;,
 0.32296;0.00000;0.02000;,
 0.44500;0.00000;0.02000;,
 0.32296;1.80348;0.02000;,
 -0.32296;1.80348;0.02000;,
 -0.31973;1.80018;0.03000;,
 0.31973;1.80018;0.03000;,
 0.32296;0.18023;0.02000;,
 0.31973;0.18353;0.03000;,
 -0.32296;0.18023;0.02000;,
 -0.31973;0.18353;0.03000;,
 0.31032;1.79057;0.03000;,
 -0.31032;1.79057;0.03000;,
 -0.31032;1.79057;0.02500;,
 0.31032;1.79057;0.02500;,
 0.31032;0.19314;0.03000;,
 0.31032;0.19314;0.02500;,
 -0.31032;0.19314;0.03000;,
 -0.31032;0.19314;0.02500;,
 -0.29791;1.77789;0.02500;,
 0.29791;1.77789;0.02500;,
 0.29791;0.20582;0.02500;,
 -0.29791;0.20582;0.02500;,
 -0.29791;1.77789;0.02000;,
 0.29791;1.77789;0.02000;,
 0.29791;0.20582;0.02000;,
 -0.29791;0.20582;0.02000;,
 0.31664;1.79703;0.03108;,
 -0.31664;1.79703;0.03108;,
 0.31664;0.18668;0.03108;,
 -0.31664;0.18668;0.03108;,
 -0.44500;0.18023;-0.02000;,
 -0.44500;0.18023;0.02000;,
 -0.44500;1.80348;0.02000;,
 -0.44500;1.80348;-0.02000;,
 0.44500;1.80348;-0.02000;,
 0.44500;1.80348;0.02000;,
 0.44500;0.18023;0.02000;,
 0.44500;0.18023;-0.02000;,
 -0.32296;0.00000;-0.02000;,
 -0.32296;0.00000;0.02000;,
 -0.44500;0.00000;0.02000;,
 -0.44500;0.00000;-0.02000;,
 0.32296;0.00000;-0.02000;,
 0.32296;0.00000;0.02000;,
 0.44500;0.18023;-0.02000;,
 0.44500;0.18023;0.02000;,
 0.44500;0.00000;0.02000;,
 0.44500;0.00000;-0.02000;,
 -0.44500;1.98000;-0.02000;,
 -0.44500;1.98000;0.02000;,
 -0.32296;1.98000;0.02000;,
 -0.32296;1.98000;-0.02000;,
 0.32296;1.98000;-0.02000;,
 0.32296;1.98000;0.02000;,
 0.44500;1.98000;0.02000;,
 0.44500;1.98000;-0.02000;,
 0.44500;1.80348;0.02000;,
 0.44500;1.80348;-0.02000;,
 -0.32296;1.98000;-0.02000;,
 -0.44500;1.98000;-0.02000;,
 0.32296;1.98000;-0.02000;,
 0.44500;1.98000;-0.02000;,
 0.32296;1.98000;0.02000;,
 0.44500;1.98000;0.02000;,
 -0.32296;1.98000;0.02000;,
 -0.44500;1.98000;0.02000;,
 -0.29791;1.77789;-0.02000;,
 0.29791;1.77789;-0.02000;,
 0.29791;1.77789;0.02000;,
 -0.29791;1.77789;0.02000;,
 0.29791;0.20582;-0.02000;,
 0.29791;0.20582;0.02000;,
 -0.29791;0.20582;-0.02000;,
 -0.29791;0.20582;0.02000;,
 0.38593;0.98457;-0.02000;,
 0.40078;0.98457;-0.02000;,
 0.39335;0.98681;-0.02000;,
 0.40078;0.87427;-0.02000;,
 0.38593;0.87427;-0.02000;,
 0.39335;0.87203;-0.02000;,
 0.40078;0.98457;0.02000;,
 0.38593;0.98457;0.02000;,
 0.39335;0.98681;0.02000;,
 0.38593;0.87427;0.02000;,
 0.40078;0.87427;0.02000;,
 0.39335;0.87203;0.02000;,
 0.40078;0.98457;0.02000;,
 0.40078;0.98457;-0.02000;,
 0.39335;0.98681;0.02000;,
 0.39335;0.98681;-0.02000;,
 0.38593;0.98457;0.02000;,
 0.38593;0.98457;-0.02000;,
 0.38593;0.87427;0.02000;,
 0.38593;0.87427;-0.02000;,
 0.39335;0.87203;0.02000;,
 0.39335;0.87203;-0.02000;,
 0.40078;0.87427;0.02000;,
 0.40078;0.87427;-0.02000;;
 
 242;
 4;0,1,2,3;,
 4;4,5,6,7;,
 4;8,9,10,11;,
 4;12,13,14,15;,
 4;12,5,16,17;,
 4;18,19,6,15;,
 4;20,21,22,23;,
 4;24,22,21,25;,
 3;26,24,25;,
 4;24,26,27,28;,
 4;29,30,31,32;,
 3;33,30,29;,
 3;33,34,30;,
 4;35,29,32,36;,
 4;33,35,36,37;,
 3;29,35,33;,
 4;31,38,39,32;,
 4;38,23,22,39;,
 4;32,39,40,36;,
 4;39,22,24,40;,
 4;36,40,41,37;,
 4;40,24,28,41;,
 4;23,42,43,20;,
 4;44,43,42,45;,
 3;44,45,46;,
 4;47,48,46,45;,
 4;49,31,30,50;,
 3;50,30,51;,
 3;30,34,51;,
 4;52,49,50,53;,
 4;54,52,53,51;,
 3;51,53,50;,
 4;49,55,38,31;,
 4;55,42,23,38;,
 4;52,56,55,49;,
 4;56,45,42,55;,
 4;54,57,56,52;,
 4;57,47,45,56;,
 4;58,59,60,61;,
 4;62,60,59,63;,
 3;62,63,64;,
 4;28,27,64,63;,
 4;65,66,67,68;,
 3;68,67,33;,
 3;67,34,33;,
 4;69,65,68,70;,
 4;37,69,70,33;,
 3;33,70,68;,
 4;65,71,72,66;,
 4;71,59,58,72;,
 4;69,73,71,65;,
 4;73,63,59,71;,
 4;37,41,73,69;,
 4;41,28,63,73;,
 4;61,74,75,58;,
 4;76,75,74,77;,
 3;78,76,77;,
 4;76,78,48,47;,
 4;79,67,66,80;,
 3;51,67,79;,
 3;51,34,67;,
 4;81,79,80,82;,
 4;51,81,82,54;,
 3;79,81,51;,
 4;66,72,83,80;,
 4;72,58,75,83;,
 4;80,83,84,82;,
 4;83,75,76,84;,
 4;82,84,57,54;,
 4;84,76,47,57;,
 4;85,86,87,88;,
 4;89,87,86,90;,
 3;89,90,91;,
 4;92,93,91,90;,
 4;94,95,96,97;,
 3;97,96,98;,
 3;96,99,98;,
 4;100,94,97,101;,
 4;102,100,101,98;,
 3;98,101,97;,
 4;94,103,104,95;,
 4;103,86,85,104;,
 4;100,105,103,94;,
 4;105,90,86,103;,
 4;102,106,105,100;,
 4;106,92,90,105;,
 4;88,107,108,85;,
 4;109,108,107,110;,
 3;111,109,110;,
 4;109,111,112,113;,
 4;114,96,95,115;,
 3;116,96,114;,
 3;116,99,96;,
 4;117,114,115,118;,
 4;116,117,118,119;,
 3;114,117,116;,
 4;95,104,120,115;,
 4;104,85,108,120;,
 4;115,120,121,118;,
 4;120,108,109,121;,
 4;118,121,122,119;,
 4;121,109,113,122;,
 4;123,124,125,126;,
 4;127,125,124,128;,
 3;129,127,128;,
 4;127,129,93,92;,
 4;130,131,132,133;,
 3;98,131,130;,
 3;98,99,131;,
 4;134,130,133,135;,
 4;98,134,135,102;,
 3;130,134,98;,
 4;132,136,137,133;,
 4;136,126,125,137;,
 4;133,137,138,135;,
 4;137,125,127,138;,
 4;135,138,106,102;,
 4;138,127,92,106;,
 4;126,139,140,123;,
 4;141,140,139,142;,
 3;141,142,143;,
 4;113,112,143,142;,
 4;144,132,131,145;,
 3;145,131,116;,
 3;131,99,116;,
 4;146,144,145,147;,
 4;119,146,147,116;,
 3;116,147,145;,
 4;144,148,136,132;,
 4;148,139,126,136;,
 4;146,149,148,144;,
 4;149,142,139,148;,
 4;119,122,149,146;,
 4;122,113,142,149;,
 4;150,151,152,153;,
 4;154,155,156,157;,
 4;158,159,160,161;,
 4;162,163,164,165;,
 4;166,167,168,169;,
 4;170,171,172,173;,
 4;174,175,176,177;,
 4;177,176,178,179;,
 4;176,154,180,178;,
 4;154,150,181,180;,
 4;182,183,184,185;,
 4;186,182,185,187;,
 4;188,186,187,189;,
 4;183,188,189,184;,
 4;190,191,192,193;,
 4;194,190,193,195;,
 4;196,194,195,197;,
 4;191,196,197,192;,
 4;198,199,191,190;,
 4;200,198,190,194;,
 4;201,200,194,196;,
 4;199,201,196,191;,
 4;202,203,199,198;,
 4;204,202,198,200;,
 4;205,204,200,201;,
 4;203,205,201,199;,
 4;192,206,207,193;,
 4;206,183,182,207;,
 4;193,207,208,195;,
 4;207,182,186,208;,
 4;195,208,209,197;,
 4;208,186,188,209;,
 4;197,209,206,192;,
 4;209,188,183,206;,
 4;210,211,212,213;,
 4;214,215,211,210;,
 4;215,216,162,211;,
 4;216,217,158,162;,
 4;218,219,220,221;,
 4;222,218,221,223;,
 4;224,222,223,225;,
 4;219,224,225,220;,
 4;226,227,228,229;,
 4;230,226,229,231;,
 4;232,230,231,233;,
 4;227,232,233,228;,
 4;229,228,234,235;,
 4;231,229,235,236;,
 4;233,231,236,237;,
 4;228,233,237,234;,
 4;235,234,238,239;,
 4;236,235,239,240;,
 4;237,236,240,241;,
 4;234,237,241,238;,
 4;226,242,243,227;,
 4;242,221,220,243;,
 4;230,244,242,226;,
 4;244,223,221,242;,
 4;232,245,244,230;,
 4;245,225,223,244;,
 4;227,243,245,232;,
 4;243,220,225,245;,
 4;246,247,248,249;,
 4;250,251,252,253;,
 4;254,255,256,257;,
 4;257,256,247,246;,
 4;258,259,255,254;,
 4;260,261,262,263;,
 4;263,262,259,258;,
 4;264,265,266,267;,
 4;249,248,265,264;,
 4;268,269,270,271;,
 4;271,270,272,273;,
 4;267,266,269,268;,
 4;274,175,174,275;,
 4;153,155,276,277;,
 4;278,165,159,279;,
 4;280,281,213,212;,
 4;165,278,280,212;,
 4;175,274,276,155;,
 4;282,283,284,285;,
 4;283,286,287,284;,
 4;286,288,289,287;,
 4;288,282,285,289;,
 4;290,156,155,153;,
 3;152,291,153;,
 3;291,292,153;,
 3;292,290,153;,
 4;293,151,150,154;,
 3;157,294,154;,
 3;294,295,154;,
 3;295,293,154;,
 4;296,160,159,165;,
 3;164,297,165;,
 3;297,298,165;,
 3;298,296,165;,
 4;299,163,162,158;,
 3;161,300,158;,
 3;300,301,158;,
 3;301,299,158;,
 4;167,302,303,168;,
 4;302,304,305,303;,
 4;304,306,307,305;,
 4;306,171,170,307;,
 4;172,308,309,173;,
 4;308,310,311,309;,
 4;310,312,313,311;,
 4;312,166,169,313;;
 
 MeshMaterialList {
  3;
  242;
  1,
  1,
  1,
  1,
  1,
  1,
  2,
  2,
  2,
  2,
  2,
  2,
  2,
  2,
  2,
  2,
  2,
  2,
  2,
  2,
  2,
  2,
  2,
  2,
  2,
  2,
  2,
  2,
  2,
  2,
  2,
  2,
  2,
  2,
  2,
  2,
  2,
  2,
  2,
  2,
  2,
  2,
  2,
  2,
  2,
  2,
  2,
  2,
  2,
  2,
  2,
  2,
  2,
  2,
  2,
  2,
  2,
  2,
  2,
  2,
  2,
  2,
  2,
  2,
  2,
  2,
  2,
  2,
  2,
  2,
  2,
  2,
  2,
  2,
  2,
  2,
  2,
  2,
  2,
  2,
  2,
  2,
  2,
  2,
  2,
  2,
  2,
  2,
  2,
  2,
  2,
  2,
  2,
  2,
  2,
  2,
  2,
  2,
  2,
  2,
  2,
  2,
  2,
  2,
  2,
  2,
  2,
  2,
  2,
  2,
  2,
  2,
  2,
  2,
  2,
  2,
  2,
  2,
  2,
  2,
  2,
  2,
  2,
  2,
  2,
  2,
  2,
  2,
  2,
  2,
  2,
  2,
  2,
  2,
  0,
  0,
  0,
  0,
  0,
  0,
  0,
  0,
  0,
  0,
  0,
  0,
  0,
  0,
  0,
  0,
  0,
  0,
  0,
  0,
  0,
  0,
  0,
  0,
  0,
  0,
  0,
  0,
  0,
  0,
  0,
  0,
  0,
  0,
  0,
  0,
  0,
  0,
  0,
  0,
  0,
  0,
  0,
  0,
  0,
  0,
  0,
  0,
  0,
  0,
  0,
  0,
  0,
  0,
  0,
  0,
  0,
  0,
  0,
  0,
  0,
  0,
  0,
  0,
  0,
  0,
  0,
  0,
  0,
  0,
  0,
  0,
  0,
  0,
  0,
  0,
  0,
  0,
  0,
  0,
  0,
  0,
  0,
  0,
  0,
  0,
  0,
  0,
  0,
  0,
  0,
  0,
  0,
  0,
  0,
  0,
  0,
  0,
  0,
  0,
  0,
  0,
  0,
  0,
  0,
  0,
  0,
  0;;
  Material {
   0.800000;0.633600;0.135200;1.000000;;
   5.000000;
   0.000000;0.000000;0.000000;;
   0.000000;0.000000;0.000000;;
   TextureFilename {
    "data/texture/wood2.png";
   }
  }
  Material {
   0.800000;0.800000;0.800000;0.800000;;
   5.000000;
   0.000000;0.000000;0.000000;;
   0.000000;0.000000;0.000000;;
  }
  Material {
   0.489600;0.489600;0.489600;1.000000;;
   2.000000;
   0.200000;0.200000;0.200000;;
   0.000000;0.000000;0.000000;;
  }
 }
 MeshTextureCoords {
  314;
  0.000000;0.000000;,
  1.000000;0.000000;,
  1.000000;1.000000;,
  0.000000;1.000000;,
  0.000000;0.000000;,
  1.000000;0.000000;,
  1.000000;1.000000;,
  0.000000;1.000000;,
  0.000000;0.000000;,
  1.000000;0.000000;,
  1.000000;1.000000;,
  0.000000;1.000000;,
  0.000000;0.000000;,
  1.000000;0.000000;,
  1.000000;1.000000;,
  0.000000;1.000000;,
  1.000000;1.000000;,
  0.000000;1.000000;,
  0.000000;0.000000;,
  1.000000;0.000000;,
  0.500000;0.000000;,
  0.666670;0.000000;,
  0.666670;0.333330;,
  0.500000;0.333330;,
  0.833330;0.333330;,
  1.000000;0.000000;,
  1.000000;0.333330;,
  1.000000;0.500000;,
  0.666670;0.500000;,
  0.666670;0.333330;,
  0.500000;0.333330;,
  0.500000;0.333330;,
  0.666670;0.333330;,
  0.666670;0.500000;,
  0.500000;0.500000;,
  0.833330;0.333330;,
  0.833330;0.333330;,
  0.666670;0.500000;,
  0.500000;0.333330;,
  0.666670;0.333330;,
  0.833330;0.333330;,
  0.666670;0.500000;,
  0.666670;0.333330;,
  0.666670;0.000000;,
  1.000000;0.000000;,
  0.833330;0.333330;,
  1.000000;0.333330;,
  0.666670;0.500000;,
  1.000000;0.500000;,
  0.666670;0.333330;,
  0.666670;0.333330;,
  0.666670;0.500000;,
  0.833330;0.333330;,
  0.833330;0.333330;,
  0.666670;0.500000;,
  0.666670;0.333330;,
  0.833330;0.333330;,
  0.666670;0.500000;,
  0.500000;0.333330;,
  0.666670;0.333330;,
  0.666670;0.000000;,
  0.500000;0.000000;,
  1.000000;0.000000;,
  0.833330;0.333330;,
  1.000000;0.333330;,
  0.666670;0.333330;,
  0.500000;0.333330;,
  0.500000;0.333330;,
  0.666670;0.333330;,
  0.833330;0.333330;,
  0.833330;0.333330;,
  0.666670;0.333330;,
  0.500000;0.333330;,
  0.833330;0.333330;,
  0.666670;0.000000;,
  0.666670;0.333330;,
  0.833330;0.333330;,
  1.000000;0.000000;,
  1.000000;0.333330;,
  0.666670;0.333330;,
  0.666670;0.333330;,
  0.833330;0.333330;,
  0.833330;0.333330;,
  0.666670;0.333330;,
  0.833330;0.333330;,
  0.500000;0.333330;,
  0.666670;0.333330;,
  0.666670;0.000000;,
  0.500000;0.000000;,
  1.000000;0.000000;,
  0.833330;0.333330;,
  1.000000;0.333330;,
  0.666670;0.500000;,
  1.000000;0.500000;,
  0.666670;0.333330;,
  0.500000;0.333330;,
  0.500000;0.333330;,
  0.666670;0.333330;,
  0.666670;0.500000;,
  0.500000;0.500000;,
  0.833330;0.333330;,
  0.833330;0.333330;,
  0.666670;0.500000;,
  0.666670;0.333330;,
  0.500000;0.333330;,
  0.833330;0.333330;,
  0.666670;0.500000;,
  0.666670;0.000000;,
  0.666670;0.333330;,
  0.833330;0.333330;,
  1.000000;0.000000;,
  1.000000;0.333330;,
  1.000000;0.500000;,
  0.666670;0.500000;,
  0.666670;0.333330;,
  0.666670;0.333330;,
  0.666670;0.500000;,
  0.833330;0.333330;,
  0.833330;0.333330;,
  0.666670;0.500000;,
  0.666670;0.333330;,
  0.833330;0.333330;,
  0.666670;0.500000;,
  0.500000;0.000000;,
  0.666670;0.000000;,
  0.666670;0.333330;,
  0.500000;0.333330;,
  0.833330;0.333330;,
  1.000000;0.000000;,
  1.000000;0.333330;,
  0.666670;0.333330;,
  0.500000;0.333330;,
  0.500000;0.333330;,
  0.666670;0.333330;,
  0.833330;0.333330;,
  0.833330;0.333330;,
  0.500000;0.333330;,
  0.666670;0.333330;,
  0.833330;0.333330;,
  0.666670;0.333330;,
  0.666670;0.000000;,
  1.000000;0.000000;,
  0.833330;0.333330;,
  1.000000;0.333330;,
  0.666670;0.333330;,
  0.666670;0.333330;,
  0.833330;0.333330;,
  0.833330;0.333330;,
  0.666670;0.333330;,
  0.833330;0.333330;,
  -0.117870;2.153080;,
  -0.037620;0.733250;,
  -0.037620;0.507620;,
  -0.117870;-1.167650;,
  0.131790;2.153080;,
  0.131790;-1.167650;,
  0.013170;0.507620;,
  0.013170;0.733250;,
  -0.117870;2.153080;,
  -0.117870;-1.167650;,
  -0.037620;0.507620;,
  -0.037620;0.733250;,
  0.131790;2.153080;,
  0.013170;0.733250;,
  0.013170;0.507620;,
  0.131790;-1.167650;,
  0.821810;0.528890;,
  0.821810;0.440760;,
  0.821810;0.440760;,
  0.821810;0.528890;,
  0.801970;0.440760;,
  0.801970;0.440760;,
  0.801970;0.528890;,
  0.801970;0.528890;,
  1.702820;-1.167650;,
  1.453150;-1.167650;,
  1.453150;2.153080;,
  1.702820;2.153080;,
  1.453150;2.521770;,
  1.702820;2.521770;,
  0.131790;2.521770;,
  -0.117870;2.521770;,
  0.977960;-0.532100;,
  0.160370;-0.532100;,
  0.156240;-0.536320;,
  0.982090;-0.536320;,
  0.977960;1.534910;,
  0.982090;1.539130;,
  0.160370;1.534910;,
  0.156240;1.539130;,
  0.965940;-0.519820;,
  0.172390;-0.519820;,
  0.172390;-0.519820;,
  0.965940;-0.519820;,
  0.965940;1.522630;,
  0.965940;1.522630;,
  0.172390;1.522630;,
  0.172390;1.522630;,
  0.950070;-0.503600;,
  0.188270;-0.503600;,
  0.950070;1.506410;,
  0.188270;1.506410;,
  0.950070;-0.503600;,
  0.188270;-0.503600;,
  0.950070;1.506410;,
  0.188270;1.506410;,
  0.164320;-0.528070;,
  0.974020;-0.528070;,
  0.974020;1.530880;,
  0.164320;1.530880;,
  1.702820;2.153080;,
  1.453150;2.153080;,
  1.453150;-1.167650;,
  1.702820;-1.167650;,
  1.702820;2.521770;,
  1.453150;2.521770;,
  0.131790;2.521770;,
  -0.117870;2.521770;,
  0.982090;-0.536320;,
  0.156240;-0.536320;,
  0.160370;-0.532100;,
  0.977960;-0.532100;,
  0.982090;1.539130;,
  0.977960;1.534910;,
  0.156240;1.539130;,
  0.160370;1.534910;,
  0.965940;-0.519820;,
  0.172390;-0.519820;,
  0.172390;-0.519820;,
  0.965940;-0.519820;,
  0.965940;1.522630;,
  0.965940;1.522630;,
  0.172390;1.522630;,
  0.172390;1.522630;,
  0.188270;-0.503600;,
  0.950070;-0.503600;,
  0.950070;1.506410;,
  0.188270;1.506410;,
  0.188270;-0.503600;,
  0.950070;-0.503600;,
  0.950070;1.506410;,
  0.188270;1.506410;,
  0.974020;-0.528070;,
  0.164320;-0.528070;,
  0.974020;1.530880;,
  0.164320;1.530880;,
  0.000200;1.539130;,
  0.000200;1.539130;,
  0.000200;-0.536320;,
  0.000200;-0.536320;,
  0.853160;-0.213650;,
  0.853160;-0.213650;,
  0.853160;1.083510;,
  0.853160;1.083510;,
  0.156240;1.769570;,
  0.156240;1.769570;,
  0.000200;1.769570;,
  0.000200;1.769570;,
  0.982090;1.769570;,
  0.982090;1.769570;,
  1.138130;1.539130;,
  1.138130;1.539130;,
  1.138130;1.769570;,
  1.138130;1.769570;,
  0.000200;-0.762010;,
  0.000200;-0.762010;,
  0.156240;-0.762010;,
  0.156240;-0.762010;,
  0.982090;-0.762010;,
  0.982090;-0.762010;,
  1.138130;-0.762010;,
  1.138130;-0.762010;,
  1.138130;-0.536320;,
  1.138130;-0.536320;,
  1.453150;-1.528760;,
  1.702820;-1.528760;,
  0.131790;-1.528760;,
  -0.117870;-1.528760;,
  0.131790;-1.528760;,
  -0.117870;-1.528760;,
  1.453150;-1.528760;,
  1.702820;-1.528760;,
  0.276470;0.061490;,
  0.752590;0.061490;,
  0.752590;0.061490;,
  0.276470;0.061490;,
  0.752590;1.317750;,
  0.752590;1.317750;,
  0.276470;1.317750;,
  0.276470;1.317750;,
  0.000470;0.507620;,
  -0.024920;0.507620;,
  -0.012220;0.507620;,
  -0.024920;0.733250;,
  0.000470;0.733250;,
  -0.012220;0.733250;,
  -0.024920;0.507620;,
  0.000470;0.507620;,
  -0.012220;0.507620;,
  0.000470;0.733250;,
  -0.024920;0.733250;,
  -0.012220;0.733250;,
  0.816850;0.440760;,
  0.816850;0.440760;,
  0.811890;0.440760;,
  0.811890;0.440760;,
  0.806930;0.440760;,
  0.806930;0.440760;,
  0.806930;0.528890;,
  0.806930;0.528890;,
  0.811890;0.528890;,
  0.811890;0.528890;,
  0.816850;0.528890;,
  0.816850;0.528890;;
 }
}
