xof 0302txt 0064
template Header {
 <3D82AB43-62DA-11cf-AB39-0020AF71E433>
 WORD major;
 WORD minor;
 DWORD flags;
}

template Vector {
 <3D82AB5E-62DA-11cf-AB39-0020AF71E433>
 FLOAT x;
 FLOAT y;
 FLOAT z;
}

template Coords2d {
 <F6F23F44-7686-11cf-8F52-0040333594A3>
 FLOAT u;
 FLOAT v;
}

template Matrix4x4 {
 <F6F23F45-7686-11cf-8F52-0040333594A3>
 array FLOAT matrix[16];
}

template ColorRGBA {
 <35FF44E0-6C7C-11cf-8F52-0040333594A3>
 FLOAT red;
 FLOAT green;
 FLOAT blue;
 FLOAT alpha;
}

template ColorRGB {
 <D3E16E81-7835-11cf-8F52-0040333594A3>
 FLOAT red;
 FLOAT green;
 FLOAT blue;
}

template IndexedColor {
 <1630B820-7842-11cf-8F52-0040333594A3>
 DWORD index;
 ColorRGBA indexColor;
}

template Boolean {
 <4885AE61-78E8-11cf-8F52-0040333594A3>
 WORD truefalse;
}

template Boolean2d {
 <4885AE63-78E8-11cf-8F52-0040333594A3>
 Boolean u;
 Boolean v;
}

template MaterialWrap {
 <4885AE60-78E8-11cf-8F52-0040333594A3>
 Boolean u;
 Boolean v;
}

template TextureFilename {
 <A42790E1-7810-11cf-8F52-0040333594A3>
 STRING filename;
}

template Material {
 <3D82AB4D-62DA-11cf-AB39-0020AF71E433>
 ColorRGBA faceColor;
 FLOAT power;
 ColorRGB specularColor;
 ColorRGB emissiveColor;
 [...]
}

template MeshFace {
 <3D82AB5F-62DA-11cf-AB39-0020AF71E433>
 DWORD nFaceVertexIndices;
 array DWORD faceVertexIndices[nFaceVertexIndices];
}

template MeshFaceWraps {
 <4885AE62-78E8-11cf-8F52-0040333594A3>
 DWORD nFaceWrapValues;
 Boolean2d faceWrapValues;
}

template MeshTextureCoords {
 <F6F23F40-7686-11cf-8F52-0040333594A3>
 DWORD nTextureCoords;
 array Coords2d textureCoords[nTextureCoords];
}

template MeshMaterialList {
 <F6F23F42-7686-11cf-8F52-0040333594A3>
 DWORD nMaterials;
 DWORD nFaceIndexes;
 array DWORD faceIndexes[nFaceIndexes];
 [Material]
}

template MeshNormals {
 <F6F23F43-7686-11cf-8F52-0040333594A3>
 DWORD nNormals;
 array Vector normals[nNormals];
 DWORD nFaceNormals;
 array MeshFace faceNormals[nFaceNormals];
}

template MeshVertexColors {
 <1630B821-7842-11cf-8F52-0040333594A3>
 DWORD nVertexColors;
 array IndexedColor vertexColors[nVertexColors];
}

template Mesh {
 <3D82AB44-62DA-11cf-AB39-0020AF71E433>
 DWORD nVertices;
 array Vector vertices[nVertices];
 DWORD nFaces;
 array MeshFace faces[nFaces];
 [...]
}

Header{
1;
0;
1;
}

Mesh {
 890;
 -0.44500;0.84023;-0.02000;,
 -0.32296;0.84023;-0.02000;,
 -0.32296;0.18023;-0.02000;,
 -0.44500;0.18023;-0.02000;,
 0.32296;0.84023;-0.02000;,
 0.44500;0.84023;-0.02000;,
 0.44500;0.18023;-0.02000;,
 0.32296;0.18023;-0.02000;,
 -0.32296;0.00000;-0.02000;,
 -0.44500;0.00000;-0.02000;,
 0.32296;0.00000;-0.02000;,
 0.44500;0.00000;-0.02000;,
 -0.32296;1.98000;-0.02000;,
 -0.32296;1.76702;-0.02000;,
 -0.44500;1.76702;-0.02000;,
 -0.44500;1.98000;-0.02000;,
 -0.32296;1.00620;-0.02000;,
 -0.44500;1.00620;-0.02000;,
 0.44500;1.98000;-0.02000;,
 0.44500;1.76702;-0.02000;,
 0.32296;1.76702;-0.02000;,
 0.32296;1.98000;-0.02000;,
 0.44500;1.00620;-0.02000;,
 0.32296;1.00620;-0.02000;,
 0.31973;0.83693;-0.03000;,
 -0.31973;0.83693;-0.03000;,
 0.31973;0.18353;-0.03000;,
 -0.31973;0.18353;-0.03000;,
 0.31032;0.82732;-0.02500;,
 -0.31032;0.82732;-0.02500;,
 -0.31032;0.82732;-0.03000;,
 0.31032;0.82732;-0.03000;,
 0.31032;0.19314;-0.02500;,
 0.31032;0.19314;-0.03000;,
 -0.31032;0.19314;-0.02500;,
 -0.31032;0.19314;-0.03000;,
 0.29791;0.81464;-0.02500;,
 -0.29791;0.81464;-0.02500;,
 0.29791;0.20582;-0.02500;,
 -0.29791;0.20582;-0.02500;,
 0.29791;0.81464;-0.02000;,
 -0.29791;0.81464;-0.02000;,
 0.29791;0.20582;-0.02000;,
 -0.29791;0.20582;-0.02000;,
 0.24648;0.76208;-0.02000;,
 -0.24648;0.76208;-0.02000;,
 0.24648;0.25838;-0.02000;,
 -0.24648;0.25838;-0.02000;,
 0.24401;0.75956;-0.02500;,
 -0.24401;0.75956;-0.02500;,
 0.24401;0.26089;-0.02500;,
 -0.24401;0.26089;-0.02500;,
 -0.24401;0.75956;-0.02500;,
 0.24401;0.75956;-0.02500;,
 0.24401;0.26089;-0.02500;,
 -0.24401;0.26089;-0.02500;,
 -0.31664;0.83377;-0.03108;,
 0.31664;0.83377;-0.03108;,
 0.31664;0.18668;-0.03108;,
 -0.31664;0.18668;-0.03108;,
 0.16148;1.83348;-0.02000;,
 0.16148;1.98000;-0.02000;,
 0.00000;1.85779;-0.02000;,
 0.00000;1.98000;-0.02000;,
 -0.16148;1.83348;-0.02000;,
 -0.16148;1.98000;-0.02000;,
 -0.16148;1.00620;-0.02000;,
 0.00000;1.00620;-0.02000;,
 0.16148;1.00620;-0.02000;,
 0.31973;1.76367;-0.03000;,
 0.15986;1.82946;-0.03000;,
 0.31973;1.01046;-0.03000;,
 0.15986;1.01046;-0.03000;,
 0.00000;1.85353;-0.03000;,
 0.00000;1.01046;-0.03000;,
 -0.15986;1.82946;-0.03000;,
 -0.15986;1.01046;-0.03000;,
 -0.31973;1.76367;-0.03000;,
 -0.31973;1.01046;-0.03000;,
 0.31004;1.75362;-0.02500;,
 0.15502;1.81742;-0.02500;,
 0.15502;1.81742;-0.03000;,
 0.31004;1.75362;-0.03000;,
 0.31004;1.02323;-0.02500;,
 0.31004;1.02323;-0.03000;,
 0.15502;1.02323;-0.02500;,
 0.15502;1.02323;-0.03000;,
 0.00000;1.84076;-0.02500;,
 0.00000;1.84076;-0.03000;,
 0.00000;1.02323;-0.02500;,
 0.00000;1.02323;-0.03000;,
 -0.15502;1.81742;-0.02500;,
 -0.15502;1.81742;-0.03000;,
 -0.15502;1.02323;-0.02500;,
 -0.15502;1.02323;-0.03000;,
 -0.31004;1.75362;-0.02500;,
 -0.31004;1.75362;-0.03000;,
 -0.31004;1.02323;-0.02500;,
 -0.31004;1.02323;-0.03000;,
 0.29764;1.74076;-0.02500;,
 0.14882;1.80200;-0.02500;,
 0.15502;1.81742;-0.02500;,
 0.31004;1.75362;-0.02500;,
 0.29764;1.03958;-0.02500;,
 0.31004;1.02323;-0.02500;,
 0.14882;1.03958;-0.02500;,
 0.15502;1.02323;-0.02500;,
 0.00000;1.82441;-0.02500;,
 0.00000;1.84076;-0.02500;,
 0.00000;1.03958;-0.02500;,
 0.00000;1.02323;-0.02500;,
 -0.14882;1.80200;-0.02500;,
 -0.15502;1.81742;-0.02500;,
 -0.14882;1.03958;-0.02500;,
 -0.15502;1.02323;-0.02500;,
 -0.29764;1.74076;-0.02500;,
 -0.31004;1.75362;-0.02500;,
 -0.29764;1.03958;-0.02500;,
 -0.31004;1.02323;-0.02500;,
 0.29764;1.74076;-0.02000;,
 0.14882;1.80200;-0.02000;,
 0.14882;1.80200;-0.02500;,
 0.29764;1.74076;-0.02500;,
 0.29764;1.03958;-0.02000;,
 0.29764;1.03958;-0.02500;,
 0.14882;1.03958;-0.02000;,
 0.14882;1.03958;-0.02500;,
 0.00000;1.82441;-0.02000;,
 0.00000;1.82441;-0.02500;,
 0.00000;1.03958;-0.02000;,
 0.00000;1.03958;-0.02500;,
 -0.14882;1.80200;-0.02000;,
 -0.14882;1.80200;-0.02500;,
 -0.14882;1.03958;-0.02000;,
 -0.14882;1.03958;-0.02500;,
 -0.29764;1.74076;-0.02000;,
 -0.29764;1.74076;-0.02500;,
 -0.29764;1.03958;-0.02000;,
 -0.29764;1.03958;-0.02500;,
 0.24868;1.68997;-0.02000;,
 0.12434;1.74114;-0.02000;,
 0.14882;1.80200;-0.02000;,
 0.29764;1.74076;-0.02000;,
 0.24868;1.10413;-0.02000;,
 0.29764;1.03958;-0.02000;,
 0.12434;1.10413;-0.02000;,
 0.14882;1.03958;-0.02000;,
 0.00000;1.75986;-0.02000;,
 0.00000;1.82441;-0.02000;,
 0.00000;1.10413;-0.02000;,
 0.00000;1.03958;-0.02000;,
 -0.12434;1.74114;-0.02000;,
 -0.14882;1.80200;-0.02000;,
 -0.12434;1.10413;-0.02000;,
 -0.14882;1.03958;-0.02000;,
 -0.24868;1.68997;-0.02000;,
 -0.29764;1.74076;-0.02000;,
 -0.24868;1.10413;-0.02000;,
 -0.29764;1.03958;-0.02000;,
 0.24868;1.68997;-0.02800;,
 0.12434;1.74114;-0.02800;,
 0.12434;1.74114;-0.02000;,
 0.24868;1.68997;-0.02000;,
 0.24868;1.10413;-0.02800;,
 0.24868;1.10413;-0.02000;,
 0.12434;1.10413;-0.02800;,
 0.12434;1.10413;-0.02000;,
 0.00000;1.75986;-0.02800;,
 0.00000;1.75986;-0.02000;,
 0.00000;1.10413;-0.02800;,
 0.00000;1.10413;-0.02000;,
 -0.12434;1.74114;-0.02800;,
 -0.12434;1.74114;-0.02000;,
 -0.12434;1.10413;-0.02800;,
 -0.12434;1.10413;-0.02000;,
 -0.24868;1.68997;-0.02800;,
 -0.24868;1.68997;-0.02000;,
 -0.24868;1.10413;-0.02800;,
 -0.24868;1.10413;-0.02000;,
 0.23405;1.67480;-0.02800;,
 0.11703;1.72296;-0.02800;,
 0.11703;1.72296;-0.02800;,
 0.23405;1.67480;-0.02800;,
 0.23405;1.12341;-0.02800;,
 0.23405;1.12341;-0.02800;,
 0.11703;1.12341;-0.02800;,
 0.11703;1.12341;-0.02800;,
 0.00000;1.74058;-0.02800;,
 0.00000;1.74058;-0.02800;,
 0.00000;1.12341;-0.02800;,
 0.00000;1.12341;-0.02800;,
 -0.11703;1.72296;-0.02800;,
 -0.11703;1.72296;-0.02800;,
 -0.11703;1.12341;-0.02800;,
 -0.11703;1.12341;-0.02800;,
 -0.23405;1.67480;-0.02800;,
 -0.23405;1.67480;-0.02800;,
 -0.23405;1.12341;-0.02800;,
 -0.23405;1.12341;-0.02800;,
 0.23405;1.67480;-0.02200;,
 0.11703;1.72296;-0.02200;,
 0.23405;1.12341;-0.02200;,
 0.11703;1.12341;-0.02200;,
 0.11703;1.12341;-0.02200;,
 0.11703;1.72296;-0.02200;,
 0.23405;1.67480;-0.02200;,
 0.23405;1.12341;-0.02200;,
 0.00000;1.74058;-0.02200;,
 0.00000;1.12341;-0.02200;,
 0.00000;1.12341;-0.02200;,
 0.00000;1.74058;-0.02200;,
 -0.11703;1.72296;-0.02200;,
 -0.11703;1.12341;-0.02200;,
 -0.11703;1.72296;-0.02200;,
 -0.11703;1.12341;-0.02200;,
 -0.23405;1.67480;-0.02200;,
 -0.23405;1.12341;-0.02200;,
 -0.23405;1.67480;-0.02200;,
 -0.23405;1.12341;-0.02200;,
 0.15825;1.82545;-0.03200;,
 0.31650;1.76032;-0.03200;,
 0.31650;1.01472;-0.03200;,
 0.15825;1.01472;-0.03200;,
 0.00000;1.84928;-0.03200;,
 0.00000;1.01472;-0.03200;,
 -0.15825;1.82545;-0.03200;,
 -0.15825;1.01472;-0.03200;,
 -0.31650;1.76032;-0.03200;,
 -0.31650;1.01472;-0.03200;,
 0.12068;1.73205;-0.03014;,
 0.24137;1.68238;-0.03014;,
 0.24137;1.11377;-0.03014;,
 0.12068;1.11377;-0.03014;,
 0.00000;1.75022;-0.03014;,
 0.00000;1.11377;-0.03014;,
 -0.12068;1.73205;-0.03014;,
 -0.12068;1.11377;-0.03014;,
 -0.24137;1.68238;-0.03014;,
 -0.24137;1.11377;-0.03014;,
 -0.44500;0.18023;0.02000;,
 -0.32296;0.18023;0.02000;,
 -0.32296;0.84023;0.02000;,
 -0.44500;0.84023;0.02000;,
 0.32296;0.18023;0.02000;,
 0.44500;0.18023;0.02000;,
 0.44500;0.84023;0.02000;,
 0.32296;0.84023;0.02000;,
 -0.44500;0.00000;0.02000;,
 -0.32296;0.00000;0.02000;,
 0.32296;0.00000;0.02000;,
 0.44500;0.00000;0.02000;,
 -0.44500;1.98000;0.02000;,
 -0.44500;1.76702;0.02000;,
 -0.32296;1.76702;0.02000;,
 -0.32296;1.98000;0.02000;,
 -0.44500;1.00620;0.02000;,
 -0.32296;1.00620;0.02000;,
 0.32296;1.98000;0.02000;,
 0.32296;1.76702;0.02000;,
 0.44500;1.76702;0.02000;,
 0.44500;1.98000;0.02000;,
 0.32296;1.00620;0.02000;,
 0.44500;1.00620;0.02000;,
 -0.31973;0.83693;0.03000;,
 0.31973;0.83693;0.03000;,
 0.31973;0.18353;0.03000;,
 -0.31973;0.18353;0.03000;,
 0.31032;0.82732;0.03000;,
 -0.31032;0.82732;0.03000;,
 -0.31032;0.82732;0.02500;,
 0.31032;0.82732;0.02500;,
 0.31032;0.19314;0.03000;,
 0.31032;0.19314;0.02500;,
 -0.31032;0.19314;0.03000;,
 -0.31032;0.19314;0.02500;,
 -0.29791;0.81464;0.02500;,
 0.29791;0.81464;0.02500;,
 0.29791;0.20582;0.02500;,
 -0.29791;0.20582;0.02500;,
 -0.29791;0.81464;0.02000;,
 0.29791;0.81464;0.02000;,
 0.29791;0.20582;0.02000;,
 -0.29791;0.20582;0.02000;,
 -0.24648;0.76208;0.02000;,
 0.24648;0.76208;0.02000;,
 0.24648;0.25838;0.02000;,
 -0.24648;0.25838;0.02000;,
 -0.24401;0.75956;0.02500;,
 0.24401;0.75956;0.02500;,
 0.24401;0.26089;0.02500;,
 -0.24401;0.26089;0.02500;,
 -0.24401;0.26089;0.02500;,
 0.24401;0.26089;0.02500;,
 0.24401;0.75956;0.02500;,
 -0.24401;0.75956;0.02500;,
 0.31664;0.83377;0.03108;,
 -0.31664;0.83377;0.03108;,
 0.31664;0.18668;0.03108;,
 -0.31664;0.18668;0.03108;,
 0.16148;1.98000;0.02000;,
 0.16148;1.83348;0.02000;,
 0.00000;1.98000;0.02000;,
 0.00000;1.85779;0.02000;,
 -0.16148;1.98000;0.02000;,
 -0.16148;1.83348;0.02000;,
 -0.16148;1.00620;0.02000;,
 0.00000;1.00620;0.02000;,
 0.16148;1.00620;0.02000;,
 0.15986;1.82946;0.03000;,
 0.31973;1.76367;0.03000;,
 0.31973;1.01046;0.03000;,
 0.15986;1.01046;0.03000;,
 0.00000;1.85353;0.03000;,
 0.00000;1.01046;0.03000;,
 -0.15986;1.82946;0.03000;,
 -0.15986;1.01046;0.03000;,
 -0.31973;1.76367;0.03000;,
 -0.31973;1.01046;0.03000;,
 0.31004;1.75362;0.03000;,
 0.15502;1.81742;0.03000;,
 0.15502;1.81742;0.02500;,
 0.31004;1.75362;0.02500;,
 0.31004;1.02323;0.03000;,
 0.31004;1.02323;0.02500;,
 0.15502;1.02323;0.03000;,
 0.15502;1.02323;0.02500;,
 0.00000;1.84076;0.03000;,
 0.00000;1.84076;0.02500;,
 0.00000;1.02323;0.03000;,
 0.00000;1.02323;0.02500;,
 -0.15502;1.81742;0.03000;,
 -0.15502;1.81742;0.02500;,
 -0.15502;1.02323;0.03000;,
 -0.15502;1.02323;0.02500;,
 -0.31004;1.75362;0.03000;,
 -0.31004;1.75362;0.02500;,
 -0.31004;1.02323;0.03000;,
 -0.31004;1.02323;0.02500;,
 0.31004;1.75362;0.02500;,
 0.15502;1.81742;0.02500;,
 0.14882;1.80200;0.02500;,
 0.29764;1.74076;0.02500;,
 0.31004;1.02323;0.02500;,
 0.29764;1.03958;0.02500;,
 0.15502;1.02323;0.02500;,
 0.14882;1.03958;0.02500;,
 0.00000;1.84076;0.02500;,
 0.00000;1.82441;0.02500;,
 0.00000;1.02323;0.02500;,
 0.00000;1.03958;0.02500;,
 -0.15502;1.81742;0.02500;,
 -0.14882;1.80200;0.02500;,
 -0.15502;1.02323;0.02500;,
 -0.14882;1.03958;0.02500;,
 -0.31004;1.75362;0.02500;,
 -0.29764;1.74076;0.02500;,
 -0.31004;1.02323;0.02500;,
 -0.29764;1.03958;0.02500;,
 0.29764;1.74076;0.02500;,
 0.14882;1.80200;0.02500;,
 0.14882;1.80200;0.02000;,
 0.29764;1.74076;0.02000;,
 0.29764;1.03958;0.02500;,
 0.29764;1.03958;0.02000;,
 0.14882;1.03958;0.02500;,
 0.14882;1.03958;0.02000;,
 0.00000;1.82441;0.02500;,
 0.00000;1.82441;0.02000;,
 0.00000;1.03958;0.02500;,
 0.00000;1.03958;0.02000;,
 -0.14882;1.80200;0.02500;,
 -0.14882;1.80200;0.02000;,
 -0.14882;1.03958;0.02500;,
 -0.14882;1.03958;0.02000;,
 -0.29764;1.74076;0.02500;,
 -0.29764;1.74076;0.02000;,
 -0.29764;1.03958;0.02500;,
 -0.29764;1.03958;0.02000;,
 0.29764;1.74076;0.02000;,
 0.14882;1.80200;0.02000;,
 0.12434;1.74114;0.02000;,
 0.24868;1.68997;0.02000;,
 0.29764;1.03958;0.02000;,
 0.24868;1.10413;0.02000;,
 0.14882;1.03958;0.02000;,
 0.12434;1.10413;0.02000;,
 0.00000;1.82441;0.02000;,
 0.00000;1.75986;0.02000;,
 0.00000;1.03958;0.02000;,
 0.00000;1.10413;0.02000;,
 -0.14882;1.80200;0.02000;,
 -0.12434;1.74114;0.02000;,
 -0.14882;1.03958;0.02000;,
 -0.12434;1.10413;0.02000;,
 -0.29764;1.74076;0.02000;,
 -0.24868;1.68997;0.02000;,
 -0.29764;1.03958;0.02000;,
 -0.24868;1.10413;0.02000;,
 0.24868;1.68997;0.02000;,
 0.12434;1.74114;0.02000;,
 0.12434;1.74114;0.02800;,
 0.24868;1.68997;0.02800;,
 0.24868;1.10413;0.02000;,
 0.24868;1.10413;0.02800;,
 0.12434;1.10413;0.02000;,
 0.12434;1.10413;0.02800;,
 0.00000;1.75986;0.02000;,
 0.00000;1.75986;0.02800;,
 0.00000;1.10413;0.02000;,
 0.00000;1.10413;0.02800;,
 -0.12434;1.74114;0.02000;,
 -0.12434;1.74114;0.02800;,
 -0.12434;1.10413;0.02000;,
 -0.12434;1.10413;0.02800;,
 -0.24868;1.68997;0.02000;,
 -0.24868;1.68997;0.02800;,
 -0.24868;1.10413;0.02000;,
 -0.24868;1.10413;0.02800;,
 0.23405;1.67480;0.02800;,
 0.11703;1.72296;0.02800;,
 0.11703;1.72296;0.02800;,
 0.23405;1.67480;0.02800;,
 0.23405;1.12341;0.02800;,
 0.23405;1.12341;0.02800;,
 0.11703;1.12341;0.02800;,
 0.11703;1.12341;0.02800;,
 0.00000;1.74058;0.02800;,
 0.00000;1.74058;0.02800;,
 0.00000;1.12341;0.02800;,
 0.00000;1.12341;0.02800;,
 -0.11703;1.72296;0.02800;,
 -0.11703;1.72296;0.02800;,
 -0.11703;1.12341;0.02800;,
 -0.11703;1.12341;0.02800;,
 -0.23405;1.67480;0.02800;,
 -0.23405;1.67480;0.02800;,
 -0.23405;1.12341;0.02800;,
 -0.23405;1.12341;0.02800;,
 0.11703;1.72296;0.02200;,
 0.23405;1.67480;0.02200;,
 0.23405;1.12341;0.02200;,
 0.11703;1.12341;0.02200;,
 0.23405;1.12341;0.02200;,
 0.23405;1.67480;0.02200;,
 0.11703;1.72296;0.02200;,
 0.11703;1.12341;0.02200;,
 0.00000;1.74058;0.02200;,
 0.00000;1.12341;0.02200;,
 0.00000;1.74058;0.02200;,
 0.00000;1.12341;0.02200;,
 -0.11703;1.72296;0.02200;,
 -0.11703;1.12341;0.02200;,
 -0.11703;1.12341;0.02200;,
 -0.11703;1.72296;0.02200;,
 -0.23405;1.67480;0.02200;,
 -0.23405;1.12341;0.02200;,
 -0.23405;1.12341;0.02200;,
 -0.23405;1.67480;0.02200;,
 0.31650;1.76032;0.03200;,
 0.15825;1.82545;0.03200;,
 0.31650;1.01472;0.03200;,
 0.15825;1.01472;0.03200;,
 0.00000;1.84928;0.03200;,
 0.00000;1.01472;0.03200;,
 -0.15825;1.82545;0.03200;,
 -0.15825;1.01472;0.03200;,
 -0.31650;1.76032;0.03200;,
 -0.31650;1.01472;0.03200;,
 0.24137;1.68238;0.03014;,
 0.12068;1.73205;0.03014;,
 0.24137;1.11377;0.03014;,
 0.12068;1.11377;0.03014;,
 0.00000;1.75022;0.03014;,
 0.00000;1.11377;0.03014;,
 -0.12068;1.73205;0.03014;,
 -0.12068;1.11377;0.03014;,
 -0.24137;1.68238;0.03014;,
 -0.24137;1.11377;0.03014;,
 -0.38801;0.96801;-0.01347;,
 -0.36249;0.95744;-0.01347;,
 -0.37019;0.94974;-0.03095;,
 -0.38801;0.95712;-0.03095;,
 -0.35192;0.93191;-0.01347;,
 -0.36281;0.93191;-0.03095;,
 -0.36249;0.90639;-0.01347;,
 -0.37019;0.91409;-0.03095;,
 -0.38801;0.89582;-0.01347;,
 -0.38801;0.90671;-0.03095;,
 -0.41353;0.90639;-0.01347;,
 -0.40583;0.91409;-0.03095;,
 -0.42410;0.93191;-0.01347;,
 -0.41322;0.93191;-0.03095;,
 -0.41353;0.95744;-0.01347;,
 -0.40583;0.94974;-0.03095;,
 -0.38801;0.96801;-0.01347;,
 -0.38801;0.95712;-0.03095;,
 -0.38801;0.93191;-0.01347;,
 -0.38801;0.93191;-0.01347;,
 -0.38801;0.93191;-0.01347;,
 -0.38801;0.93191;-0.01347;,
 -0.38801;0.93191;-0.01347;,
 -0.38801;0.93191;-0.01347;,
 -0.38801;0.93191;-0.01347;,
 -0.38801;0.93191;-0.01347;,
 -0.37681;0.94312;-0.03095;,
 -0.38801;0.94776;-0.03095;,
 -0.37216;0.93191;-0.03095;,
 -0.37681;0.92071;-0.03095;,
 -0.38801;0.91607;-0.03095;,
 -0.39922;0.92071;-0.03095;,
 -0.40386;0.93191;-0.03095;,
 -0.39922;0.94312;-0.03095;,
 -0.38801;0.94776;-0.03095;,
 -0.37681;0.94312;-0.05351;,
 -0.38801;0.94776;-0.05351;,
 -0.38801;0.93191;-0.05351;,
 -0.37216;0.93191;-0.05351;,
 -0.38801;0.93191;-0.05351;,
 -0.37681;0.92071;-0.05351;,
 -0.38801;0.93191;-0.05351;,
 -0.38801;0.91607;-0.05351;,
 -0.38801;0.93191;-0.05351;,
 -0.39922;0.92071;-0.05351;,
 -0.38801;0.93191;-0.05351;,
 -0.40386;0.93191;-0.05351;,
 -0.38801;0.93191;-0.05351;,
 -0.39922;0.94312;-0.05351;,
 -0.38801;0.93191;-0.05351;,
 -0.38801;0.94776;-0.05351;,
 -0.38801;0.93191;-0.05351;,
 -0.22351;0.92497;-0.06073;,
 -0.23013;0.92112;-0.06105;,
 -0.23120;0.92478;-0.06434;,
 -0.22387;0.92828;-0.06349;,
 -0.23157;0.92588;-0.06434;,
 -0.23284;0.92953;-0.06104;,
 -0.22534;0.93114;-0.06074;,
 -0.24667;0.91690;-0.06510;,
 -0.25083;0.92278;-0.06512;,
 -0.24468;0.91368;-0.06131;,
 -0.25842;0.92167;-0.06526;,
 -0.25384;0.91436;-0.06521;,
 -0.25301;0.92600;-0.06134;,
 -0.25185;0.91114;-0.06140;,
 -0.26060;0.92489;-0.06151;,
 -0.27682;0.90968;-0.06615;,
 -0.27718;0.91907;-0.06605;,
 -0.27676;0.90584;-0.06240;,
 -0.28482;0.91871;-0.06654;,
 -0.28441;0.90867;-0.06665;,
 -0.27743;0.92291;-0.06223;,
 -0.28434;0.90484;-0.06291;,
 -0.28508;0.92254;-0.06272;,
 -0.30167;0.90770;-0.06814;,
 -0.30092;0.91904;-0.06790;,
 -0.30851;0.91989;-0.06870;,
 -0.30933;0.90777;-0.06895;,
 -0.30077;0.92287;-0.06405;,
 -0.30202;0.90387;-0.06445;,
 -0.30967;0.90394;-0.06520;,
 -0.30836;0.92372;-0.06485;,
 -0.32436;0.90885;-0.07041;,
 -0.32340;0.92294;-0.07063;,
 -0.32472;0.90502;-0.06647;,
 -0.33034;0.92586;-0.07094;,
 -0.33183;0.91032;-0.07074;,
 -0.32323;0.92676;-0.06680;,
 -0.33219;0.90649;-0.06681;,
 -0.33017;0.92969;-0.06711;,
 -0.34337;0.91414;-0.07117;,
 -0.34208;0.93377;-0.07134;,
 -0.34379;0.91032;-0.06725;,
 -0.34825;0.93832;-0.07147;,
 -0.35084;0.91566;-0.07135;,
 -0.34185;0.93759;-0.06748;,
 -0.35126;0.91184;-0.06743;,
 -0.34802;0.94214;-0.06759;,
 -0.36058;0.91648;-0.07148;,
 -0.35790;0.94597;-0.07153;,
 -0.36110;0.91267;-0.06756;,
 -0.36465;0.94919;-0.07152;,
 -0.36814;0.91593;-0.07052;,
 -0.35758;0.94979;-0.06763;,
 -0.36866;0.91211;-0.06669;,
 -0.36432;0.95301;-0.06761;,
 -0.38418;0.91206;-0.07092;,
 -0.37726;0.95193;-0.07075;,
 -0.38490;0.90828;-0.06710;,
 -0.38482;0.95231;-0.07094;,
 -0.39166;0.91199;-0.07111;,
 -0.37673;0.95572;-0.06689;,
 -0.39239;0.90820;-0.06729;,
 -0.38429;0.95610;-0.06708;,
 -0.40360;0.91456;-0.07141;,
 -0.39375;0.95141;-0.07116;,
 -0.40471;0.91086;-0.06760;,
 -0.40038;0.94837;-0.07133;,
 -0.40969;0.91841;-0.07157;,
 -0.39283;0.95511;-0.06730;,
 -0.41080;0.91471;-0.06776;,
 -0.39946;0.95207;-0.06747;,
 -0.41319;0.92253;-0.07166;,
 -0.41113;0.93794;-0.07160;,
 -0.41389;0.91874;-0.06784;,
 -0.41405;0.93533;-0.06784;,
 -0.41562;0.92557;-0.06788;,
 -0.41062;0.94173;-0.06775;,
 -0.22527;0.93114;-0.05688;,
 -0.23277;0.92953;-0.05635;,
 -0.23142;0.92533;-0.05303;,
 -0.22435;0.92864;-0.05410;,
 -0.23006;0.92112;-0.05635;,
 -0.22343;0.92497;-0.05688;,
 -0.25295;0.92600;-0.05599;,
 -0.25086;0.92278;-0.05215;,
 -0.25388;0.91436;-0.05215;,
 -0.24671;0.91690;-0.05215;,
 -0.25846;0.92167;-0.05215;,
 -0.24462;0.91368;-0.05599;,
 -0.26055;0.92489;-0.05599;,
 -0.25180;0.91114;-0.05599;,
 -0.27722;0.91907;-0.05215;,
 -0.27687;0.90968;-0.05215;,
 -0.27738;0.92291;-0.05599;,
 -0.28446;0.90867;-0.05215;,
 -0.28487;0.91871;-0.05215;,
 -0.27671;0.90584;-0.05599;,
 -0.28503;0.92254;-0.05599;,
 -0.28430;0.90484;-0.05599;,
 -0.30173;0.90770;-0.05215;,
 -0.30097;0.91904;-0.05215;,
 -0.30197;0.90387;-0.05599;,
 -0.30072;0.92287;-0.05599;,
 -0.30939;0.90777;-0.05215;,
 -0.30857;0.91989;-0.05215;,
 -0.30963;0.90394;-0.05599;,
 -0.30832;0.92372;-0.05599;,
 -0.32347;0.92294;-0.05215;,
 -0.32442;0.90885;-0.05215;,
 -0.32320;0.92676;-0.05599;,
 -0.33189;0.91032;-0.05215;,
 -0.33040;0.92586;-0.05215;,
 -0.32468;0.90502;-0.05599;,
 -0.33014;0.92969;-0.05599;,
 -0.33216;0.90649;-0.05599;,
 -0.34215;0.93377;-0.05215;,
 -0.34344;0.91414;-0.05215;,
 -0.34182;0.93759;-0.05599;,
 -0.35091;0.91566;-0.05215;,
 -0.34832;0.93832;-0.05215;,
 -0.34376;0.91032;-0.05599;,
 -0.34800;0.94214;-0.05599;,
 -0.35123;0.91184;-0.05599;,
 -0.35798;0.94597;-0.05215;,
 -0.36066;0.91648;-0.05215;,
 -0.35755;0.94979;-0.05599;,
 -0.36822;0.91593;-0.05215;,
 -0.36472;0.94919;-0.05215;,
 -0.36108;0.91267;-0.05599;,
 -0.36430;0.95301;-0.05599;,
 -0.36864;0.91211;-0.05599;,
 -0.37734;0.95193;-0.05215;,
 -0.38426;0.91206;-0.05215;,
 -0.37671;0.95572;-0.05599;,
 -0.39175;0.91199;-0.05215;,
 -0.38490;0.95231;-0.05215;,
 -0.38489;0.90828;-0.05599;,
 -0.38427;0.95610;-0.05599;,
 -0.39238;0.90820;-0.05599;,
 -0.39384;0.95141;-0.05215;,
 -0.40368;0.91456;-0.05215;,
 -0.39282;0.95511;-0.05599;,
 -0.40978;0.91841;-0.05215;,
 -0.40047;0.94837;-0.05215;,
 -0.40470;0.91086;-0.05599;,
 -0.39945;0.95207;-0.05599;,
 -0.41079;0.91471;-0.05599;,
 -0.41123;0.93794;-0.05215;,
 -0.41328;0.92253;-0.05215;,
 -0.41061;0.94173;-0.05599;,
 -0.41562;0.92557;-0.05599;,
 -0.41404;0.93533;-0.05599;,
 -0.41389;0.91874;-0.05599;,
 -0.21641;0.93385;-0.06016;,
 -0.38801;0.95712;0.03095;,
 -0.37019;0.94974;0.03095;,
 -0.36249;0.95744;0.01347;,
 -0.38801;0.96801;0.01347;,
 -0.36281;0.93191;0.03095;,
 -0.35192;0.93191;0.01347;,
 -0.37019;0.91409;0.03095;,
 -0.36249;0.90639;0.01347;,
 -0.38801;0.90671;0.03095;,
 -0.38801;0.89582;0.01347;,
 -0.40583;0.91409;0.03095;,
 -0.41353;0.90639;0.01347;,
 -0.41322;0.93191;0.03095;,
 -0.42410;0.93191;0.01347;,
 -0.40583;0.94974;0.03095;,
 -0.41353;0.95744;0.01347;,
 -0.38801;0.95712;0.03095;,
 -0.38801;0.96801;0.01347;,
 -0.38801;0.93191;0.01347;,
 -0.38801;0.93191;0.01347;,
 -0.38801;0.93191;0.01347;,
 -0.38801;0.93191;0.01347;,
 -0.38801;0.93191;0.01347;,
 -0.38801;0.93191;0.01347;,
 -0.38801;0.93191;0.01347;,
 -0.38801;0.93191;0.01347;,
 -0.38801;0.94776;0.03095;,
 -0.37681;0.94312;0.03095;,
 -0.37216;0.93191;0.03095;,
 -0.37681;0.92071;0.03095;,
 -0.38801;0.91607;0.03095;,
 -0.39922;0.92071;0.03095;,
 -0.40386;0.93191;0.03095;,
 -0.39922;0.94312;0.03095;,
 -0.38801;0.94776;0.03095;,
 -0.38801;0.94776;0.05351;,
 -0.37681;0.94312;0.05351;,
 -0.38801;0.93191;0.05351;,
 -0.37216;0.93191;0.05351;,
 -0.38801;0.93191;0.05351;,
 -0.37681;0.92071;0.05351;,
 -0.38801;0.93191;0.05351;,
 -0.38801;0.91607;0.05351;,
 -0.38801;0.93191;0.05351;,
 -0.39922;0.92071;0.05351;,
 -0.38801;0.93191;0.05351;,
 -0.40386;0.93191;0.05351;,
 -0.38801;0.93191;0.05351;,
 -0.39922;0.94312;0.05351;,
 -0.38801;0.93191;0.05351;,
 -0.38801;0.94776;0.05351;,
 -0.38801;0.93191;0.05351;,
 -0.22387;0.92828;0.06349;,
 -0.23120;0.92478;0.06434;,
 -0.23013;0.92112;0.06105;,
 -0.22351;0.92497;0.06073;,
 -0.22534;0.93114;0.06074;,
 -0.23284;0.92953;0.06104;,
 -0.23157;0.92588;0.06434;,
 -0.25083;0.92278;0.06512;,
 -0.24667;0.91690;0.06510;,
 -0.24468;0.91368;0.06131;,
 -0.25384;0.91436;0.06521;,
 -0.25842;0.92167;0.06526;,
 -0.25301;0.92600;0.06134;,
 -0.25185;0.91114;0.06140;,
 -0.26060;0.92489;0.06151;,
 -0.27718;0.91907;0.06605;,
 -0.27682;0.90968;0.06615;,
 -0.27676;0.90584;0.06240;,
 -0.28441;0.90867;0.06665;,
 -0.28482;0.91871;0.06654;,
 -0.27743;0.92291;0.06223;,
 -0.28434;0.90484;0.06291;,
 -0.28508;0.92254;0.06272;,
 -0.30092;0.91904;0.06790;,
 -0.30167;0.90770;0.06814;,
 -0.30933;0.90777;0.06895;,
 -0.30851;0.91989;0.06870;,
 -0.30077;0.92287;0.06405;,
 -0.30202;0.90387;0.06445;,
 -0.30967;0.90394;0.06520;,
 -0.30836;0.92372;0.06485;,
 -0.32340;0.92294;0.07063;,
 -0.32436;0.90885;0.07041;,
 -0.32472;0.90502;0.06647;,
 -0.33183;0.91032;0.07074;,
 -0.33034;0.92586;0.07094;,
 -0.32323;0.92676;0.06680;,
 -0.33219;0.90649;0.06681;,
 -0.33017;0.92969;0.06711;,
 -0.34208;0.93377;0.07134;,
 -0.34337;0.91414;0.07117;,
 -0.34379;0.91032;0.06725;,
 -0.35084;0.91566;0.07135;,
 -0.34825;0.93832;0.07147;,
 -0.34185;0.93759;0.06748;,
 -0.35126;0.91184;0.06743;,
 -0.34802;0.94214;0.06759;,
 -0.35790;0.94597;0.07153;,
 -0.36058;0.91648;0.07148;,
 -0.36110;0.91267;0.06756;,
 -0.36814;0.91593;0.07052;,
 -0.36465;0.94919;0.07152;,
 -0.35758;0.94979;0.06763;,
 -0.36866;0.91211;0.06669;,
 -0.36432;0.95301;0.06761;,
 -0.37726;0.95193;0.07075;,
 -0.38418;0.91206;0.07092;,
 -0.38490;0.90828;0.06710;,
 -0.39166;0.91199;0.07111;,
 -0.38482;0.95231;0.07094;,
 -0.37673;0.95572;0.06689;,
 -0.39239;0.90820;0.06729;,
 -0.38429;0.95610;0.06708;,
 -0.39375;0.95141;0.07116;,
 -0.40360;0.91456;0.07141;,
 -0.40471;0.91086;0.06760;,
 -0.40969;0.91841;0.07157;,
 -0.40038;0.94837;0.07133;,
 -0.39283;0.95511;0.06730;,
 -0.41080;0.91471;0.06776;,
 -0.39946;0.95207;0.06747;,
 -0.41113;0.93794;0.07160;,
 -0.41319;0.92253;0.07166;,
 -0.41389;0.91874;0.06784;,
 -0.41562;0.92557;0.06788;,
 -0.41405;0.93533;0.06784;,
 -0.41062;0.94173;0.06775;,
 -0.22435;0.92864;0.05410;,
 -0.23142;0.92533;0.05303;,
 -0.23277;0.92953;0.05635;,
 -0.22527;0.93114;0.05688;,
 -0.22343;0.92497;0.05688;,
 -0.23006;0.92112;0.05635;,
 -0.25086;0.92278;0.05215;,
 -0.25295;0.92600;0.05599;,
 -0.25846;0.92167;0.05215;,
 -0.24671;0.91690;0.05215;,
 -0.25388;0.91436;0.05215;,
 -0.24462;0.91368;0.05599;,
 -0.26055;0.92489;0.05599;,
 -0.25180;0.91114;0.05599;,
 -0.27687;0.90968;0.05215;,
 -0.27722;0.91907;0.05215;,
 -0.27738;0.92291;0.05599;,
 -0.28487;0.91871;0.05215;,
 -0.28446;0.90867;0.05215;,
 -0.27671;0.90584;0.05599;,
 -0.28503;0.92254;0.05599;,
 -0.28430;0.90484;0.05599;,
 -0.30097;0.91904;0.05215;,
 -0.30173;0.90770;0.05215;,
 -0.30197;0.90387;0.05599;,
 -0.30072;0.92287;0.05599;,
 -0.30857;0.91989;0.05215;,
 -0.30939;0.90777;0.05215;,
 -0.30963;0.90394;0.05599;,
 -0.30832;0.92372;0.05599;,
 -0.32442;0.90885;0.05215;,
 -0.32347;0.92294;0.05215;,
 -0.32320;0.92676;0.05599;,
 -0.33040;0.92586;0.05215;,
 -0.33189;0.91032;0.05215;,
 -0.32468;0.90502;0.05599;,
 -0.33014;0.92969;0.05599;,
 -0.33216;0.90649;0.05599;,
 -0.34344;0.91414;0.05215;,
 -0.34215;0.93377;0.05215;,
 -0.34182;0.93759;0.05599;,
 -0.34832;0.93832;0.05215;,
 -0.35091;0.91566;0.05215;,
 -0.34376;0.91032;0.05599;,
 -0.34800;0.94214;0.05599;,
 -0.35123;0.91184;0.05599;,
 -0.36066;0.91648;0.05215;,
 -0.35798;0.94597;0.05215;,
 -0.35755;0.94979;0.05599;,
 -0.36472;0.94919;0.05215;,
 -0.36822;0.91593;0.05215;,
 -0.36108;0.91267;0.05599;,
 -0.36430;0.95301;0.05599;,
 -0.36864;0.91211;0.05599;,
 -0.38426;0.91206;0.05215;,
 -0.37734;0.95193;0.05215;,
 -0.37671;0.95572;0.05599;,
 -0.38490;0.95231;0.05215;,
 -0.39175;0.91199;0.05215;,
 -0.38489;0.90828;0.05599;,
 -0.38427;0.95610;0.05599;,
 -0.39238;0.90820;0.05599;,
 -0.40368;0.91456;0.05215;,
 -0.39384;0.95141;0.05215;,
 -0.39282;0.95511;0.05599;,
 -0.40047;0.94837;0.05215;,
 -0.40978;0.91841;0.05215;,
 -0.40470;0.91086;0.05599;,
 -0.39945;0.95207;0.05599;,
 -0.41079;0.91471;0.05599;,
 -0.41328;0.92253;0.05215;,
 -0.41123;0.93794;0.05215;,
 -0.41061;0.94173;0.05599;,
 -0.41404;0.93533;0.05599;,
 -0.41562;0.92557;0.05599;,
 -0.41389;0.91874;0.05599;,
 -0.21641;0.93385;0.06016;;
 
 769;
 4;0,1,2,3;,
 4;4,5,6,7;,
 4;3,2,8,9;,
 4;2,7,10,8;,
 4;7,6,11,10;,
 4;12,13,14,15;,
 4;13,16,17,14;,
 4;16,1,0,17;,
 4;18,19,20,21;,
 4;19,22,23,20;,
 4;22,5,4,23;,
 4;24,25,1,4;,
 4;26,24,4,7;,
 4;27,26,7,2;,
 4;25,27,2,1;,
 4;28,29,30,31;,
 4;32,28,31,33;,
 4;34,32,33,35;,
 4;29,34,35,30;,
 4;36,37,29,28;,
 4;38,36,28,32;,
 4;39,38,32,34;,
 4;37,39,34,29;,
 4;40,41,37,36;,
 4;42,40,36,38;,
 4;43,42,38,39;,
 4;41,43,39,37;,
 4;44,45,41,40;,
 4;46,44,40,42;,
 4;47,46,42,43;,
 4;45,47,43,41;,
 4;48,49,45,44;,
 4;50,48,44,46;,
 4;51,50,46,47;,
 4;49,51,47,45;,
 4;52,53,54,55;,
 4;30,56,57,31;,
 4;56,25,24,57;,
 4;31,57,58,33;,
 4;57,24,26,58;,
 4;33,58,59,35;,
 4;58,26,27,59;,
 4;35,59,56,30;,
 4;59,27,25,56;,
 4;20,60,61,21;,
 4;60,62,63,61;,
 4;62,64,65,63;,
 4;64,13,12,65;,
 3;16,66,1;,
 3;66,67,1;,
 3;4,68,23;,
 3;67,68,4;,
 3;67,4,1;,
 4;69,70,60,20;,
 4;71,69,20,23;,
 4;72,71,23,68;,
 4;70,73,62,60;,
 4;74,72,68,67;,
 4;73,75,64,62;,
 4;76,74,67,66;,
 4;75,77,13,64;,
 4;78,76,66,16;,
 4;77,78,16,13;,
 4;79,80,81,82;,
 4;83,79,82,84;,
 4;85,83,84,86;,
 4;80,87,88,81;,
 4;89,85,86,90;,
 4;87,91,92,88;,
 4;93,89,90,94;,
 4;91,95,96,92;,
 4;97,93,94,98;,
 4;95,97,98,96;,
 4;99,100,101,102;,
 4;103,99,102,104;,
 4;105,103,104,106;,
 4;100,107,108,101;,
 4;109,105,106,110;,
 4;107,111,112,108;,
 4;113,109,110,114;,
 4;111,115,116,112;,
 4;117,113,114,118;,
 4;115,117,118,116;,
 4;119,120,121,122;,
 4;123,119,122,124;,
 4;125,123,124,126;,
 4;120,127,128,121;,
 4;129,125,126,130;,
 4;127,131,132,128;,
 4;133,129,130,134;,
 4;131,135,136,132;,
 4;137,133,134,138;,
 4;135,137,138,136;,
 4;139,140,141,142;,
 4;143,139,142,144;,
 4;145,143,144,146;,
 4;140,147,148,141;,
 4;149,145,146,150;,
 4;147,151,152,148;,
 4;153,149,150,154;,
 4;151,155,156,152;,
 4;157,153,154,158;,
 4;155,157,158,156;,
 4;159,160,161,162;,
 4;163,159,162,164;,
 4;165,163,164,166;,
 4;160,167,168,161;,
 4;169,165,166,170;,
 4;167,171,172,168;,
 4;173,169,170,174;,
 4;171,175,176,172;,
 4;177,173,174,178;,
 4;175,177,178,176;,
 4;179,180,181,182;,
 4;183,179,182,184;,
 4;185,183,184,186;,
 4;180,187,188,181;,
 4;189,185,186,190;,
 4;187,191,192,188;,
 4;193,189,190,194;,
 4;191,195,196,192;,
 4;197,193,194,198;,
 4;195,197,198,196;,
 4;199,200,180,179;,
 4;201,199,179,183;,
 4;202,201,183,185;,
 4;203,204,205,206;,
 4;200,207,187,180;,
 4;208,202,185,189;,
 4;209,210,204,203;,
 4;207,211,191,187;,
 4;212,208,189,193;,
 4;213,210,209,214;,
 4;211,215,195,191;,
 4;216,212,193,197;,
 4;215,216,197,195;,
 4;217,213,214,218;,
 4;81,219,220,82;,
 4;219,70,69,220;,
 4;82,220,221,84;,
 4;220,69,71,221;,
 4;84,221,222,86;,
 4;221,71,72,222;,
 4;88,223,219,81;,
 4;223,73,70,219;,
 4;86,222,224,90;,
 4;222,72,74,224;,
 4;92,225,223,88;,
 4;225,75,73,223;,
 4;90,224,226,94;,
 4;224,74,76,226;,
 4;96,227,225,92;,
 4;227,77,75,225;,
 4;94,226,228,98;,
 4;226,76,78,228;,
 4;98,228,227,96;,
 4;228,78,77,227;,
 4;181,229,230,182;,
 4;229,160,159,230;,
 4;182,230,231,184;,
 4;230,159,163,231;,
 4;184,231,232,186;,
 4;231,163,165,232;,
 4;188,233,229,181;,
 4;233,167,160,229;,
 4;186,232,234,190;,
 4;232,165,169,234;,
 4;192,235,233,188;,
 4;235,171,167,233;,
 4;190,234,236,194;,
 4;234,169,173,236;,
 4;196,237,235,192;,
 4;237,175,171,235;,
 4;194,236,238,198;,
 4;236,173,177,238;,
 4;198,238,237,196;,
 4;238,177,175,237;,
 4;239,240,241,242;,
 4;243,244,245,246;,
 4;247,248,240,239;,
 4;248,249,243,240;,
 4;249,250,244,243;,
 4;251,252,253,254;,
 4;252,255,256,253;,
 4;255,242,241,256;,
 4;257,258,259,260;,
 4;258,261,262,259;,
 4;261,246,245,262;,
 4;246,241,263,264;,
 4;243,246,264,265;,
 4;240,243,265,266;,
 4;241,240,266,263;,
 4;267,268,269,270;,
 4;271,267,270,272;,
 4;273,271,272,274;,
 4;268,273,274,269;,
 4;270,269,275,276;,
 4;272,270,276,277;,
 4;274,272,277,278;,
 4;269,274,278,275;,
 4;276,275,279,280;,
 4;277,276,280,281;,
 4;278,277,281,282;,
 4;275,278,282,279;,
 4;280,279,283,284;,
 4;281,280,284,285;,
 4;282,281,285,286;,
 4;279,282,286,283;,
 4;284,283,287,288;,
 4;285,284,288,289;,
 4;286,285,289,290;,
 4;283,286,290,287;,
 4;291,292,293,294;,
 4;267,295,296,268;,
 4;295,264,263,296;,
 4;271,297,295,267;,
 4;297,265,264,295;,
 4;273,298,297,271;,
 4;298,266,265,297;,
 4;268,296,298,273;,
 4;296,263,266,298;,
 4;257,299,300,258;,
 4;299,301,302,300;,
 4;301,303,304,302;,
 4;303,254,253,304;,
 3;241,305,256;,
 3;241,306,305;,
 3;261,307,246;,
 3;246,307,306;,
 3;241,246,306;,
 4;258,300,308,309;,
 4;261,258,309,310;,
 4;307,261,310,311;,
 4;300,302,312,308;,
 4;306,307,311,313;,
 4;302,304,314,312;,
 4;305,306,313,315;,
 4;304,253,316,314;,
 4;256,305,315,317;,
 4;253,256,317,316;,
 4;318,319,320,321;,
 4;322,318,321,323;,
 4;324,322,323,325;,
 4;319,326,327,320;,
 4;328,324,325,329;,
 4;326,330,331,327;,
 4;332,328,329,333;,
 4;330,334,335,331;,
 4;336,332,333,337;,
 4;334,336,337,335;,
 4;338,339,340,341;,
 4;342,338,341,343;,
 4;344,342,343,345;,
 4;339,346,347,340;,
 4;348,344,345,349;,
 4;346,350,351,347;,
 4;352,348,349,353;,
 4;350,354,355,351;,
 4;356,352,353,357;,
 4;354,356,357,355;,
 4;358,359,360,361;,
 4;362,358,361,363;,
 4;364,362,363,365;,
 4;359,366,367,360;,
 4;368,364,365,369;,
 4;366,370,371,367;,
 4;372,368,369,373;,
 4;370,374,375,371;,
 4;376,372,373,377;,
 4;374,376,377,375;,
 4;378,379,380,381;,
 4;382,378,381,383;,
 4;384,382,383,385;,
 4;379,386,387,380;,
 4;388,384,385,389;,
 4;386,390,391,387;,
 4;392,388,389,393;,
 4;390,394,395,391;,
 4;396,392,393,397;,
 4;394,396,397,395;,
 4;398,399,400,401;,
 4;402,398,401,403;,
 4;404,402,403,405;,
 4;399,406,407,400;,
 4;408,404,405,409;,
 4;406,410,411,407;,
 4;412,408,409,413;,
 4;410,414,415,411;,
 4;416,412,413,417;,
 4;414,416,417,415;,
 4;418,419,420,421;,
 4;422,418,421,423;,
 4;424,422,423,425;,
 4;419,426,427,420;,
 4;428,424,425,429;,
 4;426,430,431,427;,
 4;432,428,429,433;,
 4;430,434,435,431;,
 4;436,432,433,437;,
 4;434,436,437,435;,
 4;421,420,438,439;,
 4;423,421,439,440;,
 4;425,423,440,441;,
 4;442,443,444,445;,
 4;420,427,446,438;,
 4;429,425,441,447;,
 4;445,444,448,449;,
 4;427,431,450,446;,
 4;433,429,447,451;,
 4;452,449,448,453;,
 4;431,435,454,450;,
 4;437,433,451,455;,
 4;435,437,455,454;,
 4;456,452,453,457;,
 4;318,458,459,319;,
 4;458,309,308,459;,
 4;322,460,458,318;,
 4;460,310,309,458;,
 4;324,461,460,322;,
 4;461,311,310,460;,
 4;319,459,462,326;,
 4;459,308,312,462;,
 4;328,463,461,324;,
 4;463,313,311,461;,
 4;326,462,464,330;,
 4;462,312,314,464;,
 4;332,465,463,328;,
 4;465,315,313,463;,
 4;330,464,466,334;,
 4;464,314,316,466;,
 4;336,467,465,332;,
 4;467,317,315,465;,
 4;334,466,467,336;,
 4;466,316,317,467;,
 4;418,468,469,419;,
 4;468,401,400,469;,
 4;422,470,468,418;,
 4;470,403,401,468;,
 4;424,471,470,422;,
 4;471,405,403,470;,
 4;419,469,472,426;,
 4;469,400,407,472;,
 4;428,473,471,424;,
 4;473,409,405,471;,
 4;426,472,474,430;,
 4;472,407,411,474;,
 4;432,475,473,428;,
 4;475,413,409,473;,
 4;430,474,476,434;,
 4;474,411,415,476;,
 4;436,477,475,432;,
 4;477,417,413,475;,
 4;434,476,477,436;,
 4;476,415,417,477;,
 4;3,239,242,0;,
 4;5,245,244,6;,
 4;8,248,247,9;,
 4;9,247,239,3;,
 4;10,249,248,8;,
 4;6,244,250,11;,
 4;11,250,249,10;,
 4;14,252,251,15;,
 4;15,251,254,12;,
 4;17,255,252,14;,
 4;0,242,255,17;,
 4;18,260,259,19;,
 4;21,257,260,18;,
 4;19,259,262,22;,
 4;22,262,245,5;,
 4;61,299,257,21;,
 4;63,301,299,61;,
 4;65,303,301,63;,
 4;12,254,303,65;,
 4;478,479,480,481;,
 4;479,482,483,480;,
 4;482,484,485,483;,
 4;484,486,487,485;,
 4;486,488,489,487;,
 4;488,490,491,489;,
 4;490,492,493,491;,
 4;492,494,495,493;,
 3;496,479,478;,
 3;497,482,479;,
 3;498,484,482;,
 3;499,486,484;,
 3;500,488,486;,
 3;501,490,488;,
 3;502,492,490;,
 3;503,494,492;,
 4;504,505,481,480;,
 4;506,504,480,483;,
 4;507,506,483,485;,
 4;508,507,485,487;,
 4;509,508,487,489;,
 4;510,509,489,491;,
 4;511,510,491,493;,
 4;512,511,493,495;,
 4;513,514,505,504;,
 3;515,514,513;,
 4;516,513,504,506;,
 3;517,513,516;,
 4;518,516,506,507;,
 3;519,516,518;,
 4;520,518,507,508;,
 3;521,518,520;,
 4;522,520,508,509;,
 3;523,520,522;,
 4;524,522,509,510;,
 3;525,522,524;,
 4;526,524,510,511;,
 3;527,524,526;,
 4;528,526,511,512;,
 3;529,526,528;,
 4;530,531,532,533;,
 4;534,535,536,533;,
 4;534,532,537,538;,
 4;539,537,532,531;,
 4;540,538,537,541;,
 4;535,534,538,542;,
 4;539,543,541,537;,
 4;540,544,542,538;,
 4;541,545,546,540;,
 4;547,545,541,543;,
 4;548,546,545,549;,
 4;544,540,546,550;,
 4;547,551,549,545;,
 4;548,552,550,546;,
 4;553,554,548,549;,
 4;555,554,553,556;,
 4;552,548,554,557;,
 4;558,553,549,551;,
 4;558,559,556,553;,
 4;555,560,557,554;,
 4;556,561,562,555;,
 4;563,561,556,559;,
 4;564,562,561,565;,
 4;560,555,562,566;,
 4;563,567,565,561;,
 4;564,568,566,562;,
 4;565,569,570,564;,
 4;571,569,565,567;,
 4;572,570,569,573;,
 4;568,564,570,574;,
 4;571,575,573,569;,
 4;572,576,574,570;,
 4;573,577,578,572;,
 4;579,577,573,575;,
 4;580,578,577,581;,
 4;576,572,578,582;,
 4;579,583,581,577;,
 4;580,584,582,578;,
 4;581,585,586,580;,
 4;587,585,581,583;,
 4;588,586,585,589;,
 4;584,580,586,590;,
 4;587,591,589,585;,
 4;588,592,590,586;,
 4;589,593,594,588;,
 4;595,593,589,591;,
 4;596,594,593,597;,
 4;592,588,594,598;,
 4;595,599,597,593;,
 4;596,600,598,594;,
 4;597,601,602,596;,
 4;603,601,597,599;,
 4;604,602,601,605;,
 4;600,596,602,606;,
 3;603,605,601;,
 3;604,606,602;,
 4;607,608,609,610;,
 4;609,611,612,610;,
 4;613,614,609,608;,
 4;615,616,614,617;,
 4;611,609,616,618;,
 4;613,619,617,614;,
 4;615,620,618,616;,
 4;615,617,621,622;,
 4;623,621,617,619;,
 4;624,622,621,625;,
 4;620,615,622,626;,
 4;623,627,625,621;,
 4;624,628,626,622;,
 4;629,624,625,630;,
 4;628,624,629,631;,
 4;632,630,625,627;,
 4;633,629,630,634;,
 4;633,635,631,629;,
 4;632,636,634,630;,
 4;633,634,637,638;,
 4;639,637,634,636;,
 4;640,638,637,641;,
 4;635,633,638,642;,
 4;639,643,641,637;,
 4;640,644,642,638;,
 4;640,641,645,646;,
 4;647,645,641,643;,
 4;648,646,645,649;,
 4;644,640,646,650;,
 4;647,651,649,645;,
 4;648,652,650,646;,
 4;648,649,653,654;,
 4;655,653,649,651;,
 4;656,654,653,657;,
 4;652,648,654,658;,
 4;655,659,657,653;,
 4;656,660,658,654;,
 4;656,657,661,662;,
 4;663,661,657,659;,
 4;664,662,661,665;,
 4;660,656,662,666;,
 4;663,667,665,661;,
 4;664,668,666,662;,
 4;664,665,669,670;,
 4;671,669,665,667;,
 4;672,670,669,673;,
 4;668,664,670,674;,
 4;671,675,673,669;,
 4;672,676,674,670;,
 4;672,673,677,678;,
 4;679,677,673,675;,
 4;680,678,677,681;,
 4;676,672,678,682;,
 3;679,681,677;,
 3;680,682,678;,
 4;587,583,660,666;,
 4;658,660,583,579;,
 4;591,587,666,668;,
 4;531,530,612,611;,
 4;608,607,536,535;,
 4;539,531,611,618;,
 4;543,539,618,620;,
 4;535,542,613,608;,
 4;619,613,542,544;,
 4;547,543,620,626;,
 4;551,547,626,628;,
 4;544,550,623,619;,
 4;627,623,550,552;,
 4;552,557,632,627;,
 4;636,632,557,560;,
 4;558,551,628,631;,
 4;559,558,631,635;,
 4;563,559,635,642;,
 4;567,563,642,644;,
 4;560,566,639,636;,
 4;643,639,566,568;,
 4;571,567,644,650;,
 4;575,571,650,652;,
 4;568,574,647,643;,
 4;651,647,574,576;,
 4;579,575,652,658;,
 4;576,582,655,651;,
 4;659,655,582,584;,
 4;584,590,663,659;,
 4;667,663,590,592;,
 4;595,591,668,674;,
 4;599,595,674,676;,
 4;592,598,671,667;,
 4;675,671,598,600;,
 4;603,599,676,682;,
 4;605,603,682,680;,
 4;604,605,680,681;,
 4;606,604,681,679;,
 4;600,606,679,675;,
 3;533,532,534;,
 3;609,614,616;,
 3;683,530,533;,
 3;683,612,530;,
 3;683,533,536;,
 3;683,536,607;,
 3;683,607,610;,
 3;683,610,612;,
 4;684,685,686,687;,
 4;685,688,689,686;,
 4;688,690,691,689;,
 4;690,692,693,691;,
 4;692,694,695,693;,
 4;694,696,697,695;,
 4;696,698,699,697;,
 4;698,700,701,699;,
 3;687,686,702;,
 3;686,689,703;,
 3;689,691,704;,
 3;691,693,705;,
 3;693,695,706;,
 3;695,697,707;,
 3;697,699,708;,
 3;699,701,709;,
 4;685,684,710,711;,
 4;688,685,711,712;,
 4;690,688,712,713;,
 4;692,690,713,714;,
 4;694,692,714,715;,
 4;696,694,715,716;,
 4;698,696,716,717;,
 4;700,698,717,718;,
 4;711,710,719,720;,
 3;720,719,721;,
 4;712,711,720,722;,
 3;722,720,723;,
 4;713,712,722,724;,
 3;724,722,725;,
 4;714,713,724,726;,
 3;726,724,727;,
 4;715,714,726,728;,
 3;728,726,729;,
 4;716,715,728,730;,
 3;730,728,731;,
 4;717,716,730,732;,
 3;732,730,733;,
 4;718,717,732,734;,
 3;734,732,735;,
 4;736,737,738,739;,
 4;736,740,741,742;,
 4;743,744,737,742;,
 4;738,737,744,745;,
 4;746,744,743,747;,
 4;748,743,742,741;,
 4;744,746,749,745;,
 4;743,748,750,747;,
 4;747,751,752,746;,
 4;749,746,752,753;,
 4;754,752,751,755;,
 4;756,751,747,750;,
 4;752,754,757,753;,
 4;751,756,758,755;,
 4;754,755,759,760;,
 4;761,760,759,762;,
 4;763,759,755,758;,
 4;757,754,760,764;,
 4;760,761,765,764;,
 4;759,763,766,762;,
 4;762,767,768,761;,
 4;765,761,768,769;,
 4;770,768,767,771;,
 4;772,767,762,766;,
 4;768,770,773,769;,
 4;767,772,774,771;,
 4;771,775,776,770;,
 4;773,770,776,777;,
 4;778,776,775,779;,
 4;780,775,771,774;,
 4;776,778,781,777;,
 4;775,780,782,779;,
 4;779,783,784,778;,
 4;781,778,784,785;,
 4;786,784,783,787;,
 4;788,783,779,782;,
 4;784,786,789,785;,
 4;783,788,790,787;,
 4;787,791,792,786;,
 4;789,786,792,793;,
 4;794,792,791,795;,
 4;796,791,787,790;,
 4;792,794,797,793;,
 4;791,796,798,795;,
 4;795,799,800,794;,
 4;797,794,800,801;,
 4;802,800,799,803;,
 4;804,799,795,798;,
 4;800,802,805,801;,
 4;799,804,806,803;,
 4;803,807,808,802;,
 4;805,802,808,809;,
 4;810,808,807,811;,
 4;812,807,803,806;,
 3;808,810,809;,
 3;807,812,811;,
 4;813,814,815,816;,
 4;813,817,818,814;,
 4;815,814,819,820;,
 4;821,819,822,823;,
 4;824,822,814,818;,
 4;819,821,825,820;,
 4;822,824,826,823;,
 4;827,828,821,823;,
 4;825,821,828,829;,
 4;830,828,827,831;,
 4;832,827,823,826;,
 4;828,830,833,829;,
 4;827,832,834,831;,
 4;835,830,831,836;,
 4;837,836,831,834;,
 4;833,830,835,838;,
 4;839,835,836,840;,
 4;836,837,841,840;,
 4;835,839,842,838;,
 4;843,844,839,840;,
 4;842,839,844,845;,
 4;846,844,843,847;,
 4;848,843,840,841;,
 4;844,846,849,845;,
 4;843,848,850,847;,
 4;851,852,846,847;,
 4;849,846,852,853;,
 4;854,852,851,855;,
 4;856,851,847,850;,
 4;852,854,857,853;,
 4;851,856,858,855;,
 4;859,860,854,855;,
 4;857,854,860,861;,
 4;862,860,859,863;,
 4;864,859,855,858;,
 4;860,862,865,861;,
 4;859,864,866,863;,
 4;867,868,862,863;,
 4;865,862,868,869;,
 4;870,868,867,871;,
 4;872,867,863,866;,
 4;868,870,873,869;,
 4;867,872,874,871;,
 4;875,876,870,871;,
 4;873,870,876,877;,
 4;878,876,875,879;,
 4;880,875,871,874;,
 4;876,878,881,877;,
 4;875,880,882,879;,
 4;883,884,878,879;,
 4;881,878,884,885;,
 4;886,884,883,887;,
 4;888,883,879,882;,
 3;884,886,885;,
 3;883,888,887;,
 4;872,866,789,793;,
 4;785,789,866,864;,
 4;874,872,793,797;,
 4;818,817,739,738;,
 4;741,740,816,815;,
 4;824,818,738,745;,
 4;826,824,745,749;,
 4;815,820,748,741;,
 4;750,748,820,825;,
 4;832,826,749,753;,
 4;834,832,753,757;,
 4;825,829,756,750;,
 4;758,756,829,833;,
 4;833,838,763,758;,
 4;766,763,838,842;,
 4;837,834,757,764;,
 4;841,837,764,765;,
 4;848,841,765,769;,
 4;850,848,769,773;,
 4;842,845,772,766;,
 4;774,772,845,849;,
 4;856,850,773,777;,
 4;858,856,777,781;,
 4;849,853,780,774;,
 4;782,780,853,857;,
 4;864,858,781,785;,
 4;857,861,788,782;,
 4;790,788,861,865;,
 4;865,869,796,790;,
 4;798,796,869,873;,
 4;880,874,797,801;,
 4;882,880,801,805;,
 4;873,877,804,798;,
 4;806,804,877,881;,
 4;888,882,805,809;,
 4;887,888,809,810;,
 4;886,887,810,811;,
 4;885,886,811,812;,
 4;881,885,812,806;,
 3;742,737,736;,
 3;822,819,814;,
 3;736,739,889;,
 3;739,817,889;,
 3;740,736,889;,
 3;816,740,889;,
 3;813,816,889;,
 3;817,813,889;;
 
 MeshMaterialList {
  3;
  769;
  0,
  0,
  0,
  0,
  0,
  0,
  0,
  0,
  0,
  0,
  0,
  0,
  0,
  0,
  0,
  0,
  0,
  0,
  0,
  0,
  0,
  0,
  0,
  0,
  0,
  0,
  0,
  0,
  0,
  0,
  0,
  0,
  0,
  0,
  0,
  0,
  0,
  0,
  0,
  0,
  0,
  0,
  0,
  0,
  0,
  0,
  0,
  0,
  0,
  0,
  0,
  0,
  0,
  0,
  0,
  0,
  0,
  0,
  0,
  0,
  0,
  0,
  0,
  0,
  0,
  0,
  0,
  0,
  0,
  0,
  0,
  0,
  0,
  0,
  0,
  0,
  0,
  0,
  0,
  0,
  0,
  0,
  0,
  0,
  0,
  0,
  0,
  0,
  0,
  0,
  0,
  0,
  0,
  0,
  0,
  0,
  0,
  0,
  0,
  0,
  0,
  0,
  0,
  0,
  0,
  0,
  0,
  0,
  0,
  0,
  0,
  0,
  0,
  0,
  0,
  0,
  0,
  0,
  0,
  0,
  0,
  0,
  0,
  0,
  0,
  0,
  0,
  0,
  0,
  0,
  0,
  0,
  0,
  0,
  0,
  0,
  0,
  0,
  0,
  0,
  0,
  0,
  0,
  0,
  0,
  0,
  0,
  0,
  0,
  0,
  0,
  0,
  0,
  0,
  0,
  0,
  0,
  0,
  0,
  0,
  0,
  0,
  0,
  0,
  0,
  0,
  0,
  0,
  0,
  0,
  0,
  0,
  0,
  0,
  0,
  0,
  0,
  0,
  0,
  0,
  0,
  0,
  0,
  0,
  0,
  0,
  0,
  0,
  0,
  0,
  0,
  0,
  0,
  0,
  0,
  0,
  0,
  0,
  0,
  0,
  0,
  0,
  0,
  0,
  0,
  0,
  0,
  0,
  0,
  0,
  0,
  0,
  0,
  0,
  0,
  0,
  0,
  0,
  0,
  0,
  0,
  0,
  0,
  0,
  0,
  0,
  0,
  0,
  0,
  0,
  0,
  0,
  0,
  0,
  0,
  0,
  0,
  0,
  0,
  0,
  0,
  0,
  0,
  0,
  0,
  0,
  0,
  0,
  0,
  0,
  0,
  0,
  0,
  0,
  0,
  0,
  0,
  0,
  0,
  0,
  0,
  0,
  0,
  0,
  0,
  0,
  0,
  0,
  0,
  0,
  0,
  0,
  0,
  0,
  0,
  0,
  0,
  0,
  0,
  0,
  0,
  0,
  0,
  0,
  0,
  0,
  0,
  0,
  0,
  0,
  0,
  0,
  0,
  0,
  0,
  0,
  0,
  0,
  0,
  0,
  0,
  0,
  0,
  0,
  0,
  0,
  0,
  0,
  0,
  0,
  0,
  0,
  0,
  0,
  0,
  0,
  0,
  0,
  0,
  0,
  0,
  0,
  0,
  0,
  0,
  0,
  0,
  0,
  0,
  0,
  0,
  0,
  0,
  0,
  0,
  0,
  0,
  0,
  0,
  0,
  0,
  0,
  0,
  0,
  0,
  0,
  0,
  0,
  0,
  0,
  0,
  0,
  0,
  0,
  0,
  0,
  0,
  0,
  0,
  0,
  0,
  0,
  0,
  0,
  0,
  0,
  0,
  0,
  0,
  0,
  0,
  0,
  0,
  2,
  2,
  2,
  2,
  2,
  2,
  2,
  2,
  2,
  2,
  2,
  2,
  2,
  2,
  2,
  2,
  2,
  2,
  2,
  2,
  2,
  2,
  2,
  2,
  2,
  2,
  2,
  2,
  2,
  2,
  2,
  2,
  2,
  2,
  2,
  2,
  2,
  2,
  2,
  2,
  2,
  2,
  2,
  2,
  2,
  2,
  2,
  2,
  2,
  2,
  2,
  2,
  2,
  2,
  2,
  2,
  2,
  2,
  2,
  2,
  2,
  2,
  2,
  2,
  2,
  2,
  2,
  2,
  2,
  2,
  2,
  2,
  2,
  2,
  2,
  2,
  2,
  2,
  2,
  2,
  2,
  2,
  2,
  2,
  2,
  2,
  2,
  2,
  2,
  2,
  2,
  2,
  2,
  2,
  2,
  2,
  2,
  2,
  2,
  2,
  2,
  2,
  2,
  2,
  2,
  2,
  2,
  2,
  2,
  2,
  2,
  2,
  2,
  2,
  2,
  2,
  2,
  2,
  2,
  2,
  2,
  2,
  2,
  2,
  2,
  2,
  2,
  2,
  2,
  2,
  2,
  2,
  2,
  2,
  2,
  2,
  2,
  2,
  2,
  2,
  2,
  2,
  2,
  2,
  2,
  2,
  2,
  2,
  2,
  2,
  2,
  2,
  2,
  2,
  2,
  2,
  2,
  2,
  2,
  2,
  2,
  2,
  2,
  2,
  2,
  2,
  2,
  2,
  2,
  2,
  2,
  2,
  2,
  2,
  2,
  2,
  2,
  2,
  2,
  2,
  2,
  2,
  2,
  2,
  2,
  2,
  2,
  2,
  2,
  2,
  2,
  2,
  2,
  2,
  2,
  2,
  2,
  2,
  2,
  2,
  2,
  2,
  2,
  2,
  2,
  2,
  2,
  2,
  2,
  2,
  2,
  2,
  2,
  2,
  2,
  2,
  2,
  2,
  2,
  2,
  2,
  2,
  2,
  2,
  2,
  2,
  2,
  2,
  2,
  2,
  2,
  2,
  2,
  2,
  2,
  2,
  2,
  2,
  2,
  2,
  2,
  2,
  2,
  2,
  2,
  2,
  2,
  2,
  2,
  2,
  2,
  2,
  2,
  2,
  2,
  2,
  2,
  2,
  2,
  2,
  2,
  2,
  2,
  2,
  2,
  2,
  2,
  2,
  2,
  2,
  2,
  2,
  2,
  2,
  2,
  2,
  2,
  2,
  2,
  2,
  2,
  2,
  2,
  2,
  2,
  2,
  2,
  2,
  2,
  2,
  2,
  2,
  2,
  2,
  2,
  2,
  2,
  2,
  2,
  2,
  2,
  2,
  2,
  2,
  2,
  2,
  2,
  2,
  2,
  2,
  2,
  2,
  2,
  2,
  2,
  2,
  2,
  2,
  2,
  2,
  2,
  2,
  2,
  2,
  2,
  2,
  2,
  2,
  2,
  2,
  2,
  2,
  2,
  2,
  2,
  2,
  2,
  2,
  2,
  2,
  2,
  2,
  2,
  2,
  2,
  2,
  2,
  2,
  2,
  2,
  2,
  2,
  2,
  2,
  2,
  2,
  2,
  2,
  2,
  2,
  2,
  2,
  2,
  2,
  2,
  2,
  2,
  2,
  2,
  2,
  2,
  2,
  2,
  2,
  2,
  2,
  2,
  2,
  2,
  2,
  2,
  2,
  2,
  2,
  2,
  2,
  2,
  2,
  2,
  2,
  2,
  2,
  2,
  2,
  2,
  2;;
  Material {
   0.661600;0.464000;0.276000;1.000000;;
   5.000000;
   0.000000;0.000000;0.000000;;
   0.000000;0.000000;0.000000;;
   TextureFilename {
    "data/texture/wood2.png";
   }
  }
  Material {
   0.800000;0.800000;0.800000;0.500000;;
   5.000000;
   0.000000;0.000000;0.000000;;
   0.000000;0.000000;0.000000;;
  }
  Material {
   0.620800;0.602400;0.279200;1.000000;;
   5.000000;
   0.300000;0.300000;0.300000;;
   0.000000;0.000000;0.000000;;
  }
 }
 MeshTextureCoords {
  890;
  0.001240;1.496710;,
  0.157290;1.496710;,
  0.157290;2.340640;,
  0.001240;2.340640;,
  0.983200;1.496710;,
  1.139250;1.496710;,
  1.139250;2.340640;,
  0.983200;2.340640;,
  0.157290;2.571090;,
  0.001240;2.571090;,
  0.983200;2.571090;,
  1.139250;2.571090;,
  0.157290;0.039320;,
  0.157290;0.311640;,
  0.001240;0.311640;,
  0.001240;0.039320;,
  0.157290;1.284490;,
  0.001240;1.284490;,
  1.139250;0.039320;,
  1.139250;0.311640;,
  0.983200;0.311640;,
  0.983200;0.039320;,
  1.139250;1.284490;,
  0.983200;1.284490;,
  0.979070;1.500930;,
  0.161420;1.500930;,
  0.979070;2.336420;,
  0.161420;2.336420;,
  0.967050;1.513220;,
  0.173440;1.513220;,
  0.173440;1.513220;,
  0.967050;1.513220;,
  0.967050;2.324130;,
  0.967050;2.324130;,
  0.173440;2.324130;,
  0.173440;2.324130;,
  0.951180;1.529440;,
  0.189310;1.529440;,
  0.951180;2.307910;,
  0.189310;2.307910;,
  0.951180;1.529440;,
  0.189310;1.529440;,
  0.951180;2.307910;,
  0.189310;2.307910;,
  0.885410;1.596640;,
  0.255080;1.596640;,
  0.885410;2.240710;,
  0.255080;2.240710;,
  0.882260;1.599860;,
  0.258230;1.599860;,
  0.882260;2.237490;,
  0.258230;2.237490;,
  0.222190;1.367010;,
  0.846220;1.367010;,
  0.846220;2.004650;,
  0.222190;2.004650;,
  0.165360;1.504970;,
  0.975120;1.504970;,
  0.975120;2.332390;,
  0.165360;2.332390;,
  0.776720;0.226670;,
  0.776720;0.039320;,
  0.570240;0.195580;,
  0.570240;0.039320;,
  0.363770;0.226670;,
  0.363770;0.039320;,
  0.363770;1.284490;,
  0.570240;1.284490;,
  0.776720;1.284490;,
  0.979070;0.315930;,
  0.774660;0.231800;,
  0.979070;1.279050;,
  0.774660;1.279050;,
  0.570240;0.201030;,
  0.570240;1.279050;,
  0.365830;0.231800;,
  0.365830;1.279050;,
  0.161420;0.315930;,
  0.161420;1.279050;,
  0.966680;0.328780;,
  0.768460;0.247210;,
  0.768460;0.247210;,
  0.966680;0.328780;,
  0.966680;1.262710;,
  0.966680;1.262710;,
  0.768460;1.262710;,
  0.768460;1.262710;,
  0.570240;0.217360;,
  0.570240;0.217360;,
  0.570240;1.262710;,
  0.570240;1.262710;,
  0.372030;0.247210;,
  0.372030;0.247210;,
  0.372030;1.262710;,
  0.372030;1.262710;,
  0.173810;0.328780;,
  0.173810;0.328780;,
  0.173810;1.262710;,
  0.173810;1.262710;,
  1.211200;0.766450;,
  0.906730;0.641150;,
  0.919420;0.609610;,
  1.236570;0.740130;,
  1.211200;2.200970;,
  1.236570;2.234420;,
  0.906730;2.200970;,
  0.919420;2.234420;,
  0.602270;0.595310;,
  0.602270;0.561860;,
  0.602270;2.200970;,
  0.602270;2.234420;,
  0.297800;0.641150;,
  0.285120;0.609610;,
  0.297800;2.200970;,
  0.285120;2.234420;,
  -0.006660;0.766450;,
  -0.032030;0.740130;,
  -0.006660;2.200970;,
  -0.032030;2.234420;,
  0.950830;0.345230;,
  0.760540;0.266920;,
  0.760540;0.266920;,
  0.950830;0.345230;,
  0.950830;1.241800;,
  0.950830;1.241800;,
  0.760540;1.241800;,
  0.760540;1.241800;,
  0.570240;0.238270;,
  0.570240;0.238270;,
  0.570240;1.241800;,
  0.570240;1.241800;,
  0.379950;0.266920;,
  0.379950;0.266920;,
  0.379950;1.241800;,
  0.379950;1.241800;,
  0.189660;0.345230;,
  0.189660;0.345230;,
  0.189660;1.241800;,
  0.189660;1.241800;,
  0.981300;1.080920;,
  0.726910;0.976220;,
  0.776990;0.851720;,
  1.081460;0.977020;,
  0.981300;2.279490;,
  1.081460;2.411530;,
  0.726910;2.279490;,
  0.776990;2.411530;,
  0.472530;0.937920;,
  0.472530;0.805880;,
  0.472530;2.279490;,
  0.472530;2.411530;,
  0.218140;0.976220;,
  0.168060;0.851720;,
  0.218140;2.279490;,
  0.168060;2.411530;,
  -0.036250;1.080920;,
  -0.136400;0.977020;,
  -0.036250;2.279490;,
  -0.136400;2.411530;,
  0.888230;0.410170;,
  0.729240;0.344740;,
  0.729240;0.344740;,
  0.888230;0.410170;,
  0.888230;1.159270;,
  0.888230;1.159270;,
  0.729240;1.159270;,
  0.729240;1.159270;,
  0.570240;0.320800;,
  0.570240;0.320800;,
  0.570240;1.159270;,
  0.570240;1.159270;,
  0.411250;0.344740;,
  0.411250;0.344740;,
  0.411250;1.159270;,
  0.411250;1.159270;,
  0.252260;0.410170;,
  0.252260;0.410170;,
  0.252260;1.159270;,
  0.252260;1.159270;,
  0.869520;0.429570;,
  0.719880;0.367990;,
  0.719880;0.367990;,
  0.869520;0.429570;,
  0.869520;1.134610;,
  0.869520;1.134610;,
  0.719880;1.134610;,
  0.719880;1.134610;,
  0.570240;0.345460;,
  0.570240;0.345460;,
  0.570240;1.134610;,
  0.570240;1.134610;,
  0.420610;0.367990;,
  0.420610;0.367990;,
  0.420610;1.134610;,
  0.420610;1.134610;,
  0.270970;0.429570;,
  0.270970;0.429570;,
  0.270970;1.134610;,
  0.270970;1.134610;,
  0.869520;0.429570;,
  0.719880;0.367990;,
  0.869520;1.134610;,
  0.719880;1.134610;,
  0.715680;2.258040;,
  0.715680;1.491410;,
  0.865320;1.552990;,
  0.865320;2.258040;,
  0.570240;0.345460;,
  0.570240;1.134610;,
  0.566040;2.258040;,
  0.566040;1.468880;,
  0.420610;0.367990;,
  0.420610;1.134610;,
  0.416400;1.491410;,
  0.416400;2.258040;,
  0.270970;0.429570;,
  0.270970;1.134610;,
  0.266760;1.552990;,
  0.266760;2.258040;,
  0.772590;0.236940;,
  0.974940;0.320210;,
  0.974940;1.273600;,
  0.772590;1.273600;,
  0.570240;0.206470;,
  0.570240;1.273600;,
  0.367900;0.236940;,
  0.367900;1.273600;,
  0.165550;0.320210;,
  0.165550;1.273600;,
  0.724560;0.356360;,
  0.878880;0.419870;,
  0.878880;1.146940;,
  0.724560;1.146940;,
  0.570240;0.333130;,
  0.570240;1.146940;,
  0.415930;0.356360;,
  0.415930;1.146940;,
  0.261610;0.419870;,
  0.261610;1.146940;,
  0.001240;2.340640;,
  0.157290;2.340640;,
  0.157290;1.496710;,
  0.001240;1.496710;,
  0.983200;2.340640;,
  1.139250;2.340640;,
  1.139250;1.496710;,
  0.983200;1.496710;,
  0.001240;2.571090;,
  0.157290;2.571090;,
  0.983200;2.571090;,
  1.139250;2.571090;,
  0.001240;0.039320;,
  0.001240;0.311640;,
  0.157290;0.311640;,
  0.157290;0.039320;,
  0.001240;1.284490;,
  0.157290;1.284490;,
  0.983200;0.039320;,
  0.983200;0.311640;,
  1.139250;0.311640;,
  1.139250;0.039320;,
  0.983200;1.284490;,
  1.139250;1.284490;,
  0.161420;1.500930;,
  0.979070;1.500930;,
  0.979070;2.336420;,
  0.161420;2.336420;,
  0.967050;1.513220;,
  0.173440;1.513220;,
  0.173440;1.513220;,
  0.967050;1.513220;,
  0.967050;2.324130;,
  0.967050;2.324130;,
  0.173440;2.324130;,
  0.173440;2.324130;,
  0.189310;1.529440;,
  0.951180;1.529440;,
  0.951180;2.307910;,
  0.189310;2.307910;,
  0.189310;1.529440;,
  0.951180;1.529440;,
  0.951180;2.307910;,
  0.189310;2.307910;,
  0.255080;1.596640;,
  0.885410;1.596640;,
  0.885410;2.240710;,
  0.255080;2.240710;,
  0.258230;1.599860;,
  0.882260;1.599860;,
  0.882260;2.237490;,
  0.258230;2.237490;,
  0.222190;2.004650;,
  0.846220;2.004650;,
  0.846220;1.367010;,
  0.222190;1.367010;,
  0.975120;1.504970;,
  0.165360;1.504970;,
  0.975120;2.332390;,
  0.165360;2.332390;,
  0.776720;0.039320;,
  0.776720;0.226670;,
  0.570240;0.039320;,
  0.570240;0.195580;,
  0.363770;0.039320;,
  0.363770;0.226670;,
  0.363770;1.284490;,
  0.570240;1.284490;,
  0.776720;1.284490;,
  0.774660;0.231800;,
  0.979070;0.315930;,
  0.979070;1.279050;,
  0.774660;1.279050;,
  0.570240;0.201030;,
  0.570240;1.279050;,
  0.365830;0.231800;,
  0.365830;1.279050;,
  0.161420;0.315930;,
  0.161420;1.279050;,
  0.966680;0.328780;,
  0.768460;0.247210;,
  0.768460;0.247210;,
  0.966680;0.328780;,
  0.966680;1.262710;,
  0.966680;1.262710;,
  0.768460;1.262710;,
  0.768460;1.262710;,
  0.570240;0.217360;,
  0.570240;0.217360;,
  0.570240;1.262710;,
  0.570240;1.262710;,
  0.372030;0.247210;,
  0.372030;0.247210;,
  0.372030;1.262710;,
  0.372030;1.262710;,
  0.173810;0.328780;,
  0.173810;0.328780;,
  0.173810;1.262710;,
  0.173810;1.262710;,
  1.236570;0.740130;,
  0.919420;0.609610;,
  0.906730;0.641150;,
  1.211200;0.766450;,
  1.236570;2.234420;,
  1.211200;2.200970;,
  0.919420;2.234420;,
  0.906730;2.200970;,
  0.602270;0.561860;,
  0.602270;0.595310;,
  0.602270;2.234420;,
  0.602270;2.200970;,
  0.285120;0.609610;,
  0.297800;0.641150;,
  0.285120;2.234420;,
  0.297800;2.200970;,
  -0.032030;0.740130;,
  -0.006660;0.766450;,
  -0.032030;2.234420;,
  -0.006660;2.200970;,
  0.950830;0.345230;,
  0.760540;0.266920;,
  0.760540;0.266920;,
  0.950830;0.345230;,
  0.950830;1.241800;,
  0.950830;1.241800;,
  0.760540;1.241800;,
  0.760540;1.241800;,
  0.570240;0.238270;,
  0.570240;0.238270;,
  0.570240;1.241800;,
  0.570240;1.241800;,
  0.379950;0.266920;,
  0.379950;0.266920;,
  0.379950;1.241800;,
  0.379950;1.241800;,
  0.189660;0.345230;,
  0.189660;0.345230;,
  0.189660;1.241800;,
  0.189660;1.241800;,
  1.081460;0.977020;,
  0.776990;0.851720;,
  0.726910;0.976220;,
  0.981300;1.080920;,
  1.081460;2.411530;,
  0.981300;2.279490;,
  0.776990;2.411530;,
  0.726910;2.279490;,
  0.472530;0.805880;,
  0.472530;0.937920;,
  0.472530;2.411530;,
  0.472530;2.279490;,
  0.168060;0.851720;,
  0.218140;0.976220;,
  0.168060;2.411530;,
  0.218140;2.279490;,
  -0.136400;0.977020;,
  -0.036250;1.080920;,
  -0.136400;2.411530;,
  -0.036250;2.279490;,
  0.888230;0.410170;,
  0.729240;0.344740;,
  0.729240;0.344740;,
  0.888230;0.410170;,
  0.888230;1.159270;,
  0.888230;1.159270;,
  0.729240;1.159270;,
  0.729240;1.159270;,
  0.570240;0.320800;,
  0.570240;0.320800;,
  0.570240;1.159270;,
  0.570240;1.159270;,
  0.411250;0.344740;,
  0.411250;0.344740;,
  0.411250;1.159270;,
  0.411250;1.159270;,
  0.252260;0.410170;,
  0.252260;0.410170;,
  0.252260;1.159270;,
  0.252260;1.159270;,
  0.869520;0.429570;,
  0.719880;0.367990;,
  0.719880;0.367990;,
  0.869520;0.429570;,
  0.869520;1.134610;,
  0.869520;1.134610;,
  0.719880;1.134610;,
  0.719880;1.134610;,
  0.570240;0.345460;,
  0.570240;0.345460;,
  0.570240;1.134610;,
  0.570240;1.134610;,
  0.420610;0.367990;,
  0.420610;0.367990;,
  0.420610;1.134610;,
  0.420610;1.134610;,
  0.270970;0.429570;,
  0.270970;0.429570;,
  0.270970;1.134610;,
  0.270970;1.134610;,
  0.719880;0.367990;,
  0.869520;0.429570;,
  0.869520;1.134610;,
  0.719880;1.134610;,
  0.865320;2.258040;,
  0.865320;1.552990;,
  0.715680;1.491410;,
  0.715680;2.258040;,
  0.570240;0.345460;,
  0.570240;1.134610;,
  0.566040;1.468880;,
  0.566040;2.258040;,
  0.420610;0.367990;,
  0.420610;1.134610;,
  0.416400;2.258040;,
  0.416400;1.491410;,
  0.270970;0.429570;,
  0.270970;1.134610;,
  0.266760;2.258040;,
  0.266760;1.552990;,
  0.974940;0.320210;,
  0.772590;0.236940;,
  0.974940;1.273600;,
  0.772590;1.273600;,
  0.570240;0.206470;,
  0.570240;1.273600;,
  0.367900;0.236940;,
  0.367900;1.273600;,
  0.165550;0.320210;,
  0.165550;1.273600;,
  0.878880;0.419870;,
  0.724560;0.356360;,
  0.878880;1.146940;,
  0.724560;1.146940;,
  0.570240;0.333130;,
  0.570240;1.146940;,
  0.415930;0.356360;,
  0.415930;1.146940;,
  0.261610;0.419870;,
  0.261610;1.146940;,
  0.000000;0.000000;,
  0.125000;0.000000;,
  0.125000;1.000000;,
  0.000000;1.000000;,
  0.250000;0.000000;,
  0.250000;1.000000;,
  0.375000;0.000000;,
  0.375000;1.000000;,
  0.500000;0.000000;,
  0.500000;1.000000;,
  0.625000;0.000000;,
  0.625000;1.000000;,
  0.750000;0.000000;,
  0.750000;1.000000;,
  0.875000;0.000000;,
  0.875000;1.000000;,
  1.000000;0.000000;,
  1.000000;1.000000;,
  0.062500;0.000000;,
  0.187500;0.000000;,
  0.312500;0.000000;,
  0.437500;0.000000;,
  0.562500;0.000000;,
  0.687500;0.000000;,
  0.812500;0.000000;,
  0.937500;0.000000;,
  0.125000;1.000000;,
  0.000000;1.000000;,
  0.250000;1.000000;,
  0.375000;1.000000;,
  0.500000;1.000000;,
  0.625000;1.000000;,
  0.750000;1.000000;,
  0.875000;1.000000;,
  1.000000;1.000000;,
  0.125000;1.000000;,
  0.000000;1.000000;,
  0.062500;1.000000;,
  0.250000;1.000000;,
  0.187500;1.000000;,
  0.375000;1.000000;,
  0.312500;1.000000;,
  0.500000;1.000000;,
  0.437500;1.000000;,
  0.625000;1.000000;,
  0.562500;1.000000;,
  0.750000;1.000000;,
  0.687500;1.000000;,
  0.875000;1.000000;,
  0.812500;1.000000;,
  1.000000;1.000000;,
  0.937500;1.000000;,
  0.000000;0.000000;,
  0.000000;0.000000;,
  0.000000;0.000000;,
  0.000000;0.000000;,
  0.000000;0.000000;,
  0.000000;0.000000;,
  0.000000;0.000000;,
  0.000000;0.000000;,
  0.000000;0.000000;,
  0.000000;0.000000;,
  0.000000;0.000000;,
  0.000000;0.000000;,
  0.000000;0.000000;,
  0.000000;0.000000;,
  0.000000;0.000000;,
  0.000000;0.000000;,
  0.000000;0.000000;,
  0.000000;0.000000;,
  0.000000;0.000000;,
  0.000000;0.000000;,
  0.000000;0.000000;,
  0.000000;0.000000;,
  0.000000;0.000000;,
  0.000000;0.000000;,
  0.000000;0.000000;,
  0.000000;0.000000;,
  0.000000;0.000000;,
  0.000000;0.000000;,
  0.000000;0.000000;,
  0.000000;0.000000;,
  0.000000;0.000000;,
  0.000000;0.000000;,
  0.000000;0.000000;,
  0.000000;0.000000;,
  0.000000;0.000000;,
  0.000000;0.000000;,
  0.000000;0.000000;,
  0.000000;0.000000;,
  0.000000;0.000000;,
  0.000000;0.000000;,
  0.000000;0.000000;,
  0.000000;0.000000;,
  0.000000;0.000000;,
  0.000000;0.000000;,
  0.000000;0.000000;,
  0.000000;0.000000;,
  0.000000;0.000000;,
  0.000000;0.000000;,
  0.000000;0.000000;,
  0.000000;0.000000;,
  0.000000;0.000000;,
  0.000000;0.000000;,
  0.000000;0.000000;,
  0.000000;0.000000;,
  0.000000;0.000000;,
  0.000000;0.000000;,
  0.000000;0.000000;,
  0.000000;0.000000;,
  0.000000;0.000000;,
  0.000000;0.000000;,
  0.000000;0.000000;,
  0.000000;0.000000;,
  0.000000;0.000000;,
  0.000000;0.000000;,
  0.000000;0.000000;,
  0.000000;0.000000;,
  0.000000;0.000000;,
  0.000000;0.000000;,
  0.000000;0.000000;,
  0.000000;0.000000;,
  0.000000;0.000000;,
  0.000000;0.000000;,
  0.000000;0.000000;,
  0.000000;0.000000;,
  0.000000;0.000000;,
  0.000000;0.000000;,
  0.000000;0.000000;,
  0.000000;0.000000;,
  0.000000;0.000000;,
  0.000000;0.000000;,
  0.000000;0.000000;,
  0.000000;0.000000;,
  0.000000;0.000000;,
  0.000000;0.000000;,
  0.000000;0.000000;,
  0.000000;0.000000;,
  0.000000;0.000000;,
  0.000000;0.000000;,
  0.000000;0.000000;,
  0.000000;0.000000;,
  0.000000;0.000000;,
  0.000000;0.000000;,
  0.000000;0.000000;,
  0.000000;0.000000;,
  0.000000;0.000000;,
  0.000000;0.000000;,
  0.000000;0.000000;,
  0.000000;0.000000;,
  0.000000;0.000000;,
  0.000000;0.000000;,
  0.000000;0.000000;,
  0.000000;0.000000;,
  0.000000;0.000000;,
  0.000000;0.000000;,
  0.000000;0.000000;,
  0.000000;0.000000;,
  0.000000;0.000000;,
  0.000000;0.000000;,
  0.000000;0.000000;,
  0.000000;0.000000;,
  0.000000;0.000000;,
  0.000000;0.000000;,
  0.000000;0.000000;,
  0.000000;0.000000;,
  0.000000;0.000000;,
  0.000000;0.000000;,
  0.000000;0.000000;,
  0.000000;0.000000;,
  0.000000;0.000000;,
  0.000000;0.000000;,
  0.000000;0.000000;,
  0.000000;0.000000;,
  0.000000;0.000000;,
  0.000000;0.000000;,
  0.000000;0.000000;,
  0.000000;0.000000;,
  0.000000;0.000000;,
  0.000000;0.000000;,
  0.000000;0.000000;,
  0.000000;0.000000;,
  0.000000;0.000000;,
  0.000000;0.000000;,
  0.000000;0.000000;,
  0.000000;0.000000;,
  0.000000;0.000000;,
  0.000000;0.000000;,
  0.000000;0.000000;,
  0.000000;0.000000;,
  0.000000;0.000000;,
  0.000000;0.000000;,
  0.000000;0.000000;,
  0.000000;0.000000;,
  0.000000;0.000000;,
  0.000000;0.000000;,
  0.000000;0.000000;,
  0.000000;0.000000;,
  0.000000;0.000000;,
  0.000000;0.000000;,
  0.000000;0.000000;,
  0.000000;0.000000;,
  0.000000;0.000000;,
  0.000000;0.000000;,
  0.000000;0.000000;,
  0.000000;0.000000;,
  0.000000;1.000000;,
  0.125000;1.000000;,
  0.125000;0.000000;,
  0.000000;0.000000;,
  0.250000;1.000000;,
  0.250000;0.000000;,
  0.375000;1.000000;,
  0.375000;0.000000;,
  0.500000;1.000000;,
  0.500000;0.000000;,
  0.625000;1.000000;,
  0.625000;0.000000;,
  0.750000;1.000000;,
  0.750000;0.000000;,
  0.875000;1.000000;,
  0.875000;0.000000;,
  1.000000;1.000000;,
  1.000000;0.000000;,
  0.062500;0.000000;,
  0.187500;0.000000;,
  0.312500;0.000000;,
  0.437500;0.000000;,
  0.562500;0.000000;,
  0.687500;0.000000;,
  0.812500;0.000000;,
  0.937500;0.000000;,
  0.000000;1.000000;,
  0.125000;1.000000;,
  0.250000;1.000000;,
  0.375000;1.000000;,
  0.500000;1.000000;,
  0.625000;1.000000;,
  0.750000;1.000000;,
  0.875000;1.000000;,
  1.000000;1.000000;,
  0.000000;1.000000;,
  0.125000;1.000000;,
  0.062500;1.000000;,
  0.250000;1.000000;,
  0.187500;1.000000;,
  0.375000;1.000000;,
  0.312500;1.000000;,
  0.500000;1.000000;,
  0.437500;1.000000;,
  0.625000;1.000000;,
  0.562500;1.000000;,
  0.750000;1.000000;,
  0.687500;1.000000;,
  0.875000;1.000000;,
  0.812500;1.000000;,
  1.000000;1.000000;,
  0.937500;1.000000;,
  0.000000;0.000000;,
  0.000000;0.000000;,
  0.000000;0.000000;,
  0.000000;0.000000;,
  0.000000;0.000000;,
  0.000000;0.000000;,
  0.000000;0.000000;,
  0.000000;0.000000;,
  0.000000;0.000000;,
  0.000000;0.000000;,
  0.000000;0.000000;,
  0.000000;0.000000;,
  0.000000;0.000000;,
  0.000000;0.000000;,
  0.000000;0.000000;,
  0.000000;0.000000;,
  0.000000;0.000000;,
  0.000000;0.000000;,
  0.000000;0.000000;,
  0.000000;0.000000;,
  0.000000;0.000000;,
  0.000000;0.000000;,
  0.000000;0.000000;,
  0.000000;0.000000;,
  0.000000;0.000000;,
  0.000000;0.000000;,
  0.000000;0.000000;,
  0.000000;0.000000;,
  0.000000;0.000000;,
  0.000000;0.000000;,
  0.000000;0.000000;,
  0.000000;0.000000;,
  0.000000;0.000000;,
  0.000000;0.000000;,
  0.000000;0.000000;,
  0.000000;0.000000;,
  0.000000;0.000000;,
  0.000000;0.000000;,
  0.000000;0.000000;,
  0.000000;0.000000;,
  0.000000;0.000000;,
  0.000000;0.000000;,
  0.000000;0.000000;,
  0.000000;0.000000;,
  0.000000;0.000000;,
  0.000000;0.000000;,
  0.000000;0.000000;,
  0.000000;0.000000;,
  0.000000;0.000000;,
  0.000000;0.000000;,
  0.000000;0.000000;,
  0.000000;0.000000;,
  0.000000;0.000000;,
  0.000000;0.000000;,
  0.000000;0.000000;,
  0.000000;0.000000;,
  0.000000;0.000000;,
  0.000000;0.000000;,
  0.000000;0.000000;,
  0.000000;0.000000;,
  0.000000;0.000000;,
  0.000000;0.000000;,
  0.000000;0.000000;,
  0.000000;0.000000;,
  0.000000;0.000000;,
  0.000000;0.000000;,
  0.000000;0.000000;,
  0.000000;0.000000;,
  0.000000;0.000000;,
  0.000000;0.000000;,
  0.000000;0.000000;,
  0.000000;0.000000;,
  0.000000;0.000000;,
  0.000000;0.000000;,
  0.000000;0.000000;,
  0.000000;0.000000;,
  0.000000;0.000000;,
  0.000000;0.000000;,
  0.000000;0.000000;,
  0.000000;0.000000;,
  0.000000;0.000000;,
  0.000000;0.000000;,
  0.000000;0.000000;,
  0.000000;0.000000;,
  0.000000;0.000000;,
  0.000000;0.000000;,
  0.000000;0.000000;,
  0.000000;0.000000;,
  0.000000;0.000000;,
  0.000000;0.000000;,
  0.000000;0.000000;,
  0.000000;0.000000;,
  0.000000;0.000000;,
  0.000000;0.000000;,
  0.000000;0.000000;,
  0.000000;0.000000;,
  0.000000;0.000000;,
  0.000000;0.000000;,
  0.000000;0.000000;,
  0.000000;0.000000;,
  0.000000;0.000000;,
  0.000000;0.000000;,
  0.000000;0.000000;,
  0.000000;0.000000;,
  0.000000;0.000000;,
  0.000000;0.000000;,
  0.000000;0.000000;,
  0.000000;0.000000;,
  0.000000;0.000000;,
  0.000000;0.000000;,
  0.000000;0.000000;,
  0.000000;0.000000;,
  0.000000;0.000000;,
  0.000000;0.000000;,
  0.000000;0.000000;,
  0.000000;0.000000;,
  0.000000;0.000000;,
  0.000000;0.000000;,
  0.000000;0.000000;,
  0.000000;0.000000;,
  0.000000;0.000000;,
  0.000000;0.000000;,
  0.000000;0.000000;,
  0.000000;0.000000;,
  0.000000;0.000000;,
  0.000000;0.000000;,
  0.000000;0.000000;,
  0.000000;0.000000;,
  0.000000;0.000000;,
  0.000000;0.000000;,
  0.000000;0.000000;,
  0.000000;0.000000;,
  0.000000;0.000000;,
  0.000000;0.000000;,
  0.000000;0.000000;,
  0.000000;0.000000;,
  0.000000;0.000000;,
  0.000000;0.000000;,
  0.000000;0.000000;,
  0.000000;0.000000;,
  0.000000;0.000000;,
  0.000000;0.000000;,
  0.000000;0.000000;,
  0.000000;0.000000;,
  0.000000;0.000000;,
  0.000000;0.000000;,
  0.000000;0.000000;,
  0.000000;0.000000;,
  0.000000;0.000000;,
  0.000000;0.000000;,
  0.000000;0.000000;,
  0.000000;0.000000;,
  0.000000;0.000000;,
  0.000000;0.000000;;
 }
}
