xof 0302txt 0064
template Header {
 <3D82AB43-62DA-11cf-AB39-0020AF71E433>
 WORD major;
 WORD minor;
 DWORD flags;
}

template Vector {
 <3D82AB5E-62DA-11cf-AB39-0020AF71E433>
 FLOAT x;
 FLOAT y;
 FLOAT z;
}

template Coords2d {
 <F6F23F44-7686-11cf-8F52-0040333594A3>
 FLOAT u;
 FLOAT v;
}

template Matrix4x4 {
 <F6F23F45-7686-11cf-8F52-0040333594A3>
 array FLOAT matrix[16];
}

template ColorRGBA {
 <35FF44E0-6C7C-11cf-8F52-0040333594A3>
 FLOAT red;
 FLOAT green;
 FLOAT blue;
 FLOAT alpha;
}

template ColorRGB {
 <D3E16E81-7835-11cf-8F52-0040333594A3>
 FLOAT red;
 FLOAT green;
 FLOAT blue;
}

template IndexedColor {
 <1630B820-7842-11cf-8F52-0040333594A3>
 DWORD index;
 ColorRGBA indexColor;
}

template Boolean {
 <4885AE61-78E8-11cf-8F52-0040333594A3>
 WORD truefalse;
}

template Boolean2d {
 <4885AE63-78E8-11cf-8F52-0040333594A3>
 Boolean u;
 Boolean v;
}

template MaterialWrap {
 <4885AE60-78E8-11cf-8F52-0040333594A3>
 Boolean u;
 Boolean v;
}

template TextureFilename {
 <A42790E1-7810-11cf-8F52-0040333594A3>
 STRING filename;
}

template Material {
 <3D82AB4D-62DA-11cf-AB39-0020AF71E433>
 ColorRGBA faceColor;
 FLOAT power;
 ColorRGB specularColor;
 ColorRGB emissiveColor;
 [...]
}

template MeshFace {
 <3D82AB5F-62DA-11cf-AB39-0020AF71E433>
 DWORD nFaceVertexIndices;
 array DWORD faceVertexIndices[nFaceVertexIndices];
}

template MeshFaceWraps {
 <4885AE62-78E8-11cf-8F52-0040333594A3>
 DWORD nFaceWrapValues;
 Boolean2d faceWrapValues;
}

template MeshTextureCoords {
 <F6F23F40-7686-11cf-8F52-0040333594A3>
 DWORD nTextureCoords;
 array Coords2d textureCoords[nTextureCoords];
}

template MeshMaterialList {
 <F6F23F42-7686-11cf-8F52-0040333594A3>
 DWORD nMaterials;
 DWORD nFaceIndexes;
 array DWORD faceIndexes[nFaceIndexes];
 [Material]
}

template MeshNormals {
 <F6F23F43-7686-11cf-8F52-0040333594A3>
 DWORD nNormals;
 array Vector normals[nNormals];
 DWORD nFaceNormals;
 array MeshFace faceNormals[nFaceNormals];
}

template MeshVertexColors {
 <1630B821-7842-11cf-8F52-0040333594A3>
 DWORD nVertexColors;
 array IndexedColor vertexColors[nVertexColors];
}

template Mesh {
 <3D82AB44-62DA-11cf-AB39-0020AF71E433>
 DWORD nVertices;
 array Vector vertices[nVertices];
 DWORD nFaces;
 array MeshFace faces[nFaces];
 [...]
}

Header{
1;
0;
1;
}

Mesh {
 508;
 -0.44500;1.80348;-0.02000;,
 -0.32296;1.80348;-0.02000;,
 -0.32296;0.18023;-0.02000;,
 -0.44500;0.18023;-0.02000;,
 0.32296;1.80348;-0.02000;,
 0.44500;1.80348;-0.02000;,
 0.44500;0.18023;-0.02000;,
 0.32296;0.18023;-0.02000;,
 -0.32296;0.00000;-0.02000;,
 -0.44500;0.00000;-0.02000;,
 0.32296;0.00000;-0.02000;,
 0.44500;0.00000;-0.02000;,
 0.31973;1.80018;-0.03000;,
 -0.31973;1.80018;-0.03000;,
 0.31973;0.18353;-0.03000;,
 -0.31973;0.18353;-0.03000;,
 0.31032;1.79057;-0.02500;,
 -0.31032;1.79057;-0.02500;,
 -0.31032;1.79057;-0.03000;,
 0.31032;1.79057;-0.03000;,
 0.31032;0.19314;-0.02500;,
 0.31032;0.19314;-0.03000;,
 -0.31032;0.19314;-0.02500;,
 -0.31032;0.19314;-0.03000;,
 0.29791;1.77789;-0.02500;,
 -0.29791;1.77789;-0.02500;,
 0.29791;0.20582;-0.02500;,
 -0.29791;0.20582;-0.02500;,
 0.29791;1.77789;-0.02000;,
 -0.29791;1.77789;-0.02000;,
 0.29791;0.20582;-0.02000;,
 -0.29791;0.20582;-0.02000;,
 0.24648;1.72533;-0.02000;,
 -0.24648;1.72533;-0.02000;,
 0.24648;0.25838;-0.02000;,
 -0.24648;0.25838;-0.02000;,
 0.24401;1.72281;-0.02500;,
 -0.24401;1.72281;-0.02500;,
 0.24401;0.26089;-0.02500;,
 -0.24401;0.26089;-0.02500;,
 -0.31664;1.79703;-0.03108;,
 0.31664;1.79703;-0.03108;,
 0.31664;0.18668;-0.03108;,
 -0.31664;0.18668;-0.03108;,
 -0.44500;0.18023;0.02000;,
 -0.32296;0.18023;0.02000;,
 -0.32296;1.80348;0.02000;,
 -0.44500;1.80348;0.02000;,
 0.32296;0.18023;0.02000;,
 0.44500;0.18023;0.02000;,
 0.44500;1.80348;0.02000;,
 0.32296;1.80348;0.02000;,
 -0.44500;0.00000;0.02000;,
 -0.32296;0.00000;0.02000;,
 0.32296;0.00000;0.02000;,
 0.44500;0.00000;0.02000;,
 -0.31973;1.80018;0.03000;,
 0.31973;1.80018;0.03000;,
 0.31973;0.18353;0.03000;,
 -0.31973;0.18353;0.03000;,
 0.31032;1.79057;0.03000;,
 -0.31032;1.79057;0.03000;,
 -0.31032;1.79057;0.02500;,
 0.31032;1.79057;0.02500;,
 0.31032;0.19314;0.03000;,
 0.31032;0.19314;0.02500;,
 -0.31032;0.19314;0.03000;,
 -0.31032;0.19314;0.02500;,
 -0.29791;1.77789;0.02500;,
 0.29791;1.77789;0.02500;,
 0.29791;0.20582;0.02500;,
 -0.29791;0.20582;0.02500;,
 -0.29791;1.77789;0.02000;,
 0.29791;1.77789;0.02000;,
 0.29791;0.20582;0.02000;,
 -0.29791;0.20582;0.02000;,
 -0.24648;1.72533;0.02000;,
 0.24648;1.72533;0.02000;,
 0.24648;0.25838;0.02000;,
 -0.24648;0.25838;0.02000;,
 -0.24401;1.72281;0.02500;,
 0.24401;1.72281;0.02500;,
 0.24401;0.26089;0.02500;,
 -0.24401;0.26089;0.02500;,
 0.31664;1.79703;0.03108;,
 -0.31664;1.79703;0.03108;,
 0.31664;0.18668;0.03108;,
 -0.31664;0.18668;0.03108;,
 -0.44500;1.98000;-0.02000;,
 -0.44500;1.98000;0.02000;,
 -0.32296;1.98000;0.02000;,
 -0.32296;1.98000;-0.02000;,
 0.32296;1.98000;-0.02000;,
 0.32296;1.98000;0.02000;,
 0.44500;1.98000;0.02000;,
 0.44500;1.98000;-0.02000;,
 -0.38801;0.96801;-0.01347;,
 -0.36249;0.95744;-0.01347;,
 -0.37019;0.94974;-0.03095;,
 -0.38801;0.95712;-0.03095;,
 -0.35192;0.93191;-0.01347;,
 -0.36281;0.93191;-0.03095;,
 -0.36249;0.90639;-0.01347;,
 -0.37019;0.91409;-0.03095;,
 -0.38801;0.89582;-0.01347;,
 -0.38801;0.90671;-0.03095;,
 -0.41353;0.90639;-0.01347;,
 -0.40583;0.91409;-0.03095;,
 -0.42410;0.93191;-0.01347;,
 -0.41322;0.93191;-0.03095;,
 -0.41353;0.95744;-0.01347;,
 -0.40583;0.94974;-0.03095;,
 -0.38801;0.96801;-0.01347;,
 -0.38801;0.95712;-0.03095;,
 -0.38801;0.93191;-0.01347;,
 -0.38801;0.93191;-0.01347;,
 -0.38801;0.93191;-0.01347;,
 -0.38801;0.93191;-0.01347;,
 -0.38801;0.93191;-0.01347;,
 -0.38801;0.93191;-0.01347;,
 -0.38801;0.93191;-0.01347;,
 -0.38801;0.93191;-0.01347;,
 -0.37681;0.94312;-0.03095;,
 -0.38801;0.94776;-0.03095;,
 -0.37216;0.93191;-0.03095;,
 -0.37681;0.92071;-0.03095;,
 -0.38801;0.91607;-0.03095;,
 -0.39922;0.92071;-0.03095;,
 -0.40386;0.93191;-0.03095;,
 -0.39922;0.94312;-0.03095;,
 -0.38801;0.94776;-0.03095;,
 -0.37681;0.94312;-0.05351;,
 -0.38801;0.94776;-0.05351;,
 -0.38801;0.93191;-0.05351;,
 -0.37216;0.93191;-0.05351;,
 -0.38801;0.93191;-0.05351;,
 -0.37681;0.92071;-0.05351;,
 -0.38801;0.93191;-0.05351;,
 -0.38801;0.91607;-0.05351;,
 -0.38801;0.93191;-0.05351;,
 -0.39922;0.92071;-0.05351;,
 -0.38801;0.93191;-0.05351;,
 -0.40386;0.93191;-0.05351;,
 -0.38801;0.93191;-0.05351;,
 -0.39922;0.94312;-0.05351;,
 -0.38801;0.93191;-0.05351;,
 -0.38801;0.94776;-0.05351;,
 -0.38801;0.93191;-0.05351;,
 -0.22351;0.92497;-0.06073;,
 -0.23013;0.92112;-0.06105;,
 -0.23120;0.92478;-0.06434;,
 -0.22387;0.92828;-0.06349;,
 -0.23157;0.92588;-0.06434;,
 -0.23284;0.92953;-0.06104;,
 -0.22534;0.93114;-0.06074;,
 -0.24667;0.91690;-0.06510;,
 -0.25083;0.92278;-0.06512;,
 -0.24468;0.91368;-0.06131;,
 -0.25842;0.92167;-0.06526;,
 -0.25384;0.91436;-0.06521;,
 -0.25301;0.92600;-0.06134;,
 -0.25185;0.91114;-0.06140;,
 -0.26060;0.92489;-0.06151;,
 -0.27682;0.90968;-0.06615;,
 -0.27718;0.91907;-0.06605;,
 -0.27676;0.90584;-0.06240;,
 -0.28482;0.91871;-0.06654;,
 -0.28441;0.90867;-0.06665;,
 -0.27743;0.92291;-0.06223;,
 -0.28434;0.90484;-0.06291;,
 -0.28508;0.92254;-0.06272;,
 -0.30167;0.90770;-0.06814;,
 -0.30092;0.91904;-0.06790;,
 -0.30851;0.91989;-0.06870;,
 -0.30933;0.90777;-0.06895;,
 -0.30077;0.92287;-0.06405;,
 -0.30202;0.90387;-0.06445;,
 -0.30967;0.90394;-0.06520;,
 -0.30836;0.92372;-0.06485;,
 -0.32436;0.90885;-0.07041;,
 -0.32340;0.92294;-0.07063;,
 -0.32472;0.90502;-0.06647;,
 -0.33034;0.92586;-0.07094;,
 -0.33183;0.91032;-0.07074;,
 -0.32323;0.92676;-0.06680;,
 -0.33219;0.90649;-0.06681;,
 -0.33017;0.92969;-0.06711;,
 -0.34337;0.91414;-0.07117;,
 -0.34208;0.93377;-0.07134;,
 -0.34379;0.91032;-0.06725;,
 -0.34825;0.93832;-0.07147;,
 -0.35084;0.91566;-0.07135;,
 -0.34185;0.93759;-0.06748;,
 -0.35126;0.91184;-0.06743;,
 -0.34802;0.94214;-0.06759;,
 -0.36058;0.91648;-0.07148;,
 -0.35790;0.94597;-0.07153;,
 -0.36110;0.91267;-0.06756;,
 -0.36465;0.94919;-0.07152;,
 -0.36814;0.91593;-0.07052;,
 -0.35758;0.94979;-0.06763;,
 -0.36866;0.91211;-0.06669;,
 -0.36432;0.95301;-0.06761;,
 -0.38418;0.91206;-0.07092;,
 -0.37726;0.95193;-0.07075;,
 -0.38490;0.90828;-0.06710;,
 -0.38482;0.95231;-0.07094;,
 -0.39166;0.91199;-0.07111;,
 -0.37673;0.95572;-0.06689;,
 -0.39239;0.90820;-0.06729;,
 -0.38429;0.95610;-0.06708;,
 -0.40360;0.91456;-0.07141;,
 -0.39375;0.95141;-0.07116;,
 -0.40471;0.91086;-0.06760;,
 -0.40038;0.94837;-0.07133;,
 -0.40969;0.91841;-0.07157;,
 -0.39283;0.95511;-0.06730;,
 -0.41080;0.91471;-0.06776;,
 -0.39946;0.95207;-0.06747;,
 -0.41319;0.92253;-0.07166;,
 -0.41113;0.93794;-0.07160;,
 -0.41389;0.91874;-0.06784;,
 -0.41405;0.93533;-0.06784;,
 -0.41562;0.92557;-0.06788;,
 -0.41062;0.94173;-0.06775;,
 -0.22527;0.93114;-0.05688;,
 -0.23277;0.92953;-0.05635;,
 -0.23142;0.92533;-0.05303;,
 -0.22435;0.92864;-0.05410;,
 -0.23006;0.92112;-0.05635;,
 -0.22343;0.92497;-0.05688;,
 -0.25295;0.92600;-0.05599;,
 -0.25086;0.92278;-0.05215;,
 -0.25388;0.91436;-0.05215;,
 -0.24671;0.91690;-0.05215;,
 -0.25846;0.92167;-0.05215;,
 -0.24462;0.91368;-0.05599;,
 -0.26055;0.92489;-0.05599;,
 -0.25180;0.91114;-0.05599;,
 -0.27722;0.91907;-0.05215;,
 -0.27687;0.90968;-0.05215;,
 -0.27738;0.92291;-0.05599;,
 -0.28446;0.90867;-0.05215;,
 -0.28487;0.91871;-0.05215;,
 -0.27671;0.90584;-0.05599;,
 -0.28503;0.92254;-0.05599;,
 -0.28430;0.90484;-0.05599;,
 -0.30173;0.90770;-0.05215;,
 -0.30097;0.91904;-0.05215;,
 -0.30197;0.90387;-0.05599;,
 -0.30072;0.92287;-0.05599;,
 -0.30939;0.90777;-0.05215;,
 -0.30857;0.91989;-0.05215;,
 -0.30963;0.90394;-0.05599;,
 -0.30832;0.92372;-0.05599;,
 -0.32347;0.92294;-0.05215;,
 -0.32442;0.90885;-0.05215;,
 -0.32320;0.92676;-0.05599;,
 -0.33189;0.91032;-0.05215;,
 -0.33040;0.92586;-0.05215;,
 -0.32468;0.90502;-0.05599;,
 -0.33014;0.92969;-0.05599;,
 -0.33216;0.90649;-0.05599;,
 -0.34215;0.93377;-0.05215;,
 -0.34344;0.91414;-0.05215;,
 -0.34182;0.93759;-0.05599;,
 -0.35091;0.91566;-0.05215;,
 -0.34832;0.93832;-0.05215;,
 -0.34376;0.91032;-0.05599;,
 -0.34800;0.94214;-0.05599;,
 -0.35123;0.91184;-0.05599;,
 -0.35798;0.94597;-0.05215;,
 -0.36066;0.91648;-0.05215;,
 -0.35755;0.94979;-0.05599;,
 -0.36822;0.91593;-0.05215;,
 -0.36472;0.94919;-0.05215;,
 -0.36108;0.91267;-0.05599;,
 -0.36430;0.95301;-0.05599;,
 -0.36864;0.91211;-0.05599;,
 -0.37734;0.95193;-0.05215;,
 -0.38426;0.91206;-0.05215;,
 -0.37671;0.95572;-0.05599;,
 -0.39175;0.91199;-0.05215;,
 -0.38490;0.95231;-0.05215;,
 -0.38489;0.90828;-0.05599;,
 -0.38427;0.95610;-0.05599;,
 -0.39238;0.90820;-0.05599;,
 -0.39384;0.95141;-0.05215;,
 -0.40368;0.91456;-0.05215;,
 -0.39282;0.95511;-0.05599;,
 -0.40978;0.91841;-0.05215;,
 -0.40047;0.94837;-0.05215;,
 -0.40470;0.91086;-0.05599;,
 -0.39945;0.95207;-0.05599;,
 -0.41079;0.91471;-0.05599;,
 -0.41123;0.93794;-0.05215;,
 -0.41328;0.92253;-0.05215;,
 -0.41061;0.94173;-0.05599;,
 -0.41562;0.92557;-0.05599;,
 -0.41404;0.93533;-0.05599;,
 -0.41389;0.91874;-0.05599;,
 -0.21641;0.93385;-0.06016;,
 -0.38801;0.95712;0.03095;,
 -0.37019;0.94974;0.03095;,
 -0.36249;0.95744;0.01347;,
 -0.38801;0.96801;0.01347;,
 -0.36281;0.93191;0.03095;,
 -0.35192;0.93191;0.01347;,
 -0.37019;0.91409;0.03095;,
 -0.36249;0.90639;0.01347;,
 -0.38801;0.90671;0.03095;,
 -0.38801;0.89582;0.01347;,
 -0.40583;0.91409;0.03095;,
 -0.41353;0.90639;0.01347;,
 -0.41322;0.93191;0.03095;,
 -0.42410;0.93191;0.01347;,
 -0.40583;0.94974;0.03095;,
 -0.41353;0.95744;0.01347;,
 -0.38801;0.95712;0.03095;,
 -0.38801;0.96801;0.01347;,
 -0.38801;0.93191;0.01347;,
 -0.38801;0.93191;0.01347;,
 -0.38801;0.93191;0.01347;,
 -0.38801;0.93191;0.01347;,
 -0.38801;0.93191;0.01347;,
 -0.38801;0.93191;0.01347;,
 -0.38801;0.93191;0.01347;,
 -0.38801;0.93191;0.01347;,
 -0.38801;0.94776;0.03095;,
 -0.37681;0.94312;0.03095;,
 -0.37216;0.93191;0.03095;,
 -0.37681;0.92071;0.03095;,
 -0.38801;0.91607;0.03095;,
 -0.39922;0.92071;0.03095;,
 -0.40386;0.93191;0.03095;,
 -0.39922;0.94312;0.03095;,
 -0.38801;0.94776;0.03095;,
 -0.38801;0.94776;0.05351;,
 -0.37681;0.94312;0.05351;,
 -0.38801;0.93191;0.05351;,
 -0.37216;0.93191;0.05351;,
 -0.38801;0.93191;0.05351;,
 -0.37681;0.92071;0.05351;,
 -0.38801;0.93191;0.05351;,
 -0.38801;0.91607;0.05351;,
 -0.38801;0.93191;0.05351;,
 -0.39922;0.92071;0.05351;,
 -0.38801;0.93191;0.05351;,
 -0.40386;0.93191;0.05351;,
 -0.38801;0.93191;0.05351;,
 -0.39922;0.94312;0.05351;,
 -0.38801;0.93191;0.05351;,
 -0.38801;0.94776;0.05351;,
 -0.38801;0.93191;0.05351;,
 -0.22387;0.92828;0.06349;,
 -0.23120;0.92478;0.06434;,
 -0.23013;0.92112;0.06105;,
 -0.22351;0.92497;0.06073;,
 -0.22534;0.93114;0.06074;,
 -0.23284;0.92953;0.06104;,
 -0.23157;0.92588;0.06434;,
 -0.25083;0.92278;0.06512;,
 -0.24667;0.91690;0.06510;,
 -0.24468;0.91368;0.06131;,
 -0.25384;0.91436;0.06521;,
 -0.25842;0.92167;0.06526;,
 -0.25301;0.92600;0.06134;,
 -0.25185;0.91114;0.06140;,
 -0.26060;0.92489;0.06151;,
 -0.27718;0.91907;0.06605;,
 -0.27682;0.90968;0.06615;,
 -0.27676;0.90584;0.06240;,
 -0.28441;0.90867;0.06665;,
 -0.28482;0.91871;0.06654;,
 -0.27743;0.92291;0.06223;,
 -0.28434;0.90484;0.06291;,
 -0.28508;0.92254;0.06272;,
 -0.30092;0.91904;0.06790;,
 -0.30167;0.90770;0.06814;,
 -0.30933;0.90777;0.06895;,
 -0.30851;0.91989;0.06870;,
 -0.30077;0.92287;0.06405;,
 -0.30202;0.90387;0.06445;,
 -0.30967;0.90394;0.06520;,
 -0.30836;0.92372;0.06485;,
 -0.32340;0.92294;0.07063;,
 -0.32436;0.90885;0.07041;,
 -0.32472;0.90502;0.06647;,
 -0.33183;0.91032;0.07074;,
 -0.33034;0.92586;0.07094;,
 -0.32323;0.92676;0.06680;,
 -0.33219;0.90649;0.06681;,
 -0.33017;0.92969;0.06711;,
 -0.34208;0.93377;0.07134;,
 -0.34337;0.91414;0.07117;,
 -0.34379;0.91032;0.06725;,
 -0.35084;0.91566;0.07135;,
 -0.34825;0.93832;0.07147;,
 -0.34185;0.93759;0.06748;,
 -0.35126;0.91184;0.06743;,
 -0.34802;0.94214;0.06759;,
 -0.35790;0.94597;0.07153;,
 -0.36058;0.91648;0.07148;,
 -0.36110;0.91267;0.06756;,
 -0.36814;0.91593;0.07052;,
 -0.36465;0.94919;0.07152;,
 -0.35758;0.94979;0.06763;,
 -0.36866;0.91211;0.06669;,
 -0.36432;0.95301;0.06761;,
 -0.37726;0.95193;0.07075;,
 -0.38418;0.91206;0.07092;,
 -0.38490;0.90828;0.06710;,
 -0.39166;0.91199;0.07111;,
 -0.38482;0.95231;0.07094;,
 -0.37673;0.95572;0.06689;,
 -0.39239;0.90820;0.06729;,
 -0.38429;0.95610;0.06708;,
 -0.39375;0.95141;0.07116;,
 -0.40360;0.91456;0.07141;,
 -0.40471;0.91086;0.06760;,
 -0.40969;0.91841;0.07157;,
 -0.40038;0.94837;0.07133;,
 -0.39283;0.95511;0.06730;,
 -0.41080;0.91471;0.06776;,
 -0.39946;0.95207;0.06747;,
 -0.41113;0.93794;0.07160;,
 -0.41319;0.92253;0.07166;,
 -0.41389;0.91874;0.06784;,
 -0.41562;0.92557;0.06788;,
 -0.41405;0.93533;0.06784;,
 -0.41062;0.94173;0.06775;,
 -0.22435;0.92864;0.05410;,
 -0.23142;0.92533;0.05303;,
 -0.23277;0.92953;0.05635;,
 -0.22527;0.93114;0.05688;,
 -0.22343;0.92497;0.05688;,
 -0.23006;0.92112;0.05635;,
 -0.25086;0.92278;0.05215;,
 -0.25295;0.92600;0.05599;,
 -0.25846;0.92167;0.05215;,
 -0.24671;0.91690;0.05215;,
 -0.25388;0.91436;0.05215;,
 -0.24462;0.91368;0.05599;,
 -0.26055;0.92489;0.05599;,
 -0.25180;0.91114;0.05599;,
 -0.27687;0.90968;0.05215;,
 -0.27722;0.91907;0.05215;,
 -0.27738;0.92291;0.05599;,
 -0.28487;0.91871;0.05215;,
 -0.28446;0.90867;0.05215;,
 -0.27671;0.90584;0.05599;,
 -0.28503;0.92254;0.05599;,
 -0.28430;0.90484;0.05599;,
 -0.30097;0.91904;0.05215;,
 -0.30173;0.90770;0.05215;,
 -0.30197;0.90387;0.05599;,
 -0.30072;0.92287;0.05599;,
 -0.30857;0.91989;0.05215;,
 -0.30939;0.90777;0.05215;,
 -0.30963;0.90394;0.05599;,
 -0.30832;0.92372;0.05599;,
 -0.32442;0.90885;0.05215;,
 -0.32347;0.92294;0.05215;,
 -0.32320;0.92676;0.05599;,
 -0.33040;0.92586;0.05215;,
 -0.33189;0.91032;0.05215;,
 -0.32468;0.90502;0.05599;,
 -0.33014;0.92969;0.05599;,
 -0.33216;0.90649;0.05599;,
 -0.34344;0.91414;0.05215;,
 -0.34215;0.93377;0.05215;,
 -0.34182;0.93759;0.05599;,
 -0.34832;0.93832;0.05215;,
 -0.35091;0.91566;0.05215;,
 -0.34376;0.91032;0.05599;,
 -0.34800;0.94214;0.05599;,
 -0.35123;0.91184;0.05599;,
 -0.36066;0.91648;0.05215;,
 -0.35798;0.94597;0.05215;,
 -0.35755;0.94979;0.05599;,
 -0.36472;0.94919;0.05215;,
 -0.36822;0.91593;0.05215;,
 -0.36108;0.91267;0.05599;,
 -0.36430;0.95301;0.05599;,
 -0.36864;0.91211;0.05599;,
 -0.38426;0.91206;0.05215;,
 -0.37734;0.95193;0.05215;,
 -0.37671;0.95572;0.05599;,
 -0.38490;0.95231;0.05215;,
 -0.39175;0.91199;0.05215;,
 -0.38489;0.90828;0.05599;,
 -0.38427;0.95610;0.05599;,
 -0.39238;0.90820;0.05599;,
 -0.40368;0.91456;0.05215;,
 -0.39384;0.95141;0.05215;,
 -0.39282;0.95511;0.05599;,
 -0.40047;0.94837;0.05215;,
 -0.40978;0.91841;0.05215;,
 -0.40470;0.91086;0.05599;,
 -0.39945;0.95207;0.05599;,
 -0.41079;0.91471;0.05599;,
 -0.41328;0.92253;0.05215;,
 -0.41123;0.93794;0.05215;,
 -0.41061;0.94173;0.05599;,
 -0.41404;0.93533;0.05599;,
 -0.41562;0.92557;0.05599;,
 -0.41389;0.91874;0.05599;,
 -0.21641;0.93385;0.06016;;
 
 490;
 4;0,1,2,3;,
 4;4,5,6,7;,
 4;3,2,8,9;,
 4;2,7,10,8;,
 4;7,6,11,10;,
 4;12,13,1,4;,
 4;14,12,4,7;,
 4;15,14,7,2;,
 4;13,15,2,1;,
 4;16,17,18,19;,
 4;20,16,19,21;,
 4;22,20,21,23;,
 4;17,22,23,18;,
 4;24,25,17,16;,
 4;26,24,16,20;,
 4;27,26,20,22;,
 4;25,27,22,17;,
 4;28,29,25,24;,
 4;30,28,24,26;,
 4;31,30,26,27;,
 4;29,31,27,25;,
 4;32,33,29,28;,
 4;34,32,28,30;,
 4;35,34,30,31;,
 4;33,35,31,29;,
 4;36,37,33,32;,
 4;38,36,32,34;,
 4;39,38,34,35;,
 4;37,39,35,33;,
 4;37,36,38,39;,
 4;18,40,41,19;,
 4;40,13,12,41;,
 4;19,41,42,21;,
 4;41,12,14,42;,
 4;21,42,43,23;,
 4;42,14,15,43;,
 4;23,43,40,18;,
 4;43,15,13,40;,
 4;44,45,46,47;,
 4;48,49,50,51;,
 4;52,53,45,44;,
 4;53,54,48,45;,
 4;54,55,49,48;,
 4;51,46,56,57;,
 4;48,51,57,58;,
 4;45,48,58,59;,
 4;46,45,59,56;,
 4;60,61,62,63;,
 4;64,60,63,65;,
 4;66,64,65,67;,
 4;61,66,67,62;,
 4;63,62,68,69;,
 4;65,63,69,70;,
 4;67,65,70,71;,
 4;62,67,71,68;,
 4;69,68,72,73;,
 4;70,69,73,74;,
 4;71,70,74,75;,
 4;68,71,75,72;,
 4;73,72,76,77;,
 4;74,73,77,78;,
 4;75,74,78,79;,
 4;72,75,79,76;,
 4;77,76,80,81;,
 4;78,77,81,82;,
 4;79,78,82,83;,
 4;76,79,83,80;,
 4;83,82,81,80;,
 4;60,84,85,61;,
 4;84,57,56,85;,
 4;64,86,84,60;,
 4;86,58,57,84;,
 4;66,87,86,64;,
 4;87,59,58,86;,
 4;61,85,87,66;,
 4;85,56,59,87;,
 4;3,44,47,0;,
 4;5,50,49,6;,
 4;8,53,52,9;,
 4;9,52,44,3;,
 4;10,54,53,8;,
 4;6,49,55,11;,
 4;11,55,54,10;,
 4;88,89,90,91;,
 4;0,47,89,88;,
 4;92,93,94,95;,
 4;95,94,50,5;,
 4;91,90,93,92;,
 4;91,1,0,88;,
 4;5,4,92,95;,
 4;93,51,50,94;,
 4;90,89,47,46;,
 4;51,93,90,46;,
 4;1,91,92,4;,
 4;96,97,98,99;,
 4;97,100,101,98;,
 4;100,102,103,101;,
 4;102,104,105,103;,
 4;104,106,107,105;,
 4;106,108,109,107;,
 4;108,110,111,109;,
 4;110,112,113,111;,
 3;114,97,96;,
 3;115,100,97;,
 3;116,102,100;,
 3;117,104,102;,
 3;118,106,104;,
 3;119,108,106;,
 3;120,110,108;,
 3;121,112,110;,
 4;122,123,99,98;,
 4;124,122,98,101;,
 4;125,124,101,103;,
 4;126,125,103,105;,
 4;127,126,105,107;,
 4;128,127,107,109;,
 4;129,128,109,111;,
 4;130,129,111,113;,
 4;131,132,123,122;,
 3;133,132,131;,
 4;134,131,122,124;,
 3;135,131,134;,
 4;136,134,124,125;,
 3;137,134,136;,
 4;138,136,125,126;,
 3;139,136,138;,
 4;140,138,126,127;,
 3;141,138,140;,
 4;142,140,127,128;,
 3;143,140,142;,
 4;144,142,128,129;,
 3;145,142,144;,
 4;146,144,129,130;,
 3;147,144,146;,
 4;148,149,150,151;,
 4;152,153,154,151;,
 4;152,150,155,156;,
 4;157,155,150,149;,
 4;158,156,155,159;,
 4;153,152,156,160;,
 4;157,161,159,155;,
 4;158,162,160,156;,
 4;159,163,164,158;,
 4;165,163,159,161;,
 4;166,164,163,167;,
 4;162,158,164,168;,
 4;165,169,167,163;,
 4;166,170,168,164;,
 4;171,172,166,167;,
 4;173,172,171,174;,
 4;170,166,172,175;,
 4;176,171,167,169;,
 4;176,177,174,171;,
 4;173,178,175,172;,
 4;174,179,180,173;,
 4;181,179,174,177;,
 4;182,180,179,183;,
 4;178,173,180,184;,
 4;181,185,183,179;,
 4;182,186,184,180;,
 4;183,187,188,182;,
 4;189,187,183,185;,
 4;190,188,187,191;,
 4;186,182,188,192;,
 4;189,193,191,187;,
 4;190,194,192,188;,
 4;191,195,196,190;,
 4;197,195,191,193;,
 4;198,196,195,199;,
 4;194,190,196,200;,
 4;197,201,199,195;,
 4;198,202,200,196;,
 4;199,203,204,198;,
 4;205,203,199,201;,
 4;206,204,203,207;,
 4;202,198,204,208;,
 4;205,209,207,203;,
 4;206,210,208,204;,
 4;207,211,212,206;,
 4;213,211,207,209;,
 4;214,212,211,215;,
 4;210,206,212,216;,
 4;213,217,215,211;,
 4;214,218,216,212;,
 4;215,219,220,214;,
 4;221,219,215,217;,
 4;222,220,219,223;,
 4;218,214,220,224;,
 3;221,223,219;,
 3;222,224,220;,
 4;225,226,227,228;,
 4;227,229,230,228;,
 4;231,232,227,226;,
 4;233,234,232,235;,
 4;229,227,234,236;,
 4;231,237,235,232;,
 4;233,238,236,234;,
 4;233,235,239,240;,
 4;241,239,235,237;,
 4;242,240,239,243;,
 4;238,233,240,244;,
 4;241,245,243,239;,
 4;242,246,244,240;,
 4;247,242,243,248;,
 4;246,242,247,249;,
 4;250,248,243,245;,
 4;251,247,248,252;,
 4;251,253,249,247;,
 4;250,254,252,248;,
 4;251,252,255,256;,
 4;257,255,252,254;,
 4;258,256,255,259;,
 4;253,251,256,260;,
 4;257,261,259,255;,
 4;258,262,260,256;,
 4;258,259,263,264;,
 4;265,263,259,261;,
 4;266,264,263,267;,
 4;262,258,264,268;,
 4;265,269,267,263;,
 4;266,270,268,264;,
 4;266,267,271,272;,
 4;273,271,267,269;,
 4;274,272,271,275;,
 4;270,266,272,276;,
 4;273,277,275,271;,
 4;274,278,276,272;,
 4;274,275,279,280;,
 4;281,279,275,277;,
 4;282,280,279,283;,
 4;278,274,280,284;,
 4;281,285,283,279;,
 4;282,286,284,280;,
 4;282,283,287,288;,
 4;289,287,283,285;,
 4;290,288,287,291;,
 4;286,282,288,292;,
 4;289,293,291,287;,
 4;290,294,292,288;,
 4;290,291,295,296;,
 4;297,295,291,293;,
 4;298,296,295,299;,
 4;294,290,296,300;,
 3;297,299,295;,
 3;298,300,296;,
 4;205,201,278,284;,
 4;276,278,201,197;,
 4;209,205,284,286;,
 4;149,148,230,229;,
 4;226,225,154,153;,
 4;157,149,229,236;,
 4;161,157,236,238;,
 4;153,160,231,226;,
 4;237,231,160,162;,
 4;165,161,238,244;,
 4;169,165,244,246;,
 4;162,168,241,237;,
 4;245,241,168,170;,
 4;170,175,250,245;,
 4;254,250,175,178;,
 4;176,169,246,249;,
 4;177,176,249,253;,
 4;181,177,253,260;,
 4;185,181,260,262;,
 4;178,184,257,254;,
 4;261,257,184,186;,
 4;189,185,262,268;,
 4;193,189,268,270;,
 4;186,192,265,261;,
 4;269,265,192,194;,
 4;197,193,270,276;,
 4;194,200,273,269;,
 4;277,273,200,202;,
 4;202,208,281,277;,
 4;285,281,208,210;,
 4;213,209,286,292;,
 4;217,213,292,294;,
 4;210,216,289,285;,
 4;293,289,216,218;,
 4;221,217,294,300;,
 4;223,221,300,298;,
 4;222,223,298,299;,
 4;224,222,299,297;,
 4;218,224,297,293;,
 3;151,150,152;,
 3;227,232,234;,
 3;301,148,151;,
 3;301,230,148;,
 3;301,151,154;,
 3;301,154,225;,
 3;301,225,228;,
 3;301,228,230;,
 4;302,303,304,305;,
 4;303,306,307,304;,
 4;306,308,309,307;,
 4;308,310,311,309;,
 4;310,312,313,311;,
 4;312,314,315,313;,
 4;314,316,317,315;,
 4;316,318,319,317;,
 3;305,304,320;,
 3;304,307,321;,
 3;307,309,322;,
 3;309,311,323;,
 3;311,313,324;,
 3;313,315,325;,
 3;315,317,326;,
 3;317,319,327;,
 4;303,302,328,329;,
 4;306,303,329,330;,
 4;308,306,330,331;,
 4;310,308,331,332;,
 4;312,310,332,333;,
 4;314,312,333,334;,
 4;316,314,334,335;,
 4;318,316,335,336;,
 4;329,328,337,338;,
 3;338,337,339;,
 4;330,329,338,340;,
 3;340,338,341;,
 4;331,330,340,342;,
 3;342,340,343;,
 4;332,331,342,344;,
 3;344,342,345;,
 4;333,332,344,346;,
 3;346,344,347;,
 4;334,333,346,348;,
 3;348,346,349;,
 4;335,334,348,350;,
 3;350,348,351;,
 4;336,335,350,352;,
 3;352,350,353;,
 4;354,355,356,357;,
 4;354,358,359,360;,
 4;361,362,355,360;,
 4;356,355,362,363;,
 4;364,362,361,365;,
 4;366,361,360,359;,
 4;362,364,367,363;,
 4;361,366,368,365;,
 4;365,369,370,364;,
 4;367,364,370,371;,
 4;372,370,369,373;,
 4;374,369,365,368;,
 4;370,372,375,371;,
 4;369,374,376,373;,
 4;372,373,377,378;,
 4;379,378,377,380;,
 4;381,377,373,376;,
 4;375,372,378,382;,
 4;378,379,383,382;,
 4;377,381,384,380;,
 4;380,385,386,379;,
 4;383,379,386,387;,
 4;388,386,385,389;,
 4;390,385,380,384;,
 4;386,388,391,387;,
 4;385,390,392,389;,
 4;389,393,394,388;,
 4;391,388,394,395;,
 4;396,394,393,397;,
 4;398,393,389,392;,
 4;394,396,399,395;,
 4;393,398,400,397;,
 4;397,401,402,396;,
 4;399,396,402,403;,
 4;404,402,401,405;,
 4;406,401,397,400;,
 4;402,404,407,403;,
 4;401,406,408,405;,
 4;405,409,410,404;,
 4;407,404,410,411;,
 4;412,410,409,413;,
 4;414,409,405,408;,
 4;410,412,415,411;,
 4;409,414,416,413;,
 4;413,417,418,412;,
 4;415,412,418,419;,
 4;420,418,417,421;,
 4;422,417,413,416;,
 4;418,420,423,419;,
 4;417,422,424,421;,
 4;421,425,426,420;,
 4;423,420,426,427;,
 4;428,426,425,429;,
 4;430,425,421,424;,
 3;426,428,427;,
 3;425,430,429;,
 4;431,432,433,434;,
 4;431,435,436,432;,
 4;433,432,437,438;,
 4;439,437,440,441;,
 4;442,440,432,436;,
 4;437,439,443,438;,
 4;440,442,444,441;,
 4;445,446,439,441;,
 4;443,439,446,447;,
 4;448,446,445,449;,
 4;450,445,441,444;,
 4;446,448,451,447;,
 4;445,450,452,449;,
 4;453,448,449,454;,
 4;455,454,449,452;,
 4;451,448,453,456;,
 4;457,453,454,458;,
 4;454,455,459,458;,
 4;453,457,460,456;,
 4;461,462,457,458;,
 4;460,457,462,463;,
 4;464,462,461,465;,
 4;466,461,458,459;,
 4;462,464,467,463;,
 4;461,466,468,465;,
 4;469,470,464,465;,
 4;467,464,470,471;,
 4;472,470,469,473;,
 4;474,469,465,468;,
 4;470,472,475,471;,
 4;469,474,476,473;,
 4;477,478,472,473;,
 4;475,472,478,479;,
 4;480,478,477,481;,
 4;482,477,473,476;,
 4;478,480,483,479;,
 4;477,482,484,481;,
 4;485,486,480,481;,
 4;483,480,486,487;,
 4;488,486,485,489;,
 4;490,485,481,484;,
 4;486,488,491,487;,
 4;485,490,492,489;,
 4;493,494,488,489;,
 4;491,488,494,495;,
 4;496,494,493,497;,
 4;498,493,489,492;,
 4;494,496,499,495;,
 4;493,498,500,497;,
 4;501,502,496,497;,
 4;499,496,502,503;,
 4;504,502,501,505;,
 4;506,501,497,500;,
 3;502,504,503;,
 3;501,506,505;,
 4;490,484,407,411;,
 4;403,407,484,482;,
 4;492,490,411,415;,
 4;436,435,357,356;,
 4;359,358,434,433;,
 4;442,436,356,363;,
 4;444,442,363,367;,
 4;433,438,366,359;,
 4;368,366,438,443;,
 4;450,444,367,371;,
 4;452,450,371,375;,
 4;443,447,374,368;,
 4;376,374,447,451;,
 4;451,456,381,376;,
 4;384,381,456,460;,
 4;455,452,375,382;,
 4;459,455,382,383;,
 4;466,459,383,387;,
 4;468,466,387,391;,
 4;460,463,390,384;,
 4;392,390,463,467;,
 4;474,468,391,395;,
 4;476,474,395,399;,
 4;467,471,398,392;,
 4;400,398,471,475;,
 4;482,476,399,403;,
 4;475,479,406,400;,
 4;408,406,479,483;,
 4;483,487,414,408;,
 4;416,414,487,491;,
 4;498,492,415,419;,
 4;500,498,419,423;,
 4;491,495,422,416;,
 4;424,422,495,499;,
 4;506,500,423,427;,
 4;505,506,427,428;,
 4;504,505,428,429;,
 4;503,504,429,430;,
 4;499,503,430,424;,
 3;360,355,354;,
 3;440,437,432;,
 3;354,357,507;,
 3;357,435,507;,
 3;358,354,507;,
 3;434,358,507;,
 3;431,434,507;,
 3;435,431,507;;
 
 MeshMaterialList {
  3;
  490;
  0,
  0,
  0,
  0,
  0,
  0,
  0,
  0,
  0,
  0,
  0,
  0,
  0,
  0,
  0,
  0,
  0,
  0,
  0,
  0,
  0,
  0,
  0,
  0,
  0,
  0,
  0,
  0,
  0,
  0,
  0,
  0,
  0,
  0,
  0,
  0,
  0,
  0,
  0,
  0,
  0,
  0,
  0,
  0,
  0,
  0,
  0,
  0,
  0,
  0,
  0,
  0,
  0,
  0,
  0,
  0,
  0,
  0,
  0,
  0,
  0,
  0,
  0,
  0,
  0,
  0,
  0,
  0,
  0,
  0,
  0,
  0,
  0,
  0,
  0,
  0,
  0,
  0,
  0,
  0,
  0,
  0,
  0,
  0,
  0,
  0,
  0,
  0,
  0,
  0,
  0,
  0,
  0,
  0,
  2,
  2,
  2,
  2,
  2,
  2,
  2,
  2,
  2,
  2,
  2,
  2,
  2,
  2,
  2,
  2,
  2,
  2,
  2,
  2,
  2,
  2,
  2,
  2,
  2,
  2,
  2,
  2,
  2,
  2,
  2,
  2,
  2,
  2,
  2,
  2,
  2,
  2,
  2,
  2,
  2,
  2,
  2,
  2,
  2,
  2,
  2,
  2,
  2,
  2,
  2,
  2,
  2,
  2,
  2,
  2,
  2,
  2,
  2,
  2,
  2,
  2,
  2,
  2,
  2,
  2,
  2,
  2,
  2,
  2,
  2,
  2,
  2,
  2,
  2,
  2,
  2,
  2,
  2,
  2,
  2,
  2,
  2,
  2,
  2,
  2,
  2,
  2,
  2,
  2,
  2,
  2,
  2,
  2,
  2,
  2,
  2,
  2,
  2,
  2,
  2,
  2,
  2,
  2,
  2,
  2,
  2,
  2,
  2,
  2,
  2,
  2,
  2,
  2,
  2,
  2,
  2,
  2,
  2,
  2,
  2,
  2,
  2,
  2,
  2,
  2,
  2,
  2,
  2,
  2,
  2,
  2,
  2,
  2,
  2,
  2,
  2,
  2,
  2,
  2,
  2,
  2,
  2,
  2,
  2,
  2,
  2,
  2,
  2,
  2,
  2,
  2,
  2,
  2,
  2,
  2,
  2,
  2,
  2,
  2,
  2,
  2,
  2,
  2,
  2,
  2,
  2,
  2,
  2,
  2,
  2,
  2,
  2,
  2,
  2,
  2,
  2,
  2,
  2,
  2,
  2,
  2,
  2,
  2,
  2,
  2,
  2,
  2,
  2,
  2,
  2,
  2,
  2,
  2,
  2,
  2,
  2,
  2,
  2,
  2,
  2,
  2,
  2,
  2,
  2,
  2,
  2,
  2,
  2,
  2,
  2,
  2,
  2,
  2,
  2,
  2,
  2,
  2,
  2,
  2,
  2,
  2,
  2,
  2,
  2,
  2,
  2,
  2,
  2,
  2,
  2,
  2,
  2,
  2,
  2,
  2,
  2,
  2,
  2,
  2,
  2,
  2,
  2,
  2,
  2,
  2,
  2,
  2,
  2,
  2,
  2,
  2,
  2,
  2,
  2,
  2,
  2,
  2,
  2,
  2,
  2,
  2,
  2,
  2,
  2,
  2,
  2,
  2,
  2,
  2,
  2,
  2,
  2,
  2,
  2,
  2,
  2,
  2,
  2,
  2,
  2,
  2,
  2,
  2,
  2,
  2,
  2,
  2,
  2,
  2,
  2,
  2,
  2,
  2,
  2,
  2,
  2,
  2,
  2,
  2,
  2,
  2,
  2,
  2,
  2,
  2,
  2,
  2,
  2,
  2,
  2,
  2,
  2,
  2,
  2,
  2,
  2,
  2,
  2,
  2,
  2,
  2,
  2,
  2,
  2,
  2,
  2,
  2,
  2,
  2,
  2,
  2,
  2,
  2,
  2,
  2,
  2,
  2,
  2,
  2,
  2,
  2,
  2,
  2,
  2,
  2,
  2,
  2,
  2,
  2,
  2,
  2,
  2,
  2,
  2,
  2,
  2,
  2,
  2,
  2,
  2,
  2,
  2,
  2,
  2,
  2,
  2,
  2,
  2,
  2,
  2,
  2,
  2,
  2,
  2,
  2,
  2,
  2,
  2,
  2,
  2,
  2,
  2,
  2,
  2,
  2,
  2,
  2,
  2,
  2,
  2,
  2,
  2,
  2,
  2,
  2;;
  Material {
   0.800000;0.561600;0.332800;1.000000;;
   5.000000;
   0.000000;0.000000;0.000000;;
   0.000000;0.000000;0.000000;;
   TextureFilename {
    "data/texture/wood2.png";
   }
  }
  Material {
   0.800000;0.800000;0.800000;0.500000;;
   5.000000;
   0.000000;0.000000;0.000000;;
   0.000000;0.000000;0.000000;;
  }
  Material {
   0.620800;0.602400;0.279200;1.000000;;
   5.000000;
   0.300000;0.300000;0.300000;;
   0.000000;0.000000;0.000000;;
  }
 }
 MeshTextureCoords {
  508;
  0.000200;-0.536320;,
  0.156240;-0.536320;,
  0.156240;1.539130;,
  0.000200;1.539130;,
  0.982090;-0.536320;,
  1.138130;-0.536320;,
  1.138130;1.539130;,
  0.982090;1.539130;,
  0.156240;1.769570;,
  0.000200;1.769570;,
  0.982090;1.769570;,
  1.138130;1.769570;,
  0.977960;-0.532100;,
  0.160370;-0.532100;,
  0.977960;1.534910;,
  0.160370;1.534910;,
  0.965940;-0.519820;,
  0.172390;-0.519820;,
  0.172390;-0.519820;,
  0.965940;-0.519820;,
  0.965940;1.522630;,
  0.965940;1.522630;,
  0.172390;1.522630;,
  0.172390;1.522630;,
  0.950070;-0.503600;,
  0.188270;-0.503600;,
  0.950070;1.506410;,
  0.188270;1.506410;,
  0.950070;-0.503600;,
  0.188270;-0.503600;,
  0.950070;1.506410;,
  0.188270;1.506410;,
  0.884310;-0.436400;,
  0.254030;-0.436400;,
  0.884310;1.439210;,
  0.254030;1.439210;,
  0.881160;-0.433180;,
  0.257180;-0.433180;,
  0.881160;1.435990;,
  0.257180;1.435990;,
  0.164320;-0.528070;,
  0.974020;-0.528070;,
  0.974020;1.530880;,
  0.164320;1.530880;,
  0.000200;1.539130;,
  0.156240;1.539130;,
  0.156240;-0.536320;,
  0.000200;-0.536320;,
  0.982090;1.539130;,
  1.138130;1.539130;,
  1.138130;-0.536320;,
  0.982090;-0.536320;,
  0.000200;1.769570;,
  0.156240;1.769570;,
  0.982090;1.769570;,
  1.138130;1.769570;,
  0.160370;-0.532100;,
  0.977960;-0.532100;,
  0.977960;1.534910;,
  0.160370;1.534910;,
  0.965940;-0.519820;,
  0.172390;-0.519820;,
  0.172390;-0.519820;,
  0.965940;-0.519820;,
  0.965940;1.522630;,
  0.965940;1.522630;,
  0.172390;1.522630;,
  0.172390;1.522630;,
  0.188270;-0.503600;,
  0.950070;-0.503600;,
  0.950070;1.506410;,
  0.188270;1.506410;,
  0.188270;-0.503600;,
  0.950070;-0.503600;,
  0.950070;1.506410;,
  0.188270;1.506410;,
  0.254030;-0.436400;,
  0.884310;-0.436400;,
  0.884310;1.439210;,
  0.254030;1.439210;,
  0.257180;-0.433180;,
  0.881160;-0.433180;,
  0.881160;1.435990;,
  0.257180;1.435990;,
  0.974020;-0.528070;,
  0.164320;-0.528070;,
  0.974020;1.530880;,
  0.164320;1.530880;,
  0.000200;-0.762010;,
  0.000200;-0.762010;,
  0.156240;-0.762010;,
  0.156240;-0.762010;,
  0.982090;-0.762010;,
  0.982090;-0.762010;,
  1.138130;-0.762010;,
  1.138130;-0.762010;,
  0.000000;0.000000;,
  0.125000;0.000000;,
  0.125000;1.000000;,
  0.000000;1.000000;,
  0.250000;0.000000;,
  0.250000;1.000000;,
  0.375000;0.000000;,
  0.375000;1.000000;,
  0.500000;0.000000;,
  0.500000;1.000000;,
  0.625000;0.000000;,
  0.625000;1.000000;,
  0.750000;0.000000;,
  0.750000;1.000000;,
  0.875000;0.000000;,
  0.875000;1.000000;,
  1.000000;0.000000;,
  1.000000;1.000000;,
  0.062500;0.000000;,
  0.187500;0.000000;,
  0.312500;0.000000;,
  0.437500;0.000000;,
  0.562500;0.000000;,
  0.687500;0.000000;,
  0.812500;0.000000;,
  0.937500;0.000000;,
  0.125000;1.000000;,
  0.000000;1.000000;,
  0.250000;1.000000;,
  0.375000;1.000000;,
  0.500000;1.000000;,
  0.625000;1.000000;,
  0.750000;1.000000;,
  0.875000;1.000000;,
  1.000000;1.000000;,
  0.125000;1.000000;,
  0.000000;1.000000;,
  0.062500;1.000000;,
  0.250000;1.000000;,
  0.187500;1.000000;,
  0.375000;1.000000;,
  0.312500;1.000000;,
  0.500000;1.000000;,
  0.437500;1.000000;,
  0.625000;1.000000;,
  0.562500;1.000000;,
  0.750000;1.000000;,
  0.687500;1.000000;,
  0.875000;1.000000;,
  0.812500;1.000000;,
  1.000000;1.000000;,
  0.937500;1.000000;,
  0.000000;0.000000;,
  0.000000;0.000000;,
  0.000000;0.000000;,
  0.000000;0.000000;,
  0.000000;0.000000;,
  0.000000;0.000000;,
  0.000000;0.000000;,
  0.000000;0.000000;,
  0.000000;0.000000;,
  0.000000;0.000000;,
  0.000000;0.000000;,
  0.000000;0.000000;,
  0.000000;0.000000;,
  0.000000;0.000000;,
  0.000000;0.000000;,
  0.000000;0.000000;,
  0.000000;0.000000;,
  0.000000;0.000000;,
  0.000000;0.000000;,
  0.000000;0.000000;,
  0.000000;0.000000;,
  0.000000;0.000000;,
  0.000000;0.000000;,
  0.000000;0.000000;,
  0.000000;0.000000;,
  0.000000;0.000000;,
  0.000000;0.000000;,
  0.000000;0.000000;,
  0.000000;0.000000;,
  0.000000;0.000000;,
  0.000000;0.000000;,
  0.000000;0.000000;,
  0.000000;0.000000;,
  0.000000;0.000000;,
  0.000000;0.000000;,
  0.000000;0.000000;,
  0.000000;0.000000;,
  0.000000;0.000000;,
  0.000000;0.000000;,
  0.000000;0.000000;,
  0.000000;0.000000;,
  0.000000;0.000000;,
  0.000000;0.000000;,
  0.000000;0.000000;,
  0.000000;0.000000;,
  0.000000;0.000000;,
  0.000000;0.000000;,
  0.000000;0.000000;,
  0.000000;0.000000;,
  0.000000;0.000000;,
  0.000000;0.000000;,
  0.000000;0.000000;,
  0.000000;0.000000;,
  0.000000;0.000000;,
  0.000000;0.000000;,
  0.000000;0.000000;,
  0.000000;0.000000;,
  0.000000;0.000000;,
  0.000000;0.000000;,
  0.000000;0.000000;,
  0.000000;0.000000;,
  0.000000;0.000000;,
  0.000000;0.000000;,
  0.000000;0.000000;,
  0.000000;0.000000;,
  0.000000;0.000000;,
  0.000000;0.000000;,
  0.000000;0.000000;,
  0.000000;0.000000;,
  0.000000;0.000000;,
  0.000000;0.000000;,
  0.000000;0.000000;,
  0.000000;0.000000;,
  0.000000;0.000000;,
  0.000000;0.000000;,
  0.000000;0.000000;,
  0.000000;0.000000;,
  0.000000;0.000000;,
  0.000000;0.000000;,
  0.000000;0.000000;,
  0.000000;0.000000;,
  0.000000;0.000000;,
  0.000000;0.000000;,
  0.000000;0.000000;,
  0.000000;0.000000;,
  0.000000;0.000000;,
  0.000000;0.000000;,
  0.000000;0.000000;,
  0.000000;0.000000;,
  0.000000;0.000000;,
  0.000000;0.000000;,
  0.000000;0.000000;,
  0.000000;0.000000;,
  0.000000;0.000000;,
  0.000000;0.000000;,
  0.000000;0.000000;,
  0.000000;0.000000;,
  0.000000;0.000000;,
  0.000000;0.000000;,
  0.000000;0.000000;,
  0.000000;0.000000;,
  0.000000;0.000000;,
  0.000000;0.000000;,
  0.000000;0.000000;,
  0.000000;0.000000;,
  0.000000;0.000000;,
  0.000000;0.000000;,
  0.000000;0.000000;,
  0.000000;0.000000;,
  0.000000;0.000000;,
  0.000000;0.000000;,
  0.000000;0.000000;,
  0.000000;0.000000;,
  0.000000;0.000000;,
  0.000000;0.000000;,
  0.000000;0.000000;,
  0.000000;0.000000;,
  0.000000;0.000000;,
  0.000000;0.000000;,
  0.000000;0.000000;,
  0.000000;0.000000;,
  0.000000;0.000000;,
  0.000000;0.000000;,
  0.000000;0.000000;,
  0.000000;0.000000;,
  0.000000;0.000000;,
  0.000000;0.000000;,
  0.000000;0.000000;,
  0.000000;0.000000;,
  0.000000;0.000000;,
  0.000000;0.000000;,
  0.000000;0.000000;,
  0.000000;0.000000;,
  0.000000;0.000000;,
  0.000000;0.000000;,
  0.000000;0.000000;,
  0.000000;0.000000;,
  0.000000;0.000000;,
  0.000000;0.000000;,
  0.000000;0.000000;,
  0.000000;0.000000;,
  0.000000;0.000000;,
  0.000000;0.000000;,
  0.000000;0.000000;,
  0.000000;0.000000;,
  0.000000;0.000000;,
  0.000000;0.000000;,
  0.000000;0.000000;,
  0.000000;0.000000;,
  0.000000;0.000000;,
  0.000000;0.000000;,
  0.000000;0.000000;,
  0.000000;0.000000;,
  0.000000;0.000000;,
  0.000000;1.000000;,
  0.125000;1.000000;,
  0.125000;0.000000;,
  0.000000;0.000000;,
  0.250000;1.000000;,
  0.250000;0.000000;,
  0.375000;1.000000;,
  0.375000;0.000000;,
  0.500000;1.000000;,
  0.500000;0.000000;,
  0.625000;1.000000;,
  0.625000;0.000000;,
  0.750000;1.000000;,
  0.750000;0.000000;,
  0.875000;1.000000;,
  0.875000;0.000000;,
  1.000000;1.000000;,
  1.000000;0.000000;,
  0.062500;0.000000;,
  0.187500;0.000000;,
  0.312500;0.000000;,
  0.437500;0.000000;,
  0.562500;0.000000;,
  0.687500;0.000000;,
  0.812500;0.000000;,
  0.937500;0.000000;,
  0.000000;1.000000;,
  0.125000;1.000000;,
  0.250000;1.000000;,
  0.375000;1.000000;,
  0.500000;1.000000;,
  0.625000;1.000000;,
  0.750000;1.000000;,
  0.875000;1.000000;,
  1.000000;1.000000;,
  0.000000;1.000000;,
  0.125000;1.000000;,
  0.062500;1.000000;,
  0.250000;1.000000;,
  0.187500;1.000000;,
  0.375000;1.000000;,
  0.312500;1.000000;,
  0.500000;1.000000;,
  0.437500;1.000000;,
  0.625000;1.000000;,
  0.562500;1.000000;,
  0.750000;1.000000;,
  0.687500;1.000000;,
  0.875000;1.000000;,
  0.812500;1.000000;,
  1.000000;1.000000;,
  0.937500;1.000000;,
  0.000000;0.000000;,
  0.000000;0.000000;,
  0.000000;0.000000;,
  0.000000;0.000000;,
  0.000000;0.000000;,
  0.000000;0.000000;,
  0.000000;0.000000;,
  0.000000;0.000000;,
  0.000000;0.000000;,
  0.000000;0.000000;,
  0.000000;0.000000;,
  0.000000;0.000000;,
  0.000000;0.000000;,
  0.000000;0.000000;,
  0.000000;0.000000;,
  0.000000;0.000000;,
  0.000000;0.000000;,
  0.000000;0.000000;,
  0.000000;0.000000;,
  0.000000;0.000000;,
  0.000000;0.000000;,
  0.000000;0.000000;,
  0.000000;0.000000;,
  0.000000;0.000000;,
  0.000000;0.000000;,
  0.000000;0.000000;,
  0.000000;0.000000;,
  0.000000;0.000000;,
  0.000000;0.000000;,
  0.000000;0.000000;,
  0.000000;0.000000;,
  0.000000;0.000000;,
  0.000000;0.000000;,
  0.000000;0.000000;,
  0.000000;0.000000;,
  0.000000;0.000000;,
  0.000000;0.000000;,
  0.000000;0.000000;,
  0.000000;0.000000;,
  0.000000;0.000000;,
  0.000000;0.000000;,
  0.000000;0.000000;,
  0.000000;0.000000;,
  0.000000;0.000000;,
  0.000000;0.000000;,
  0.000000;0.000000;,
  0.000000;0.000000;,
  0.000000;0.000000;,
  0.000000;0.000000;,
  0.000000;0.000000;,
  0.000000;0.000000;,
  0.000000;0.000000;,
  0.000000;0.000000;,
  0.000000;0.000000;,
  0.000000;0.000000;,
  0.000000;0.000000;,
  0.000000;0.000000;,
  0.000000;0.000000;,
  0.000000;0.000000;,
  0.000000;0.000000;,
  0.000000;0.000000;,
  0.000000;0.000000;,
  0.000000;0.000000;,
  0.000000;0.000000;,
  0.000000;0.000000;,
  0.000000;0.000000;,
  0.000000;0.000000;,
  0.000000;0.000000;,
  0.000000;0.000000;,
  0.000000;0.000000;,
  0.000000;0.000000;,
  0.000000;0.000000;,
  0.000000;0.000000;,
  0.000000;0.000000;,
  0.000000;0.000000;,
  0.000000;0.000000;,
  0.000000;0.000000;,
  0.000000;0.000000;,
  0.000000;0.000000;,
  0.000000;0.000000;,
  0.000000;0.000000;,
  0.000000;0.000000;,
  0.000000;0.000000;,
  0.000000;0.000000;,
  0.000000;0.000000;,
  0.000000;0.000000;,
  0.000000;0.000000;,
  0.000000;0.000000;,
  0.000000;0.000000;,
  0.000000;0.000000;,
  0.000000;0.000000;,
  0.000000;0.000000;,
  0.000000;0.000000;,
  0.000000;0.000000;,
  0.000000;0.000000;,
  0.000000;0.000000;,
  0.000000;0.000000;,
  0.000000;0.000000;,
  0.000000;0.000000;,
  0.000000;0.000000;,
  0.000000;0.000000;,
  0.000000;0.000000;,
  0.000000;0.000000;,
  0.000000;0.000000;,
  0.000000;0.000000;,
  0.000000;0.000000;,
  0.000000;0.000000;,
  0.000000;0.000000;,
  0.000000;0.000000;,
  0.000000;0.000000;,
  0.000000;0.000000;,
  0.000000;0.000000;,
  0.000000;0.000000;,
  0.000000;0.000000;,
  0.000000;0.000000;,
  0.000000;0.000000;,
  0.000000;0.000000;,
  0.000000;0.000000;,
  0.000000;0.000000;,
  0.000000;0.000000;,
  0.000000;0.000000;,
  0.000000;0.000000;,
  0.000000;0.000000;,
  0.000000;0.000000;,
  0.000000;0.000000;,
  0.000000;0.000000;,
  0.000000;0.000000;,
  0.000000;0.000000;,
  0.000000;0.000000;,
  0.000000;0.000000;,
  0.000000;0.000000;,
  0.000000;0.000000;,
  0.000000;0.000000;,
  0.000000;0.000000;,
  0.000000;0.000000;,
  0.000000;0.000000;,
  0.000000;0.000000;,
  0.000000;0.000000;,
  0.000000;0.000000;,
  0.000000;0.000000;,
  0.000000;0.000000;,
  0.000000;0.000000;,
  0.000000;0.000000;,
  0.000000;0.000000;,
  0.000000;0.000000;,
  0.000000;0.000000;,
  0.000000;0.000000;,
  0.000000;0.000000;,
  0.000000;0.000000;,
  0.000000;0.000000;,
  0.000000;0.000000;,
  0.000000;0.000000;,
  0.000000;0.000000;,
  0.000000;0.000000;;
 }
}
